LAMMPS data file
1000 atoms
8 atom types
950 bonds
1 bond types

0 65 xlo xhi
0 65 ylo yhi
0 65 zlo zhi

Atoms

1 1 1 -1 1.0 1.0 1.0
2 1 3 1 1.96 1.0 1.0
3 1 1 -1 2.92 1.0 1.0
4 1 4 0 3.88 1.0 1.0
5 1 1 -1 4.84 1.0 1.0
6 1 1 -1 5.8 1.0 1.0
7 1 1 -1 6.76 1.0 1.0
8 1 2 0 7.72 1.0 1.0
9 1 1 -1 8.68 1.0 1.0
10 1 2 0 9.64 1.0 1.0
11 1 1 -1 10.6 1.0 1.0
12 1 1 -1 11.56 1.0 1.0
13 1 1 -1 12.52 1.0 1.0
14 1 2 0 13.48 1.0 1.0
15 1 2 0 14.44 1.0 1.0
16 1 1 -1 15.4 1.0 1.0
17 1 1 -1 16.36 1.0 1.0
18 1 1 -1 17.32 1.0 1.0
19 1 1 -1 18.28 1.0 1.0
20 1 1 -1 19.24 1.0 1.0
21 2 2 0 1.0 3.0 1.0
22 2 1 -1 1.96 3.0 1.0
23 2 1 -1 2.92 3.0 1.0
24 2 4 0 3.88 3.0 1.0
25 2 1 -1 4.84 3.0 1.0
26 2 3 1 5.8 3.0 1.0
27 2 2 0 6.76 3.0 1.0
28 2 1 -1 7.72 3.0 1.0
29 2 2 0 8.68 3.0 1.0
30 2 1 -1 9.64 3.0 1.0
31 2 1 -1 10.6 3.0 1.0
32 2 2 0 11.56 3.0 1.0
33 2 1 -1 12.52 3.0 1.0
34 2 1 -1 13.48 3.0 1.0
35 2 1 -1 14.44 3.0 1.0
36 2 1 -1 15.4 3.0 1.0
37 2 1 -1 16.36 3.0 1.0
38 2 1 -1 17.32 3.0 1.0
39 2 1 -1 18.28 3.0 1.0
40 2 1 -1 19.24 3.0 1.0
41 3 2 0 1.0 5.0 1.0
42 3 2 0 1.96 5.0 1.0
43 3 1 -1 2.92 5.0 1.0
44 3 2 0 3.88 5.0 1.0
45 3 1 -1 4.84 5.0 1.0
46 3 4 0 5.8 5.0 1.0
47 3 1 -1 6.76 5.0 1.0
48 3 1 -1 7.72 5.0 1.0
49 3 1 -1 8.68 5.0 1.0
50 3 1 -1 9.64 5.0 1.0
51 3 1 -1 10.6 5.0 1.0
52 3 1 -1 11.56 5.0 1.0
53 3 1 -1 12.52 5.0 1.0
54 3 1 -1 13.48 5.0 1.0
55 3 1 -1 14.44 5.0 1.0
56 3 1 -1 15.4 5.0 1.0
57 3 1 -1 16.36 5.0 1.0
58 3 1 -1 17.32 5.0 1.0
59 3 3 1 18.28 5.0 1.0
60 3 2 0 19.24 5.0 1.0
61 4 2 0 1.0 7.0 1.0
62 4 2 0 1.96 7.0 1.0
63 4 1 -1 2.92 7.0 1.0
64 4 1 -1 3.88 7.0 1.0
65 4 1 -1 4.84 7.0 1.0
66 4 1 -1 5.8 7.0 1.0
67 4 3 1 6.76 7.0 1.0
68 4 2 0 7.72 7.0 1.0
69 4 1 -1 8.68 7.0 1.0
70 4 1 -1 9.64 7.0 1.0
71 4 1 -1 10.6 7.0 1.0
72 4 1 -1 11.56 7.0 1.0
73 4 1 -1 12.52 7.0 1.0
74 4 1 -1 13.48 7.0 1.0
75 4 1 -1 14.44 7.0 1.0
76 4 2 0 15.4 7.0 1.0
77 4 1 -1 16.36 7.0 1.0
78 4 4 0 17.32 7.0 1.0
79 4 1 -1 18.28 7.0 1.0
80 4 1 -1 19.24 7.0 1.0
81 5 1 -1 1.0 9.0 1.0
82 5 2 0 1.96 9.0 1.0
83 5 2 0 2.92 9.0 1.0
84 5 1 -1 3.88 9.0 1.0
85 5 1 -1 4.84 9.0 1.0
86 5 4 0 5.8 9.0 1.0
87 5 1 -1 6.76 9.0 1.0
88 5 3 1 7.72 9.0 1.0
89 5 1 -1 8.68 9.0 1.0
90 5 2 0 9.64 9.0 1.0
91 5 1 -1 10.6 9.0 1.0
92 5 1 -1 11.56 9.0 1.0
93 5 1 -1 12.52 9.0 1.0
94 5 2 0 13.48 9.0 1.0
95 5 1 -1 14.44 9.0 1.0
96 5 1 -1 15.4 9.0 1.0
97 5 1 -1 16.36 9.0 1.0
98 5 1 -1 17.32 9.0 1.0
99 5 1 -1 18.28 9.0 1.0
100 5 1 -1 19.24 9.0 1.0
101 6 1 -1 1.0 1.0 3.0
102 6 2 0 1.96 1.0 3.0
103 6 1 -1 2.92 1.0 3.0
104 6 1 -1 3.88 1.0 3.0
105 6 1 -1 4.84 1.0 3.0
106 6 2 0 5.8 1.0 3.0
107 6 1 -1 6.76 1.0 3.0
108 6 1 -1 7.72 1.0 3.0
109 6 1 -1 8.68 1.0 3.0
110 6 1 -1 9.64 1.0 3.0
111 6 1 -1 10.6 1.0 3.0
112 6 1 -1 11.56 1.0 3.0
113 6 1 -1 12.52 1.0 3.0
114 6 1 -1 13.48 1.0 3.0
115 6 3 1 14.44 1.0 3.0
116 6 2 0 15.4 1.0 3.0
117 6 1 -1 16.36 1.0 3.0
118 6 2 0 17.32 1.0 3.0
119 6 1 -1 18.28 1.0 3.0
120 6 4 0 19.24 1.0 3.0
121 7 1 -1 1.0 3.0 3.0
122 7 3 1 1.96 3.0 3.0
123 7 2 0 2.92 3.0 3.0
124 7 1 -1 3.88 3.0 3.0
125 7 1 -1 4.84 3.0 3.0
126 7 2 0 5.8 3.0 3.0
127 7 2 0 6.76 3.0 3.0
128 7 1 -1 7.72 3.0 3.0
129 7 1 -1 8.68 3.0 3.0
130 7 2 0 9.64 3.0 3.0
131 7 1 -1 10.6 3.0 3.0
132 7 1 -1 11.56 3.0 3.0
133 7 1 -1 12.52 3.0 3.0
134 7 1 -1 13.48 3.0 3.0
135 7 1 -1 14.44 3.0 3.0
136 7 4 0 15.4 3.0 3.0
137 7 1 -1 16.36 3.0 3.0
138 7 1 -1 17.32 3.0 3.0
139 7 1 -1 18.28 3.0 3.0
140 7 1 -1 19.24 3.0 3.0
141 8 1 -1 1.0 5.0 3.0
142 8 1 -1 1.96 5.0 3.0
143 8 2 0 2.92 5.0 3.0
144 8 1 -1 3.88 5.0 3.0
145 8 1 -1 4.84 5.0 3.0
146 8 1 -1 5.8 5.0 3.0
147 8 1 -1 6.76 5.0 3.0
148 8 1 -1 7.72 5.0 3.0
149 8 1 -1 8.68 5.0 3.0
150 8 1 -1 9.64 5.0 3.0
151 8 1 -1 10.6 5.0 3.0
152 8 2 0 11.56 5.0 3.0
153 8 1 -1 12.52 5.0 3.0
154 8 1 -1 13.48 5.0 3.0
155 8 4 0 14.44 5.0 3.0
156 8 3 1 15.4 5.0 3.0
157 8 2 0 16.36 5.0 3.0
158 8 1 -1 17.32 5.0 3.0
159 8 1 -1 18.28 5.0 3.0
160 8 2 0 19.24 5.0 3.0
161 9 1 -1 1.0 7.0 3.0
162 9 1 -1 1.96 7.0 3.0
163 9 2 0 2.92 7.0 3.0
164 9 1 -1 3.88 7.0 3.0
165 9 1 -1 4.84 7.0 3.0
166 9 2 0 5.8 7.0 3.0
167 9 1 -1 6.76 7.0 3.0
168 9 1 -1 7.72 7.0 3.0
169 9 3 1 8.68 7.0 3.0
170 9 1 -1 9.64 7.0 3.0
171 9 1 -1 10.6 7.0 3.0
172 9 1 -1 11.56 7.0 3.0
173 9 1 -1 12.52 7.0 3.0
174 9 1 -1 13.48 7.0 3.0
175 9 1 -1 14.44 7.0 3.0
176 9 4 0 15.4 7.0 3.0
177 9 1 -1 16.36 7.0 3.0
178 9 1 -1 17.32 7.0 3.0
179 9 2 0 18.28 7.0 3.0
180 9 2 0 19.24 7.0 3.0
181 10 1 -1 1.0 9.0 3.0
182 10 1 -1 1.96 9.0 3.0
183 10 2 0 2.92 9.0 3.0
184 10 2 0 3.88 9.0 3.0
185 10 1 -1 4.84 9.0 3.0
186 10 1 -1 5.8 9.0 3.0
187 10 1 -1 6.76 9.0 3.0
188 10 1 -1 7.72 9.0 3.0
189 10 1 -1 8.68 9.0 3.0
190 10 1 -1 9.64 9.0 3.0
191 10 1 -1 10.6 9.0 3.0
192 10 2 0 11.56 9.0 3.0
193 10 1 -1 12.52 9.0 3.0
194 10 4 0 13.48 9.0 3.0
195 10 1 -1 14.44 9.0 3.0
196 10 1 -1 15.4 9.0 3.0
197 10 1 -1 16.36 9.0 3.0
198 10 3 1 17.32 9.0 3.0
199 10 2 0 18.28 9.0 3.0
200 10 1 -1 19.24 9.0 3.0
201 11 2 0 1.0 1.0 5.0
202 11 1 -1 1.96 1.0 5.0
203 11 1 -1 2.92 1.0 5.0
204 11 2 0 3.88 1.0 5.0
205 11 1 -1 4.84 1.0 5.0
206 11 1 -1 5.8 1.0 5.0
207 11 1 -1 6.76 1.0 5.0
208 11 1 -1 7.72 1.0 5.0
209 11 2 0 8.68 1.0 5.0
210 11 1 -1 9.64 1.0 5.0
211 11 1 -1 10.6 1.0 5.0
212 11 1 -1 11.56 1.0 5.0
213 11 1 -1 12.52 1.0 5.0
214 11 1 -1 13.48 1.0 5.0
215 11 2 0 14.44 1.0 5.0
216 11 3 1 15.4 1.0 5.0
217 11 1 -1 16.36 1.0 5.0
218 11 1 -1 17.32 1.0 5.0
219 11 1 -1 18.28 1.0 5.0
220 11 4 0 19.24 1.0 5.0
221 12 1 -1 1.0 3.0 5.0
222 12 1 -1 1.96 3.0 5.0
223 12 2 0 2.92 3.0 5.0
224 12 1 -1 3.88 3.0 5.0
225 12 1 -1 4.84 3.0 5.0
226 12 4 0 5.8 3.0 5.0
227 12 1 -1 6.76 3.0 5.0
228 12 1 -1 7.72 3.0 5.0
229 12 1 -1 8.68 3.0 5.0
230 12 2 0 9.64 3.0 5.0
231 12 1 -1 10.6 3.0 5.0
232 12 1 -1 11.56 3.0 5.0
233 12 2 0 12.52 3.0 5.0
234 12 2 0 13.48 3.0 5.0
235 12 1 -1 14.44 3.0 5.0
236 12 1 -1 15.4 3.0 5.0
237 12 1 -1 16.36 3.0 5.0
238 12 3 1 17.32 3.0 5.0
239 12 1 -1 18.28 3.0 5.0
240 12 1 -1 19.24 3.0 5.0
241 13 1 -1 1.0 5.0 5.0
242 13 1 -1 1.96 5.0 5.0
243 13 3 1 2.92 5.0 5.0
244 13 1 -1 3.88 5.0 5.0
245 13 1 -1 4.84 5.0 5.0
246 13 1 -1 5.8 5.0 5.0
247 13 2 0 6.76 5.0 5.0
248 13 2 0 7.72 5.0 5.0
249 13 1 -1 8.68 5.0 5.0
250 13 1 -1 9.64 5.0 5.0
251 13 1 -1 10.6 5.0 5.0
252 13 1 -1 11.56 5.0 5.0
253 13 1 -1 12.52 5.0 5.0
254 13 1 -1 13.48 5.0 5.0
255 13 1 -1 14.44 5.0 5.0
256 13 1 -1 15.4 5.0 5.0
257 13 2 0 16.36 5.0 5.0
258 13 1 -1 17.32 5.0 5.0
259 13 2 0 18.28 5.0 5.0
260 13 4 0 19.24 5.0 5.0
261 14 1 -1 1.0 7.0 5.0
262 14 1 -1 1.96 7.0 5.0
263 14 1 -1 2.92 7.0 5.0
264 14 1 -1 3.88 7.0 5.0
265 14 4 0 4.84 7.0 5.0
266 14 1 -1 5.8 7.0 5.0
267 14 1 -1 6.76 7.0 5.0
268 14 2 0 7.72 7.0 5.0
269 14 1 -1 8.68 7.0 5.0
270 14 2 0 9.64 7.0 5.0
271 14 2 0 10.6 7.0 5.0
272 14 1 -1 11.56 7.0 5.0
273 14 1 -1 12.52 7.0 5.0
274 14 1 -1 13.48 7.0 5.0
275 14 2 0 14.44 7.0 5.0
276 14 1 -1 15.4 7.0 5.0
277 14 1 -1 16.36 7.0 5.0
278 14 1 -1 17.32 7.0 5.0
279 14 1 -1 18.28 7.0 5.0
280 14 3 1 19.24 7.0 5.0
281 15 1 -1 1.0 9.0 5.0
282 15 1 -1 1.96 9.0 5.0
283 15 1 -1 2.92 9.0 5.0
284 15 2 0 3.88 9.0 5.0
285 15 1 -1 4.84 9.0 5.0
286 15 1 -1 5.8 9.0 5.0
287 15 1 -1 6.76 9.0 5.0
288 15 1 -1 7.72 9.0 5.0
289 15 2 0 8.68 9.0 5.0
290 15 1 -1 9.64 9.0 5.0
291 15 1 -1 10.6 9.0 5.0
292 15 1 -1 11.56 9.0 5.0
293 15 1 -1 12.52 9.0 5.0
294 15 1 -1 13.48 9.0 5.0
295 15 2 0 14.44 9.0 5.0
296 15 1 -1 15.4 9.0 5.0
297 15 4 0 16.36 9.0 5.0
298 15 1 -1 17.32 9.0 5.0
299 15 3 1 18.28 9.0 5.0
300 15 2 0 19.24 9.0 5.0
301 16 1 -1 1.0 1.0 7.0
302 16 1 -1 1.96 1.0 7.0
303 16 1 -1 2.92 1.0 7.0
304 16 1 -1 3.88 1.0 7.0
305 16 1 -1 4.84 1.0 7.0
306 16 1 -1 5.8 1.0 7.0
307 16 1 -1 6.76 1.0 7.0
308 16 1 -1 7.72 1.0 7.0
309 16 3 1 8.68 1.0 7.0
310 16 1 -1 9.64 1.0 7.0
311 16 1 -1 10.6 1.0 7.0
312 16 2 0 11.56 1.0 7.0
313 16 2 0 12.52 1.0 7.0
314 16 1 -1 13.48 1.0 7.0
315 16 1 -1 14.44 1.0 7.0
316 16 1 -1 15.4 1.0 7.0
317 16 2 0 16.36 1.0 7.0
318 16 2 0 17.32 1.0 7.0
319 16 1 -1 18.28 1.0 7.0
320 16 4 0 19.24 1.0 7.0
321 17 1 -1 1.0 3.0 7.0
322 17 1 -1 1.96 3.0 7.0
323 17 1 -1 2.92 3.0 7.0
324 17 1 -1 3.88 3.0 7.0
325 17 1 -1 4.84 3.0 7.0
326 17 1 -1 5.8 3.0 7.0
327 17 2 0 6.76 3.0 7.0
328 17 3 1 7.72 3.0 7.0
329 17 1 -1 8.68 3.0 7.0
330 17 1 -1 9.64 3.0 7.0
331 17 1 -1 10.6 3.0 7.0
332 17 2 0 11.56 3.0 7.0
333 17 1 -1 12.52 3.0 7.0
334 17 1 -1 13.48 3.0 7.0
335 17 1 -1 14.44 3.0 7.0
336 17 1 -1 15.4 3.0 7.0
337 17 2 0 16.36 3.0 7.0
338 17 2 0 17.32 3.0 7.0
339 17 4 0 18.28 3.0 7.0
340 17 1 -1 19.24 3.0 7.0
341 18 1 -1 1.0 5.0 7.0
342 18 1 -1 1.96 5.0 7.0
343 18 4 0 2.92 5.0 7.0
344 18 1 -1 3.88 5.0 7.0
345 18 1 -1 4.84 5.0 7.0
346 18 1 -1 5.8 5.0 7.0
347 18 1 -1 6.76 5.0 7.0
348 18 1 -1 7.72 5.0 7.0
349 18 1 -1 8.68 5.0 7.0
350 18 2 0 9.64 5.0 7.0
351 18 1 -1 10.6 5.0 7.0
352 18 3 1 11.56 5.0 7.0
353 18 2 0 12.52 5.0 7.0
354 18 1 -1 13.48 5.0 7.0
355 18 1 -1 14.44 5.0 7.0
356 18 1 -1 15.4 5.0 7.0
357 18 2 0 16.36 5.0 7.0
358 18 2 0 17.32 5.0 7.0
359 18 1 -1 18.28 5.0 7.0
360 18 1 -1 19.24 5.0 7.0
361 19 1 -1 1.0 7.0 7.0
362 19 2 0 1.96 7.0 7.0
363 19 2 0 2.92 7.0 7.0
364 19 1 -1 3.88 7.0 7.0
365 19 1 -1 4.84 7.0 7.0
366 19 1 -1 5.8 7.0 7.0
367 19 1 -1 6.76 7.0 7.0
368 19 1 -1 7.72 7.0 7.0
369 19 1 -1 8.68 7.0 7.0
370 19 2 0 9.64 7.0 7.0
371 19 1 -1 10.6 7.0 7.0
372 19 2 0 11.56 7.0 7.0
373 19 1 -1 12.52 7.0 7.0
374 19 1 -1 13.48 7.0 7.0
375 19 1 -1 14.44 7.0 7.0
376 19 1 -1 15.4 7.0 7.0
377 19 1 -1 16.36 7.0 7.0
378 19 4 0 17.32 7.0 7.0
379 19 3 1 18.28 7.0 7.0
380 19 1 -1 19.24 7.0 7.0
381 20 2 0 1.0 9.0 7.0
382 20 1 -1 1.96 9.0 7.0
383 20 2 0 2.92 9.0 7.0
384 20 3 1 3.88 9.0 7.0
385 20 4 0 4.84 9.0 7.0
386 20 1 -1 5.8 9.0 7.0
387 20 1 -1 6.76 9.0 7.0
388 20 1 -1 7.72 9.0 7.0
389 20 1 -1 8.68 9.0 7.0
390 20 1 -1 9.64 9.0 7.0
391 20 1 -1 10.6 9.0 7.0
392 20 1 -1 11.56 9.0 7.0
393 20 1 -1 12.52 9.0 7.0
394 20 1 -1 13.48 9.0 7.0
395 20 1 -1 14.44 9.0 7.0
396 20 2 0 15.4 9.0 7.0
397 20 1 -1 16.36 9.0 7.0
398 20 2 0 17.32 9.0 7.0
399 20 1 -1 18.28 9.0 7.0
400 20 1 -1 19.24 9.0 7.0
401 21 1 -1 1.0 1.0 9.0
402 21 1 -1 1.96 1.0 9.0
403 21 1 -1 2.92 1.0 9.0
404 21 2 0 3.88 1.0 9.0
405 21 1 -1 4.84 1.0 9.0
406 21 1 -1 5.8 1.0 9.0
407 21 1 -1 6.76 1.0 9.0
408 21 2 0 7.72 1.0 9.0
409 21 1 -1 8.68 1.0 9.0
410 21 1 -1 9.64 1.0 9.0
411 21 4 0 10.6 1.0 9.0
412 21 1 -1 11.56 1.0 9.0
413 21 3 1 12.52 1.0 9.0
414 21 1 -1 13.48 1.0 9.0
415 21 1 -1 14.44 1.0 9.0
416 21 2 0 15.4 1.0 9.0
417 21 1 -1 16.36 1.0 9.0
418 21 1 -1 17.32 1.0 9.0
419 21 1 -1 18.28 1.0 9.0
420 21 2 0 19.24 1.0 9.0
421 22 2 0 1.0 3.0 9.0
422 22 1 -1 1.96 3.0 9.0
423 22 1 -1 2.92 3.0 9.0
424 22 1 -1 3.88 3.0 9.0
425 22 1 -1 4.84 3.0 9.0
426 22 1 -1 5.8 3.0 9.0
427 22 2 0 6.76 3.0 9.0
428 22 1 -1 7.72 3.0 9.0
429 22 2 0 8.68 3.0 9.0
430 22 1 -1 9.64 3.0 9.0
431 22 1 -1 10.6 3.0 9.0
432 22 1 -1 11.56 3.0 9.0
433 22 1 -1 12.52 3.0 9.0
434 22 2 0 13.48 3.0 9.0
435 22 1 -1 14.44 3.0 9.0
436 22 3 1 15.4 3.0 9.0
437 22 1 -1 16.36 3.0 9.0
438 22 4 0 17.32 3.0 9.0
439 22 1 -1 18.28 3.0 9.0
440 22 1 -1 19.24 3.0 9.0
441 23 1 -1 1.0 5.0 9.0
442 23 1 -1 1.96 5.0 9.0
443 23 1 -1 2.92 5.0 9.0
444 23 2 0 3.88 5.0 9.0
445 23 1 -1 4.84 5.0 9.0
446 23 1 -1 5.8 5.0 9.0
447 23 1 -1 6.76 5.0 9.0
448 23 2 0 7.72 5.0 9.0
449 23 1 -1 8.68 5.0 9.0
450 23 1 -1 9.64 5.0 9.0
451 23 1 -1 10.6 5.0 9.0
452 23 1 -1 11.56 5.0 9.0
453 23 2 0 12.52 5.0 9.0
454 23 1 -1 13.48 5.0 9.0
455 23 4 0 14.44 5.0 9.0
456 23 3 1 15.4 5.0 9.0
457 23 2 0 16.36 5.0 9.0
458 23 1 -1 17.32 5.0 9.0
459 23 1 -1 18.28 5.0 9.0
460 23 1 -1 19.24 5.0 9.0
461 24 1 -1 1.0 7.0 9.0
462 24 1 -1 1.96 7.0 9.0
463 24 1 -1 2.92 7.0 9.0
464 24 1 -1 3.88 7.0 9.0
465 24 1 -1 4.84 7.0 9.0
466 24 1 -1 5.8 7.0 9.0
467 24 2 0 6.76 7.0 9.0
468 24 4 0 7.72 7.0 9.0
469 24 1 -1 8.68 7.0 9.0
470 24 2 0 9.64 7.0 9.0
471 24 1 -1 10.6 7.0 9.0
472 24 1 -1 11.56 7.0 9.0
473 24 1 -1 12.52 7.0 9.0
474 24 2 0 13.48 7.0 9.0
475 24 1 -1 14.44 7.0 9.0
476 24 2 0 15.4 7.0 9.0
477 24 1 -1 16.36 7.0 9.0
478 24 1 -1 17.32 7.0 9.0
479 24 1 -1 18.28 7.0 9.0
480 24 3 1 19.24 7.0 9.0
481 25 1 -1 1.0 9.0 9.0
482 25 1 -1 1.96 9.0 9.0
483 25 1 -1 2.92 9.0 9.0
484 25 1 -1 3.88 9.0 9.0
485 25 1 -1 4.84 9.0 9.0
486 25 1 -1 5.8 9.0 9.0
487 25 2 0 6.76 9.0 9.0
488 25 1 -1 7.72 9.0 9.0
489 25 3 1 8.68 9.0 9.0
490 25 2 0 9.64 9.0 9.0
491 25 1 -1 10.6 9.0 9.0
492 25 1 -1 11.56 9.0 9.0
493 25 2 0 12.52 9.0 9.0
494 25 1 -1 13.48 9.0 9.0
495 25 1 -1 14.44 9.0 9.0
496 25 1 -1 15.4 9.0 9.0
497 25 1 -1 16.36 9.0 9.0
498 25 1 -1 17.32 9.0 9.0
499 25 4 0 18.28 9.0 9.0
500 25 2 0 19.24 9.0 9.0
501 26 1 -1 1.0 1.0 11.0
502 26 1 -1 1.96 1.0 11.0
503 26 1 -1 2.92 1.0 11.0
504 26 1 -1 3.88 1.0 11.0
505 26 2 0 4.84 1.0 11.0
506 26 2 0 5.8 1.0 11.0
507 26 1 -1 6.76 1.0 11.0
508 26 1 -1 7.72 1.0 11.0
509 26 2 0 8.68 1.0 11.0
510 26 1 -1 9.64 1.0 11.0
511 26 2 0 10.6 1.0 11.0
512 26 1 -1 11.56 1.0 11.0
513 26 3 1 12.52 1.0 11.0
514 26 1 -1 13.48 1.0 11.0
515 26 1 -1 14.44 1.0 11.0
516 26 1 -1 15.4 1.0 11.0
517 26 1 -1 16.36 1.0 11.0
518 26 1 -1 17.32 1.0 11.0
519 26 1 -1 18.28 1.0 11.0
520 26 4 0 19.24 1.0 11.0
521 27 1 -1 1.0 3.0 11.0
522 27 1 -1 1.96 3.0 11.0
523 27 1 -1 2.92 3.0 11.0
524 27 1 -1 3.88 3.0 11.0
525 27 1 -1 4.84 3.0 11.0
526 27 2 0 5.8 3.0 11.0
527 27 1 -1 6.76 3.0 11.0
528 27 2 0 7.72 3.0 11.0
529 27 4 0 8.68 3.0 11.0
530 27 1 -1 9.64 3.0 11.0
531 27 1 -1 10.6 3.0 11.0
532 27 2 0 11.56 3.0 11.0
533 27 1 -1 12.52 3.0 11.0
534 27 1 -1 13.48 3.0 11.0
535 27 1 -1 14.44 3.0 11.0
536 27 2 0 15.4 3.0 11.0
537 27 1 -1 16.36 3.0 11.0
538 27 3 1 17.32 3.0 11.0
539 27 1 -1 18.28 3.0 11.0
540 27 1 -1 19.24 3.0 11.0
541 28 1 -1 1.0 5.0 11.0
542 28 1 -1 1.96 5.0 11.0
543 28 3 1 2.92 5.0 11.0
544 28 1 -1 3.88 5.0 11.0
545 28 1 -1 4.84 5.0 11.0
546 28 2 0 5.8 5.0 11.0
547 28 2 0 6.76 5.0 11.0
548 28 1 -1 7.72 5.0 11.0
549 28 1 -1 8.68 5.0 11.0
550 28 2 0 9.64 5.0 11.0
551 28 2 0 10.6 5.0 11.0
552 28 1 -1 11.56 5.0 11.0
553 28 1 -1 12.52 5.0 11.0
554 28 1 -1 13.48 5.0 11.0
555 28 1 -1 14.44 5.0 11.0
556 28 4 0 15.4 5.0 11.0
557 28 1 -1 16.36 5.0 11.0
558 28 1 -1 17.32 5.0 11.0
559 28 1 -1 18.28 5.0 11.0
560 28 1 -1 19.24 5.0 11.0
561 29 4 0 1.0 7.0 11.0
562 29 1 -1 1.96 7.0 11.0
563 29 2 0 2.92 7.0 11.0
564 29 1 -1 3.88 7.0 11.0
565 29 1 -1 4.84 7.0 11.0
566 29 1 -1 5.8 7.0 11.0
567 29 1 -1 6.76 7.0 11.0
568 29 1 -1 7.72 7.0 11.0
569 29 1 -1 8.68 7.0 11.0
570 29 3 1 9.64 7.0 11.0
571 29 2 0 10.6 7.0 11.0
572 29 1 -1 11.56 7.0 11.0
573 29 1 -1 12.52 7.0 11.0
574 29 1 -1 13.48 7.0 11.0
575 29 1 -1 14.44 7.0 11.0
576 29 1 -1 15.4 7.0 11.0
577 29 1 -1 16.36 7.0 11.0
578 29 1 -1 17.32 7.0 11.0
579 29 2 0 18.28 7.0 11.0
580 29 2 0 19.24 7.0 11.0
581 30 3 1 1.0 9.0 11.0
582 30 4 0 1.96 9.0 11.0
583 30 1 -1 2.92 9.0 11.0
584 30 1 -1 3.88 9.0 11.0
585 30 1 -1 4.84 9.0 11.0
586 30 1 -1 5.8 9.0 11.0
587 30 1 -1 6.76 9.0 11.0
588 30 2 0 7.72 9.0 11.0
589 30 1 -1 8.68 9.0 11.0
590 30 1 -1 9.64 9.0 11.0
591 30 1 -1 10.6 9.0 11.0
592 30 2 0 11.56 9.0 11.0
593 30 2 0 12.52 9.0 11.0
594 30 2 0 13.48 9.0 11.0
595 30 1 -1 14.44 9.0 11.0
596 30 1 -1 15.4 9.0 11.0
597 30 1 -1 16.36 9.0 11.0
598 30 1 -1 17.32 9.0 11.0
599 30 1 -1 18.28 9.0 11.0
600 30 1 -1 19.24 9.0 11.0
601 31 1 -1 1.0 1.0 13.0
602 31 1 -1 1.96 1.0 13.0
603 31 1 -1 2.92 1.0 13.0
604 31 1 -1 3.88 1.0 13.0
605 31 1 -1 4.84 1.0 13.0
606 31 1 -1 5.8 1.0 13.0
607 31 1 -1 6.76 1.0 13.0
608 31 4 0 7.72 1.0 13.0
609 31 1 -1 8.68 1.0 13.0
610 31 2 0 9.64 1.0 13.0
611 31 2 0 10.6 1.0 13.0
612 31 2 0 11.56 1.0 13.0
613 31 1 -1 12.52 1.0 13.0
614 31 1 -1 13.48 1.0 13.0
615 31 1 -1 14.44 1.0 13.0
616 31 1 -1 15.4 1.0 13.0
617 31 1 -1 16.36 1.0 13.0
618 31 3 1 17.32 1.0 13.0
619 31 1 -1 18.28 1.0 13.0
620 31 2 0 19.24 1.0 13.0
621 32 1 -1 1.0 3.0 13.0
622 32 2 0 1.96 3.0 13.0
623 32 1 -1 2.92 3.0 13.0
624 32 1 -1 3.88 3.0 13.0
625 32 1 -1 4.84 3.0 13.0
626 32 1 -1 5.8 3.0 13.0
627 32 1 -1 6.76 3.0 13.0
628 32 2 0 7.72 3.0 13.0
629 32 1 -1 8.68 3.0 13.0
630 32 1 -1 9.64 3.0 13.0
631 32 4 0 10.6 3.0 13.0
632 32 2 0 11.56 3.0 13.0
633 32 3 1 12.52 3.0 13.0
634 32 2 0 13.48 3.0 13.0
635 32 1 -1 14.44 3.0 13.0
636 32 1 -1 15.4 3.0 13.0
637 32 1 -1 16.36 3.0 13.0
638 32 1 -1 17.32 3.0 13.0
639 32 1 -1 18.28 3.0 13.0
640 32 1 -1 19.24 3.0 13.0
641 33 2 0 1.0 5.0 13.0
642 33 2 0 1.96 5.0 13.0
643 33 1 -1 2.92 5.0 13.0
644 33 1 -1 3.88 5.0 13.0
645 33 1 -1 4.84 5.0 13.0
646 33 1 -1 5.8 5.0 13.0
647 33 1 -1 6.76 5.0 13.0
648 33 1 -1 7.72 5.0 13.0
649 33 4 0 8.68 5.0 13.0
650 33 1 -1 9.64 5.0 13.0
651 33 1 -1 10.6 5.0 13.0
652 33 1 -1 11.56 5.0 13.0
653 33 1 -1 12.52 5.0 13.0
654 33 1 -1 13.48 5.0 13.0
655 33 1 -1 14.44 5.0 13.0
656 33 1 -1 15.4 5.0 13.0
657 33 2 0 16.36 5.0 13.0
658 33 1 -1 17.32 5.0 13.0
659 33 3 1 18.28 5.0 13.0
660 33 2 0 19.24 5.0 13.0
661 34 1 -1 1.0 7.0 13.0
662 34 1 -1 1.96 7.0 13.0
663 34 1 -1 2.92 7.0 13.0
664 34 1 -1 3.88 7.0 13.0
665 34 1 -1 4.84 7.0 13.0
666 34 1 -1 5.8 7.0 13.0
667 34 1 -1 6.76 7.0 13.0
668 34 3 1 7.72 7.0 13.0
669 34 1 -1 8.68 7.0 13.0
670 34 2 0 9.64 7.0 13.0
671 34 1 -1 10.6 7.0 13.0
672 34 2 0 11.56 7.0 13.0
673 34 1 -1 12.52 7.0 13.0
674 34 4 0 13.48 7.0 13.0
675 34 1 -1 14.44 7.0 13.0
676 34 1 -1 15.4 7.0 13.0
677 34 1 -1 16.36 7.0 13.0
678 34 2 0 17.32 7.0 13.0
679 34 1 -1 18.28 7.0 13.0
680 34 2 0 19.24 7.0 13.0
681 35 1 -1 1.0 9.0 13.0
682 35 1 -1 1.96 9.0 13.0
683 35 1 -1 2.92 9.0 13.0
684 35 1 -1 3.88 9.0 13.0
685 35 1 -1 4.84 9.0 13.0
686 35 4 0 5.8 9.0 13.0
687 35 1 -1 6.76 9.0 13.0
688 35 1 -1 7.72 9.0 13.0
689 35 3 1 8.68 9.0 13.0
690 35 2 0 9.64 9.0 13.0
691 35 1 -1 10.6 9.0 13.0
692 35 1 -1 11.56 9.0 13.0
693 35 1 -1 12.52 9.0 13.0
694 35 1 -1 13.48 9.0 13.0
695 35 2 0 14.44 9.0 13.0
696 35 1 -1 15.4 9.0 13.0
697 35 1 -1 16.36 9.0 13.0
698 35 2 0 17.32 9.0 13.0
699 35 1 -1 18.28 9.0 13.0
700 35 2 0 19.24 9.0 13.0
701 36 4 0 1.0 1.0 15.0
702 36 1 -1 1.96 1.0 15.0
703 36 1 -1 2.92 1.0 15.0
704 36 1 -1 3.88 1.0 15.0
705 36 3 1 4.84 1.0 15.0
706 36 1 -1 5.8 1.0 15.0
707 36 1 -1 6.76 1.0 15.0
708 36 2 0 7.72 1.0 15.0
709 36 2 0 8.68 1.0 15.0
710 36 1 -1 9.64 1.0 15.0
711 36 1 -1 10.6 1.0 15.0
712 36 1 -1 11.56 1.0 15.0
713 36 1 -1 12.52 1.0 15.0
714 36 1 -1 13.48 1.0 15.0
715 36 1 -1 14.44 1.0 15.0
716 36 1 -1 15.4 1.0 15.0
717 36 2 0 16.36 1.0 15.0
718 36 1 -1 17.32 1.0 15.0
719 36 1 -1 18.28 1.0 15.0
720 36 2 0 19.24 1.0 15.0
721 37 4 0 1.0 3.0 15.0
722 37 3 1 1.96 3.0 15.0
723 37 1 -1 2.92 3.0 15.0
724 37 2 0 3.88 3.0 15.0
725 37 1 -1 4.84 3.0 15.0
726 37 1 -1 5.8 3.0 15.0
727 37 1 -1 6.76 3.0 15.0
728 37 1 -1 7.72 3.0 15.0
729 37 1 -1 8.68 3.0 15.0
730 37 1 -1 9.64 3.0 15.0
731 37 1 -1 10.6 3.0 15.0
732 37 1 -1 11.56 3.0 15.0
733 37 1 -1 12.52 3.0 15.0
734 37 1 -1 13.48 3.0 15.0
735 37 1 -1 14.44 3.0 15.0
736 37 2 0 15.4 3.0 15.0
737 37 1 -1 16.36 3.0 15.0
738 37 2 0 17.32 3.0 15.0
739 37 2 0 18.28 3.0 15.0
740 37 1 -1 19.24 3.0 15.0
741 38 2 0 1.0 5.0 15.0
742 38 4 0 1.96 5.0 15.0
743 38 1 -1 2.92 5.0 15.0
744 38 1 -1 3.88 5.0 15.0
745 38 1 -1 4.84 5.0 15.0
746 38 1 -1 5.8 5.0 15.0
747 38 2 0 6.76 5.0 15.0
748 38 2 0 7.72 5.0 15.0
749 38 3 1 8.68 5.0 15.0
750 38 1 -1 9.64 5.0 15.0
751 38 1 -1 10.6 5.0 15.0
752 38 1 -1 11.56 5.0 15.0
753 38 1 -1 12.52 5.0 15.0
754 38 2 0 13.48 5.0 15.0
755 38 1 -1 14.44 5.0 15.0
756 38 1 -1 15.4 5.0 15.0
757 38 1 -1 16.36 5.0 15.0
758 38 1 -1 17.32 5.0 15.0
759 38 1 -1 18.28 5.0 15.0
760 38 1 -1 19.24 5.0 15.0
761 39 2 0 1.0 7.0 15.0
762 39 2 0 1.96 7.0 15.0
763 39 1 -1 2.92 7.0 15.0
764 39 3 1 3.88 7.0 15.0
765 39 1 -1 4.84 7.0 15.0
766 39 1 -1 5.8 7.0 15.0
767 39 2 0 6.76 7.0 15.0
768 39 2 0 7.72 7.0 15.0
769 39 1 -1 8.68 7.0 15.0
770 39 1 -1 9.64 7.0 15.0
771 39 1 -1 10.6 7.0 15.0
772 39 4 0 11.56 7.0 15.0
773 39 1 -1 12.52 7.0 15.0
774 39 1 -1 13.48 7.0 15.0
775 39 1 -1 14.44 7.0 15.0
776 39 1 -1 15.4 7.0 15.0
777 39 1 -1 16.36 7.0 15.0
778 39 1 -1 17.32 7.0 15.0
779 39 1 -1 18.28 7.0 15.0
780 39 1 -1 19.24 7.0 15.0
781 40 1 -1 1.0 9.0 15.0
782 40 1 -1 1.96 9.0 15.0
783 40 3 1 2.92 9.0 15.0
784 40 1 -1 3.88 9.0 15.0
785 40 2 0 4.84 9.0 15.0
786 40 1 -1 5.8 9.0 15.0
787 40 1 -1 6.76 9.0 15.0
788 40 1 -1 7.72 9.0 15.0
789 40 1 -1 8.68 9.0 15.0
790 40 1 -1 9.64 9.0 15.0
791 40 1 -1 10.6 9.0 15.0
792 40 1 -1 11.56 9.0 15.0
793 40 1 -1 12.52 9.0 15.0
794 40 1 -1 13.48 9.0 15.0
795 40 2 0 14.44 9.0 15.0
796 40 4 0 15.4 9.0 15.0
797 40 2 0 16.36 9.0 15.0
798 40 1 -1 17.32 9.0 15.0
799 40 1 -1 18.28 9.0 15.0
800 40 2 0 19.24 9.0 15.0
801 41 2 0 1.0 1.0 17.0
802 41 1 -1 1.96 1.0 17.0
803 41 1 -1 2.92 1.0 17.0
804 41 1 -1 3.88 1.0 17.0
805 41 2 0 4.84 1.0 17.0
806 41 1 -1 5.8 1.0 17.0
807 41 1 -1 6.76 1.0 17.0
808 41 1 -1 7.72 1.0 17.0
809 41 1 -1 8.68 1.0 17.0
810 41 1 -1 9.64 1.0 17.0
811 41 4 0 10.6 1.0 17.0
812 41 1 -1 11.56 1.0 17.0
813 41 1 -1 12.52 1.0 17.0
814 41 3 1 13.48 1.0 17.0
815 41 1 -1 14.44 1.0 17.0
816 41 1 -1 15.4 1.0 17.0
817 41 1 -1 16.36 1.0 17.0
818 41 2 0 17.32 1.0 17.0
819 41 2 0 18.28 1.0 17.0
820 41 1 -1 19.24 1.0 17.0
821 42 4 0 1.0 3.0 17.0
822 42 3 1 1.96 3.0 17.0
823 42 1 -1 2.92 3.0 17.0
824 42 1 -1 3.88 3.0 17.0
825 42 1 -1 4.84 3.0 17.0
826 42 1 -1 5.8 3.0 17.0
827 42 1 -1 6.76 3.0 17.0
828 42 2 0 7.72 3.0 17.0
829 42 1 -1 8.68 3.0 17.0
830 42 1 -1 9.64 3.0 17.0
831 42 1 -1 10.6 3.0 17.0
832 42 2 0 11.56 3.0 17.0
833 42 1 -1 12.52 3.0 17.0
834 42 1 -1 13.48 3.0 17.0
835 42 1 -1 14.44 3.0 17.0
836 42 1 -1 15.4 3.0 17.0
837 42 2 0 16.36 3.0 17.0
838 42 1 -1 17.32 3.0 17.0
839 42 1 -1 18.28 3.0 17.0
840 42 2 0 19.24 3.0 17.0
841 43 1 -1 1.0 5.0 17.0
842 43 1 -1 1.96 5.0 17.0
843 43 1 -1 2.92 5.0 17.0
844 43 4 0 3.88 5.0 17.0
845 43 1 -1 4.84 5.0 17.0
846 43 3 1 5.8 5.0 17.0
847 43 1 -1 6.76 5.0 17.0
848 43 1 -1 7.72 5.0 17.0
849 43 1 -1 8.68 5.0 17.0
850 43 2 0 9.64 5.0 17.0
851 43 1 -1 10.6 5.0 17.0
852 43 1 -1 11.56 5.0 17.0
853 43 1 -1 12.52 5.0 17.0
854 43 1 -1 13.48 5.0 17.0
855 43 2 0 14.44 5.0 17.0
856 43 2 0 15.4 5.0 17.0
857 43 1 -1 16.36 5.0 17.0
858 43 1 -1 17.32 5.0 17.0
859 43 2 0 18.28 5.0 17.0
860 43 1 -1 19.24 5.0 17.0
861 44 1 -1 1.0 7.0 17.0
862 44 3 1 1.96 7.0 17.0
863 44 1 -1 2.92 7.0 17.0
864 44 1 -1 3.88 7.0 17.0
865 44 2 0 4.84 7.0 17.0
866 44 1 -1 5.8 7.0 17.0
867 44 2 0 6.76 7.0 17.0
868 44 4 0 7.72 7.0 17.0
869 44 1 -1 8.68 7.0 17.0
870 44 1 -1 9.64 7.0 17.0
871 44 2 0 10.6 7.0 17.0
872 44 1 -1 11.56 7.0 17.0
873 44 1 -1 12.52 7.0 17.0
874 44 1 -1 13.48 7.0 17.0
875 44 1 -1 14.44 7.0 17.0
876 44 1 -1 15.4 7.0 17.0
877 44 1 -1 16.36 7.0 17.0
878 44 2 0 17.32 7.0 17.0
879 44 1 -1 18.28 7.0 17.0
880 44 1 -1 19.24 7.0 17.0
881 45 1 -1 1.0 9.0 17.0
882 45 2 0 1.96 9.0 17.0
883 45 2 0 2.92 9.0 17.0
884 45 2 0 3.88 9.0 17.0
885 45 1 -1 4.84 9.0 17.0
886 45 1 -1 5.8 9.0 17.0
887 45 1 -1 6.76 9.0 17.0
888 45 1 -1 7.72 9.0 17.0
889 45 1 -1 8.68 9.0 17.0
890 45 1 -1 9.64 9.0 17.0
891 45 4 0 10.6 9.0 17.0
892 45 1 -1 11.56 9.0 17.0
893 45 1 -1 12.52 9.0 17.0
894 45 2 0 13.48 9.0 17.0
895 45 1 -1 14.44 9.0 17.0
896 45 1 -1 15.4 9.0 17.0
897 45 3 1 16.36 9.0 17.0
898 45 1 -1 17.32 9.0 17.0
899 45 1 -1 18.28 9.0 17.0
900 45 1 -1 19.24 9.0 17.0
901 46 2 0 1.0 1.0 19.0
902 46 1 -1 1.96 1.0 19.0
903 46 1 -1 2.92 1.0 19.0
904 46 1 -1 3.88 1.0 19.0
905 46 1 -1 4.84 1.0 19.0
906 46 1 -1 5.8 1.0 19.0
907 46 2 0 6.76 1.0 19.0
908 46 3 1 7.72 1.0 19.0
909 46 2 0 8.68 1.0 19.0
910 46 1 -1 9.64 1.0 19.0
911 46 1 -1 10.6 1.0 19.0
912 46 1 -1 11.56 1.0 19.0
913 46 1 -1 12.52 1.0 19.0
914 46 1 -1 13.48 1.0 19.0
915 46 1 -1 14.44 1.0 19.0
916 46 2 0 15.4 1.0 19.0
917 46 1 -1 16.36 1.0 19.0
918 46 1 -1 17.32 1.0 19.0
919 46 1 -1 18.28 1.0 19.0
920 46 4 0 19.24 1.0 19.0
921 47 2 0 1.0 3.0 19.0
922 47 1 -1 1.96 3.0 19.0
923 47 1 -1 2.92 3.0 19.0
924 47 1 -1 3.88 3.0 19.0
925 47 1 -1 4.84 3.0 19.0
926 47 2 0 5.8 3.0 19.0
927 47 1 -1 6.76 3.0 19.0
928 47 4 0 7.72 3.0 19.0
929 47 2 0 8.68 3.0 19.0
930 47 1 -1 9.64 3.0 19.0
931 47 1 -1 10.6 3.0 19.0
932 47 1 -1 11.56 3.0 19.0
933 47 1 -1 12.52 3.0 19.0
934 47 1 -1 13.48 3.0 19.0
935 47 2 0 14.44 3.0 19.0
936 47 1 -1 15.4 3.0 19.0
937 47 1 -1 16.36 3.0 19.0
938 47 1 -1 17.32 3.0 19.0
939 47 1 -1 18.28 3.0 19.0
940 47 3 1 19.24 3.0 19.0
941 48 2 0 1.0 5.0 19.0
942 48 4 0 1.96 5.0 19.0
943 48 1 -1 2.92 5.0 19.0
944 48 2 0 3.88 5.0 19.0
945 48 3 1 4.84 5.0 19.0
946 48 1 -1 5.8 5.0 19.0
947 48 1 -1 6.76 5.0 19.0
948 48 1 -1 7.72 5.0 19.0
949 48 1 -1 8.68 5.0 19.0
950 48 1 -1 9.64 5.0 19.0
951 48 1 -1 10.6 5.0 19.0
952 48 1 -1 11.56 5.0 19.0
953 48 1 -1 12.52 5.0 19.0
954 48 2 0 13.48 5.0 19.0
955 48 1 -1 14.44 5.0 19.0
956 48 2 0 15.4 5.0 19.0
957 48 1 -1 16.36 5.0 19.0
958 48 1 -1 17.32 5.0 19.0
959 48 1 -1 18.28 5.0 19.0
960 48 1 -1 19.24 5.0 19.0
961 49 1 -1 1.0 7.0 19.0
962 49 3 1 1.96 7.0 19.0
963 49 1 -1 2.92 7.0 19.0
964 49 2 0 3.88 7.0 19.0
965 49 4 0 4.84 7.0 19.0
966 49 1 -1 5.8 7.0 19.0
967 49 2 0 6.76 7.0 19.0
968 49 1 -1 7.72 7.0 19.0
969 49 1 -1 8.68 7.0 19.0
970 49 1 -1 9.64 7.0 19.0
971 49 1 -1 10.6 7.0 19.0
972 49 1 -1 11.56 7.0 19.0
973 49 2 0 12.52 7.0 19.0
974 49 2 0 13.48 7.0 19.0
975 49 1 -1 14.44 7.0 19.0
976 49 1 -1 15.4 7.0 19.0
977 49 1 -1 16.36 7.0 19.0
978 49 1 -1 17.32 7.0 19.0
979 49 1 -1 18.28 7.0 19.0
980 49 1 -1 19.24 7.0 19.0
981 50 1 -1 1.0 9.0 19.0
982 50 1 -1 1.96 9.0 19.0
983 50 1 -1 2.92 9.0 19.0
984 50 1 -1 3.88 9.0 19.0
985 50 2 0 4.84 9.0 19.0
986 50 1 -1 5.8 9.0 19.0
987 50 1 -1 6.76 9.0 19.0
988 50 4 0 7.72 9.0 19.0
989 50 2 0 8.68 9.0 19.0
990 50 1 -1 9.64 9.0 19.0
991 50 1 -1 10.6 9.0 19.0
992 50 2 0 11.56 9.0 19.0
993 50 1 -1 12.52 9.0 19.0
994 50 1 -1 13.48 9.0 19.0
995 50 3 1 14.44 9.0 19.0
996 50 1 -1 15.4 9.0 19.0
997 50 2 0 16.36 9.0 19.0
998 50 1 -1 17.32 9.0 19.0
999 50 1 -1 18.28 9.0 19.0
1000 50 1 -1 19.24 9.0 19.0

Bonds

1 1 1 2
2 1 2 3
3 1 3 4
4 1 4 5
5 1 5 6
6 1 6 7
7 1 7 8
8 1 8 9
9 1 9 10
10 1 10 11
11 1 11 12
12 1 12 13
13 1 13 14
14 1 14 15
15 1 15 16
16 1 16 17
17 1 17 18
18 1 18 19
19 1 19 20
20 1 21 22
21 1 22 23
22 1 23 24
23 1 24 25
24 1 25 26
25 1 26 27
26 1 27 28
27 1 28 29
28 1 29 30
29 1 30 31
30 1 31 32
31 1 32 33
32 1 33 34
33 1 34 35
34 1 35 36
35 1 36 37
36 1 37 38
37 1 38 39
38 1 39 40
39 1 41 42
40 1 42 43
41 1 43 44
42 1 44 45
43 1 45 46
44 1 46 47
45 1 47 48
46 1 48 49
47 1 49 50
48 1 50 51
49 1 51 52
50 1 52 53
51 1 53 54
52 1 54 55
53 1 55 56
54 1 56 57
55 1 57 58
56 1 58 59
57 1 59 60
58 1 61 62
59 1 62 63
60 1 63 64
61 1 64 65
62 1 65 66
63 1 66 67
64 1 67 68
65 1 68 69
66 1 69 70
67 1 70 71
68 1 71 72
69 1 72 73
70 1 73 74
71 1 74 75
72 1 75 76
73 1 76 77
74 1 77 78
75 1 78 79
76 1 79 80
77 1 81 82
78 1 82 83
79 1 83 84
80 1 84 85
81 1 85 86
82 1 86 87
83 1 87 88
84 1 88 89
85 1 89 90
86 1 90 91
87 1 91 92
88 1 92 93
89 1 93 94
90 1 94 95
91 1 95 96
92 1 96 97
93 1 97 98
94 1 98 99
95 1 99 100
96 1 101 102
97 1 102 103
98 1 103 104
99 1 104 105
100 1 105 106
101 1 106 107
102 1 107 108
103 1 108 109
104 1 109 110
105 1 110 111
106 1 111 112
107 1 112 113
108 1 113 114
109 1 114 115
110 1 115 116
111 1 116 117
112 1 117 118
113 1 118 119
114 1 119 120
115 1 121 122
116 1 122 123
117 1 123 124
118 1 124 125
119 1 125 126
120 1 126 127
121 1 127 128
122 1 128 129
123 1 129 130
124 1 130 131
125 1 131 132
126 1 132 133
127 1 133 134
128 1 134 135
129 1 135 136
130 1 136 137
131 1 137 138
132 1 138 139
133 1 139 140
134 1 141 142
135 1 142 143
136 1 143 144
137 1 144 145
138 1 145 146
139 1 146 147
140 1 147 148
141 1 148 149
142 1 149 150
143 1 150 151
144 1 151 152
145 1 152 153
146 1 153 154
147 1 154 155
148 1 155 156
149 1 156 157
150 1 157 158
151 1 158 159
152 1 159 160
153 1 161 162
154 1 162 163
155 1 163 164
156 1 164 165
157 1 165 166
158 1 166 167
159 1 167 168
160 1 168 169
161 1 169 170
162 1 170 171
163 1 171 172
164 1 172 173
165 1 173 174
166 1 174 175
167 1 175 176
168 1 176 177
169 1 177 178
170 1 178 179
171 1 179 180
172 1 181 182
173 1 182 183
174 1 183 184
175 1 184 185
176 1 185 186
177 1 186 187
178 1 187 188
179 1 188 189
180 1 189 190
181 1 190 191
182 1 191 192
183 1 192 193
184 1 193 194
185 1 194 195
186 1 195 196
187 1 196 197
188 1 197 198
189 1 198 199
190 1 199 200
191 1 201 202
192 1 202 203
193 1 203 204
194 1 204 205
195 1 205 206
196 1 206 207
197 1 207 208
198 1 208 209
199 1 209 210
200 1 210 211
201 1 211 212
202 1 212 213
203 1 213 214
204 1 214 215
205 1 215 216
206 1 216 217
207 1 217 218
208 1 218 219
209 1 219 220
210 1 221 222
211 1 222 223
212 1 223 224
213 1 224 225
214 1 225 226
215 1 226 227
216 1 227 228
217 1 228 229
218 1 229 230
219 1 230 231
220 1 231 232
221 1 232 233
222 1 233 234
223 1 234 235
224 1 235 236
225 1 236 237
226 1 237 238
227 1 238 239
228 1 239 240
229 1 241 242
230 1 242 243
231 1 243 244
232 1 244 245
233 1 245 246
234 1 246 247
235 1 247 248
236 1 248 249
237 1 249 250
238 1 250 251
239 1 251 252
240 1 252 253
241 1 253 254
242 1 254 255
243 1 255 256
244 1 256 257
245 1 257 258
246 1 258 259
247 1 259 260
248 1 261 262
249 1 262 263
250 1 263 264
251 1 264 265
252 1 265 266
253 1 266 267
254 1 267 268
255 1 268 269
256 1 269 270
257 1 270 271
258 1 271 272
259 1 272 273
260 1 273 274
261 1 274 275
262 1 275 276
263 1 276 277
264 1 277 278
265 1 278 279
266 1 279 280
267 1 281 282
268 1 282 283
269 1 283 284
270 1 284 285
271 1 285 286
272 1 286 287
273 1 287 288
274 1 288 289
275 1 289 290
276 1 290 291
277 1 291 292
278 1 292 293
279 1 293 294
280 1 294 295
281 1 295 296
282 1 296 297
283 1 297 298
284 1 298 299
285 1 299 300
286 1 301 302
287 1 302 303
288 1 303 304
289 1 304 305
290 1 305 306
291 1 306 307
292 1 307 308
293 1 308 309
294 1 309 310
295 1 310 311
296 1 311 312
297 1 312 313
298 1 313 314
299 1 314 315
300 1 315 316
301 1 316 317
302 1 317 318
303 1 318 319
304 1 319 320
305 1 321 322
306 1 322 323
307 1 323 324
308 1 324 325
309 1 325 326
310 1 326 327
311 1 327 328
312 1 328 329
313 1 329 330
314 1 330 331
315 1 331 332
316 1 332 333
317 1 333 334
318 1 334 335
319 1 335 336
320 1 336 337
321 1 337 338
322 1 338 339
323 1 339 340
324 1 341 342
325 1 342 343
326 1 343 344
327 1 344 345
328 1 345 346
329 1 346 347
330 1 347 348
331 1 348 349
332 1 349 350
333 1 350 351
334 1 351 352
335 1 352 353
336 1 353 354
337 1 354 355
338 1 355 356
339 1 356 357
340 1 357 358
341 1 358 359
342 1 359 360
343 1 361 362
344 1 362 363
345 1 363 364
346 1 364 365
347 1 365 366
348 1 366 367
349 1 367 368
350 1 368 369
351 1 369 370
352 1 370 371
353 1 371 372
354 1 372 373
355 1 373 374
356 1 374 375
357 1 375 376
358 1 376 377
359 1 377 378
360 1 378 379
361 1 379 380
362 1 381 382
363 1 382 383
364 1 383 384
365 1 384 385
366 1 385 386
367 1 386 387
368 1 387 388
369 1 388 389
370 1 389 390
371 1 390 391
372 1 391 392
373 1 392 393
374 1 393 394
375 1 394 395
376 1 395 396
377 1 396 397
378 1 397 398
379 1 398 399
380 1 399 400
381 1 401 402
382 1 402 403
383 1 403 404
384 1 404 405
385 1 405 406
386 1 406 407
387 1 407 408
388 1 408 409
389 1 409 410
390 1 410 411
391 1 411 412
392 1 412 413
393 1 413 414
394 1 414 415
395 1 415 416
396 1 416 417
397 1 417 418
398 1 418 419
399 1 419 420
400 1 421 422
401 1 422 423
402 1 423 424
403 1 424 425
404 1 425 426
405 1 426 427
406 1 427 428
407 1 428 429
408 1 429 430
409 1 430 431
410 1 431 432
411 1 432 433
412 1 433 434
413 1 434 435
414 1 435 436
415 1 436 437
416 1 437 438
417 1 438 439
418 1 439 440
419 1 441 442
420 1 442 443
421 1 443 444
422 1 444 445
423 1 445 446
424 1 446 447
425 1 447 448
426 1 448 449
427 1 449 450
428 1 450 451
429 1 451 452
430 1 452 453
431 1 453 454
432 1 454 455
433 1 455 456
434 1 456 457
435 1 457 458
436 1 458 459
437 1 459 460
438 1 461 462
439 1 462 463
440 1 463 464
441 1 464 465
442 1 465 466
443 1 466 467
444 1 467 468
445 1 468 469
446 1 469 470
447 1 470 471
448 1 471 472
449 1 472 473
450 1 473 474
451 1 474 475
452 1 475 476
453 1 476 477
454 1 477 478
455 1 478 479
456 1 479 480
457 1 481 482
458 1 482 483
459 1 483 484
460 1 484 485
461 1 485 486
462 1 486 487
463 1 487 488
464 1 488 489
465 1 489 490
466 1 490 491
467 1 491 492
468 1 492 493
469 1 493 494
470 1 494 495
471 1 495 496
472 1 496 497
473 1 497 498
474 1 498 499
475 1 499 500
476 1 501 502
477 1 502 503
478 1 503 504
479 1 504 505
480 1 505 506
481 1 506 507
482 1 507 508
483 1 508 509
484 1 509 510
485 1 510 511
486 1 511 512
487 1 512 513
488 1 513 514
489 1 514 515
490 1 515 516
491 1 516 517
492 1 517 518
493 1 518 519
494 1 519 520
495 1 521 522
496 1 522 523
497 1 523 524
498 1 524 525
499 1 525 526
500 1 526 527
501 1 527 528
502 1 528 529
503 1 529 530
504 1 530 531
505 1 531 532
506 1 532 533
507 1 533 534
508 1 534 535
509 1 535 536
510 1 536 537
511 1 537 538
512 1 538 539
513 1 539 540
514 1 541 542
515 1 542 543
516 1 543 544
517 1 544 545
518 1 545 546
519 1 546 547
520 1 547 548
521 1 548 549
522 1 549 550
523 1 550 551
524 1 551 552
525 1 552 553
526 1 553 554
527 1 554 555
528 1 555 556
529 1 556 557
530 1 557 558
531 1 558 559
532 1 559 560
533 1 561 562
534 1 562 563
535 1 563 564
536 1 564 565
537 1 565 566
538 1 566 567
539 1 567 568
540 1 568 569
541 1 569 570
542 1 570 571
543 1 571 572
544 1 572 573
545 1 573 574
546 1 574 575
547 1 575 576
548 1 576 577
549 1 577 578
550 1 578 579
551 1 579 580
552 1 581 582
553 1 582 583
554 1 583 584
555 1 584 585
556 1 585 586
557 1 586 587
558 1 587 588
559 1 588 589
560 1 589 590
561 1 590 591
562 1 591 592
563 1 592 593
564 1 593 594
565 1 594 595
566 1 595 596
567 1 596 597
568 1 597 598
569 1 598 599
570 1 599 600
571 1 601 602
572 1 602 603
573 1 603 604
574 1 604 605
575 1 605 606
576 1 606 607
577 1 607 608
578 1 608 609
579 1 609 610
580 1 610 611
581 1 611 612
582 1 612 613
583 1 613 614
584 1 614 615
585 1 615 616
586 1 616 617
587 1 617 618
588 1 618 619
589 1 619 620
590 1 621 622
591 1 622 623
592 1 623 624
593 1 624 625
594 1 625 626
595 1 626 627
596 1 627 628
597 1 628 629
598 1 629 630
599 1 630 631
600 1 631 632
601 1 632 633
602 1 633 634
603 1 634 635
604 1 635 636
605 1 636 637
606 1 637 638
607 1 638 639
608 1 639 640
609 1 641 642
610 1 642 643
611 1 643 644
612 1 644 645
613 1 645 646
614 1 646 647
615 1 647 648
616 1 648 649
617 1 649 650
618 1 650 651
619 1 651 652
620 1 652 653
621 1 653 654
622 1 654 655
623 1 655 656
624 1 656 657
625 1 657 658
626 1 658 659
627 1 659 660
628 1 661 662
629 1 662 663
630 1 663 664
631 1 664 665
632 1 665 666
633 1 666 667
634 1 667 668
635 1 668 669
636 1 669 670
637 1 670 671
638 1 671 672
639 1 672 673
640 1 673 674
641 1 674 675
642 1 675 676
643 1 676 677
644 1 677 678
645 1 678 679
646 1 679 680
647 1 681 682
648 1 682 683
649 1 683 684
650 1 684 685
651 1 685 686
652 1 686 687
653 1 687 688
654 1 688 689
655 1 689 690
656 1 690 691
657 1 691 692
658 1 692 693
659 1 693 694
660 1 694 695
661 1 695 696
662 1 696 697
663 1 697 698
664 1 698 699
665 1 699 700
666 1 701 702
667 1 702 703
668 1 703 704
669 1 704 705
670 1 705 706
671 1 706 707
672 1 707 708
673 1 708 709
674 1 709 710
675 1 710 711
676 1 711 712
677 1 712 713
678 1 713 714
679 1 714 715
680 1 715 716
681 1 716 717
682 1 717 718
683 1 718 719
684 1 719 720
685 1 721 722
686 1 722 723
687 1 723 724
688 1 724 725
689 1 725 726
690 1 726 727
691 1 727 728
692 1 728 729
693 1 729 730
694 1 730 731
695 1 731 732
696 1 732 733
697 1 733 734
698 1 734 735
699 1 735 736
700 1 736 737
701 1 737 738
702 1 738 739
703 1 739 740
704 1 741 742
705 1 742 743
706 1 743 744
707 1 744 745
708 1 745 746
709 1 746 747
710 1 747 748
711 1 748 749
712 1 749 750
713 1 750 751
714 1 751 752
715 1 752 753
716 1 753 754
717 1 754 755
718 1 755 756
719 1 756 757
720 1 757 758
721 1 758 759
722 1 759 760
723 1 761 762
724 1 762 763
725 1 763 764
726 1 764 765
727 1 765 766
728 1 766 767
729 1 767 768
730 1 768 769
731 1 769 770
732 1 770 771
733 1 771 772
734 1 772 773
735 1 773 774
736 1 774 775
737 1 775 776
738 1 776 777
739 1 777 778
740 1 778 779
741 1 779 780
742 1 781 782
743 1 782 783
744 1 783 784
745 1 784 785
746 1 785 786
747 1 786 787
748 1 787 788
749 1 788 789
750 1 789 790
751 1 790 791
752 1 791 792
753 1 792 793
754 1 793 794
755 1 794 795
756 1 795 796
757 1 796 797
758 1 797 798
759 1 798 799
760 1 799 800
761 1 801 802
762 1 802 803
763 1 803 804
764 1 804 805
765 1 805 806
766 1 806 807
767 1 807 808
768 1 808 809
769 1 809 810
770 1 810 811
771 1 811 812
772 1 812 813
773 1 813 814
774 1 814 815
775 1 815 816
776 1 816 817
777 1 817 818
778 1 818 819
779 1 819 820
780 1 821 822
781 1 822 823
782 1 823 824
783 1 824 825
784 1 825 826
785 1 826 827
786 1 827 828
787 1 828 829
788 1 829 830
789 1 830 831
790 1 831 832
791 1 832 833
792 1 833 834
793 1 834 835
794 1 835 836
795 1 836 837
796 1 837 838
797 1 838 839
798 1 839 840
799 1 841 842
800 1 842 843
801 1 843 844
802 1 844 845
803 1 845 846
804 1 846 847
805 1 847 848
806 1 848 849
807 1 849 850
808 1 850 851
809 1 851 852
810 1 852 853
811 1 853 854
812 1 854 855
813 1 855 856
814 1 856 857
815 1 857 858
816 1 858 859
817 1 859 860
818 1 861 862
819 1 862 863
820 1 863 864
821 1 864 865
822 1 865 866
823 1 866 867
824 1 867 868
825 1 868 869
826 1 869 870
827 1 870 871
828 1 871 872
829 1 872 873
830 1 873 874
831 1 874 875
832 1 875 876
833 1 876 877
834 1 877 878
835 1 878 879
836 1 879 880
837 1 881 882
838 1 882 883
839 1 883 884
840 1 884 885
841 1 885 886
842 1 886 887
843 1 887 888
844 1 888 889
845 1 889 890
846 1 890 891
847 1 891 892
848 1 892 893
849 1 893 894
850 1 894 895
851 1 895 896
852 1 896 897
853 1 897 898
854 1 898 899
855 1 899 900
856 1 901 902
857 1 902 903
858 1 903 904
859 1 904 905
860 1 905 906
861 1 906 907
862 1 907 908
863 1 908 909
864 1 909 910
865 1 910 911
866 1 911 912
867 1 912 913
868 1 913 914
869 1 914 915
870 1 915 916
871 1 916 917
872 1 917 918
873 1 918 919
874 1 919 920
875 1 921 922
876 1 922 923
877 1 923 924
878 1 924 925
879 1 925 926
880 1 926 927
881 1 927 928
882 1 928 929
883 1 929 930
884 1 930 931
885 1 931 932
886 1 932 933
887 1 933 934
888 1 934 935
889 1 935 936
890 1 936 937
891 1 937 938
892 1 938 939
893 1 939 940
894 1 941 942
895 1 942 943
896 1 943 944
897 1 944 945
898 1 945 946
899 1 946 947
900 1 947 948
901 1 948 949
902 1 949 950
903 1 950 951
904 1 951 952
905 1 952 953
906 1 953 954
907 1 954 955
908 1 955 956
909 1 956 957
910 1 957 958
911 1 958 959
912 1 959 960
913 1 961 962
914 1 962 963
915 1 963 964
916 1 964 965
917 1 965 966
918 1 966 967
919 1 967 968
920 1 968 969
921 1 969 970
922 1 970 971
923 1 971 972
924 1 972 973
925 1 973 974
926 1 974 975
927 1 975 976
928 1 976 977
929 1 977 978
930 1 978 979
931 1 979 980
932 1 981 982
933 1 982 983
934 1 983 984
935 1 984 985
936 1 985 986
937 1 986 987
938 1 987 988
939 1 988 989
940 1 989 990
941 1 990 991
942 1 991 992
943 1 992 993
944 1 993 994
945 1 994 995
946 1 995 996
947 1 996 997
948 1 997 998
949 1 998 999
950 1 999 1000
