ITEM: TIMESTEP
20900000
ITEM: NUMBER OF ATOMS
1205
ITEM: BOX BOUNDS pp pp pp
0.0000000000000000e+00 6.5000000000000000e+01
0.0000000000000000e+00 6.5000000000000000e+01
0.0000000000000000e+00 6.5000000000000000e+01
ITEM: ATOMS id mol type q x y z 
1 1 4 0 36.4863 32.7884 38.278 
2 1 2 0 35.9172 33.3816 38.666 
3 1 1 -1 35.6169 33.8961 37.9413 
4 1 1 -1 34.7994 34.3792 38.0456 
5 1 1 -1 34.2888 35.1833 38.0145 
6 1 1 -1 34.1991 36.1354 38.135 
7 1 1 -1 33.9522 36.6131 37.3557 
8 1 1 -1 34.2828 37.4123 37.8519 
9 1 3 1 34.5116 37.8522 36.9744 
10 1 1 -1 35.2677 38.1157 37.4685 
11 1 1 -1 34.7333 38.8439 37.8033 
12 1 3 1 34.3739 39.443 38.4944 
13 1 1 -1 33.6184 39.3228 39.0533 
14 1 3 1 32.786 39.5135 39.4349 
15 1 3 1 32.6567 38.6268 39.6351 
16 1 3 1 33.1454 38.397 38.8168 
17 1 1 -1 32.8235 38.1687 37.8675 
18 1 2 0 33.3653 39.0682 38.0243 
19 1 2 0 32.5039 39.2704 38.3192 
20 1 2 0 31.9741 40.1493 38.3834 
21 2 2 0 36.5887 36.3979 36.8304 
22 2 1 -1 36.0651 37.228 36.791 
23 2 3 1 36.0147 36.9043 35.8823 
24 2 2 0 35.5418 37.3868 35.184 
25 2 1 -1 35.9082 37.9547 34.4862 
26 2 4 0 36.7237 38.1738 34.984 
27 2 3 1 36.894 37.6533 35.8025 
28 2 1 -1 36.0702 38.0853 35.7563 
29 2 1 -1 36.0049 39.1435 35.718 
30 2 3 1 35.5029 39.2142 36.5572 
31 2 2 0 34.7073 38.8583 36.2126 
32 2 1 -1 33.9325 38.8546 35.6597 
33 2 1 -1 33.4559 38.8696 34.8058 
34 2 1 -1 34.0095 39.682 34.9649 
35 2 3 1 34.5403 38.8915 34.8745 
36 2 3 1 34.3777 38.0876 34.291 
37 2 1 -1 33.6974 37.4377 34.2957 
38 2 1 -1 32.839 37.0156 34.4223 
39 2 1 -1 32.4056 37.8004 34.8053 
40 2 2 0 31.6909 37.411 34.3275 
41 3 3 1 29.3095 29.2991 25.5276 
42 3 1 -1 29.3251 29.2773 26.4359 
43 3 1 -1 29.8009 28.5383 26.7148 
44 3 2 0 28.9499 28.5516 27.0915 
45 3 1 -1 28.0439 28.4454 27.1847 
46 3 3 1 28.2854 29.099 27.8922 
47 3 3 1 27.4771 29.6068 28.1591 
48 3 1 -1 26.5019 29.6093 28.0048 
49 3 2 0 26.0766 29.0106 28.6532 
50 3 3 1 25.5046 28.6054 29.2596 
51 3 2 0 25.4455 29.2292 29.9455 
52 3 1 -1 26.2005 29.0292 30.5601 
53 3 1 -1 26.0802 28.3509 31.243 
54 3 1 -1 26.8904 28.2252 30.7049 
55 3 1 -1 27.381 27.4725 30.373 
56 3 1 -1 26.4847 27.3276 30.607 
57 3 2 0 26.976 27.1543 31.3971 
58 3 4 0 26.7721 27.0018 32.3099 
59 3 3 1 27.3937 27.2732 32.9714 
60 3 1 -1 27.1004 28.1702 33.0129 
61 4 3 1 36.115 33.4684 34.3536 
62 4 1 -1 35.7836 32.5305 33.9632 
63 4 1 -1 36.3663 31.879 33.6513 
64 4 2 0 36.663 31.1139 33.2215 
65 4 2 0 37.0818 30.9058 32.3477 
66 4 1 -1 36.3173 31.0664 31.8305 
67 4 1 -1 36.0202 31.9074 31.6177 
68 4 2 0 36.3011 32.2573 30.7163 
69 4 3 1 36.9121 32.8406 31.2151 
70 4 1 -1 37.1958 31.9296 31.4014 
71 4 1 -1 38.0249 32.2927 30.9556 
72 4 3 1 37.9351 33.0046 30.3545 
73 4 1 -1 38.7857 32.6958 30.0911 
74 4 1 -1 39.1745 33.6008 30.285 
75 4 4 0 40.0805 33.4526 29.7104 
76 4 3 1 40.7226 33.716 29.0713 
77 4 1 -1 40.1684 34.4522 28.8961 
78 4 2 0 39.269 34.8791 28.7081 
79 4 3 1 39.4063 35.201 27.7279 
80 4 1 -1 39.6204 35.7868 28.5519 
81 5 2 0 31.8506 38.3168 36.8505 
82 5 2 0 31.6135 39.2147 36.7908 
83 5 3 1 30.8537 38.9423 36.2959 
84 5 1 -1 30.5717 38.8636 35.3302 
85 5 1 -1 31.0765 39.7651 35.3855 
86 5 3 1 31.4985 40.6203 35.7193 
87 5 1 -1 32.02 41.2666 35.2384 
88 5 2 0 32.1323 41.5939 36.1689 
89 5 3 1 31.9403 41.8293 37.0945 
90 5 4 0 31.3321 41.189 37.4816 
91 5 1 -1 31.9748 40.6923 36.8491 
92 5 2 0 32.7997 40.6427 36.2881 
93 5 1 -1 33.0307 40.6011 35.3318 
94 5 1 -1 32.8325 39.7033 35.6669 
95 5 1 -1 32.4932 39.8777 34.7813 
96 5 1 -1 31.8902 40.4271 34.2444 
97 5 3 1 32.4205 41.2696 34.3144 
98 5 1 -1 32.8921 40.9646 33.5415 
99 5 3 1 33.5511 41.5173 33.1214 
100 5 1 -1 33.5601 40.6622 32.5841 
101 6 1 -1 31.1077 33.7954 35.8008 
102 6 1 -1 30.9609 34.6843 35.5192 
103 6 1 -1 31.0022 34.8971 36.4692 
104 6 3 1 30.253 35.4637 36.2982 
105 6 3 1 30.1445 35.9023 37.1702 
106 6 3 1 29.4052 36.5381 36.832 
107 6 3 1 30.2522 36.9287 36.8747 
108 6 3 1 31.2525 37.1274 36.5887 
109 6 1 -1 32.031 37.4636 36.1929 
110 6 1 -1 32.5053 37.0731 35.4632 
111 6 1 -1 33.3864 36.8756 35.2476 
112 6 1 -1 33.4019 37.8153 35.2449 
113 6 1 -1 32.7091 38.2155 35.8508 
114 6 4 0 33.1066 38.291 36.6644 
115 6 1 -1 32.9523 37.4111 37.11 
116 6 2 0 33.6423 37.4177 36.4714 
117 6 2 0 33.3302 36.526 36.3777 
118 6 2 0 32.7488 35.7826 36.5661 
119 6 2 0 33.4749 35.5137 35.9914 
120 6 1 -1 33.7803 35.5614 36.9075 
121 7 1 -1 29.4747 34.8063 30.0409 
122 7 1 -1 30.1198 34.4912 30.5949 
123 7 3 1 30.1665 33.5014 30.6699 
124 7 2 0 29.2416 33.8233 30.473 
125 7 1 -1 28.8768 34.3697 31.3175 
126 7 1 -1 28.6416 34.5366 32.2515 
127 7 1 -1 28.4916 35.4925 32.0388 
128 7 1 -1 27.5851 35.27 31.9112 
129 7 1 -1 26.7238 35.2896 31.5442 
130 7 2 0 26.0534 35.8397 31.9933 
131 7 3 1 25.7883 36.1417 31.1026 
132 7 3 1 25.3239 35.4157 31.4595 
133 7 2 0 25.6373 34.4693 31.3571 
134 7 1 -1 24.6557 34.5156 31.0567 
135 7 3 1 24.1634 34.7515 30.2747 
136 7 1 -1 24.5542 33.8407 30.1444 
137 7 3 1 24.4028 33.1043 30.7197 
138 7 4 0 24.5303 32.5323 29.9841 
139 7 2 0 25.4607 32.6063 30.3656 
140 7 1 -1 26.015 32.7446 31.0908 
141 8 3 1 25.2953 30.7174 32.9514 
142 8 1 -1 25.6576 31.3214 32.3187 
143 8 2 0 24.8892 30.9429 31.8176 
144 8 2 0 24.8666 29.9964 31.9668 
145 8 2 0 24.0047 30.3082 31.8389 
146 8 3 1 23.1582 30.3124 31.3996 
147 8 1 -1 23.8206 30.491 30.7367 
148 8 4 0 24.2634 29.67 30.6152 
149 8 1 -1 25.2269 29.5595 30.8686 
150 8 1 -1 26.0181 29.5706 31.3767 
151 8 2 0 25.7402 29.3701 32.3042 
152 8 1 -1 26.1242 28.5014 32.2001 
153 8 1 -1 26.0411 28.5926 33.1932 
154 8 3 1 25.956 27.6878 33.1501 
155 8 3 1 25.3843 27.3253 33.8292 
156 8 1 -1 24.7089 28.0765 33.8285 
157 8 3 1 24.6086 28.3672 34.7228 
158 8 1 -1 25.4119 28.7278 35.0688 
159 8 1 -1 25.9611 28.723 34.2936 
160 8 1 -1 26.6246 28.0708 34.0829 
161 9 4 0 25.8784 27.4788 28.961 
162 9 1 -1 25.3041 27.7609 29.7396 
163 9 3 1 26.22 28.109 29.8783 
164 9 1 -1 26.9032 28.4131 29.2791 
165 9 1 -1 27.782 28.3167 29.6878 
166 9 2 0 28.0912 28.2559 28.7936 
167 9 1 -1 28.9627 28.045 29.0159 
168 9 3 1 29.1939 28.9839 28.9085 
169 9 1 -1 29.3902 29.8998 28.7112 
170 9 1 -1 29.7162 30.1785 27.8741 
171 9 1 -1 29.1651 30.3881 27.0791 
172 9 3 1 29.5401 30.4152 26.2737 
173 9 1 -1 30.3222 30.2471 25.773 
174 9 3 1 30.3801 29.7091 24.8785 
175 9 3 1 29.9647 30.3393 24.3008 
176 9 2 0 29.9071 31.1762 24.7468 
177 9 1 -1 30.7065 31.3399 25.1634 
178 9 1 -1 30.7784 31.3263 26.1271 
179 9 2 0 31.7016 31.2457 26.4583 
180 9 2 0 31.3518 30.386 26.2202 
181 10 3 1 28.2579 28.0552 39.5224 
182 10 3 1 28.3895 28.7255 38.8404 
183 10 1 -1 27.9309 29.4085 38.1033 
184 10 2 0 27.5023 30.2875 38.0404 
185 10 4 0 28.1549 31.0206 38.0205 
186 10 1 -1 28.5884 30.698 37.2484 
187 10 2 0 28.5927 31.607 36.9161 
188 10 1 -1 27.8056 32.0661 36.7016 
189 10 1 -1 27.0447 31.7004 37.0895 
190 10 3 1 27.0109 31.8186 38.0727 
191 10 1 -1 26.9437 32.753 37.7965 
192 10 1 -1 27.8924 32.8535 37.5939 
193 10 1 -1 28.4212 32.0649 37.8663 
194 10 1 -1 28.9436 32.5063 37.214 
195 10 3 1 29.8264 32.843 37.3358 
196 10 2 0 29.8785 32.2032 38.0158 
197 10 3 1 30.277 31.8971 38.7976 
198 10 1 -1 30.96 32.5 38.9841 
199 10 1 -1 30.9045 32.9124 38.0689 
200 10 2 0 31.0065 32.1891 37.4243 
201 11 1 -1 27.3221 29.9723 36.6927 
202 11 1 -1 27.5323 30.8726 36.4321 
203 11 2 0 27.6452 31.4922 35.751 
204 11 2 0 27.2318 30.6623 35.4303 
205 11 1 -1 27.9772 30.1621 35.1283 
206 11 2 0 28.7073 29.5729 34.9987 
207 11 4 0 28.845 30.2323 34.2382 
208 11 1 -1 27.9524 29.8675 34.0967 
209 11 1 -1 27.0418 30.0508 34.3799 
210 11 3 1 27.4711 30.9172 34.408 
211 11 1 -1 27.8636 30.6984 33.571 
212 11 1 -1 27.4833 30.1632 32.8524 
213 11 3 1 26.9556 30.1875 32.1236 
214 11 2 0 27.7708 30.7066 31.9091 
215 11 1 -1 27.1207 30.7465 31.1847 
216 11 3 1 26.2265 30.649 31.549 
217 11 1 -1 26.2583 31.3902 31.0394 
218 11 1 -1 25.313 31.3041 30.8888 
219 11 3 1 25.6587 31.3788 29.9569 
220 11 3 1 25.9006 32.1939 29.4143 
221 12 4 0 40.5057 38.011 28.5769 
222 12 1 -1 39.8245 37.3426 28.3511 
223 12 3 1 39.1667 36.7482 28.1256 
224 12 3 1 38.5858 36.7855 28.9001 
225 12 2 0 38.1659 36.1919 29.5407 
226 12 1 -1 38.7697 36.1428 30.2986 
227 12 1 -1 39.3228 35.5878 29.7668 
228 12 1 -1 39.1966 34.8371 30.4021 
229 12 3 1 38.6288 34.7249 31.2325 
230 12 3 1 38.1773 35.1713 30.5077 
231 12 2 0 37.4605 35.8106 30.3259 
232 12 2 0 37.9632 36.2969 30.9943 
233 12 3 1 37.5649 35.8796 31.7637 
234 12 1 -1 36.9124 36.5253 32.0348 
235 12 2 0 36.8721 36.6828 31.0221 
236 12 1 -1 36.0618 36.5762 31.4821 
237 12 1 -1 36.1314 36.1173 32.3909 
238 12 1 -1 35.8147 36.9633 32.737 
239 12 1 -1 35.501 37.5719 32.0674 
240 12 1 -1 36.3111 37.9149 32.2816 
241 13 1 -1 38.7914 31.9359 33.6749 
242 13 1 -1 38.2546 32.1673 32.8738 
243 13 1 -1 38.3901 32.4476 32.0009 
244 13 3 1 38.5539 33.373 32.1149 
245 13 3 1 39.4247 33.8975 32.0431 
246 13 1 -1 40.4116 33.9217 32.0455 
247 13 4 0 40.2526 33.5711 31.1948 
248 13 1 -1 39.5498 32.894 31.6053 
249 13 2 0 39.1569 32.1381 31.1137 
250 13 1 -1 39.6366 31.7129 30.3886 
251 13 3 1 39.8014 30.8638 30.8051 
252 13 2 0 39.7696 31.0749 31.7912 
253 13 1 -1 39.0979 31.3907 32.3623 
254 13 1 -1 38.5463 30.6796 32.7289 
255 13 2 0 38.7665 29.8923 32.1558 
256 13 3 1 39.6504 29.9373 32.3701 
257 13 2 0 39.6004 28.98 32.3191 
258 13 1 -1 39.1813 28.4529 33.1393 
259 13 1 -1 40.0033 28.4331 33.5948 
260 13 3 1 40.6661 27.7676 33.8366 
261 14 3 1 26.1082 32.0059 27.6986 
262 14 1 -1 25.6092 31.2161 27.4921 
263 14 3 1 26.4916 30.8606 27.6764 
264 14 1 -1 27.0787 30.9646 26.9888 
265 14 3 1 27.4039 31.503 27.7122 
266 14 1 -1 28.0728 31.0258 27.2925 
267 14 3 1 28.3278 31.9044 26.8742 
268 14 2 0 29.1167 32.0882 27.3526 
269 14 1 -1 30.0621 32.3429 27.3226 
270 14 2 0 29.7371 31.8322 28.0459 
271 14 1 -1 29.8428 31.0906 27.4238 
272 14 1 -1 30.7958 31.3829 27.2364 
273 14 1 -1 31.3159 32.1769 27.1094 
274 14 1 -1 30.965 33.092 27.0795 
275 14 2 0 31.3696 33.7258 26.5388 
276 14 2 0 31.3529 33.3655 25.6238 
277 14 4 0 30.7373 33.3824 24.8714 
278 14 3 1 29.8882 33.2329 25.3059 
279 14 1 -1 30.5371 32.5751 25.5882 
280 14 1 -1 29.7635 32.0439 25.5257 
281 15 1 -1 34.9412 35.8741 37.4261 
282 15 2 0 35.2262 35.9111 38.3736 
283 15 1 -1 35.3191 36.8535 37.8934 
284 15 1 -1 36.2094 36.5417 37.9318 
285 15 3 1 36.7573 35.9631 38.5801 
286 15 3 1 37.0746 35.423 37.8816 
287 15 2 0 36.2167 35.043 37.7471 
288 15 1 -1 35.6482 34.8423 38.4683 
289 15 3 1 36.1127 35.0284 39.2899 
290 15 3 1 36.9831 34.6694 39.2388 
291 15 1 -1 37.1059 33.8773 38.7632 
292 15 3 1 36.9155 33.4063 39.5724 
293 15 4 0 36.2752 33.8071 40.161 
294 15 1 -1 35.611 33.9495 39.4367 
295 15 2 0 34.7788 34.3241 39.1167 
296 15 1 -1 33.931 34.3927 38.686 
297 15 2 0 33.4899 34.5474 39.4989 
298 15 1 -1 32.6241 34.2574 39.5069 
299 15 1 -1 32.4768 33.5195 38.8477 
300 15 1 -1 32.9672 34.3291 38.4607 
301 16 1 -1 28.0718 36.0621 31.1705 
302 16 1 -1 28.4796 35.2484 30.8355 
303 16 3 1 28.2622 34.4565 30.3966 
304 16 3 1 28.2776 34.9378 29.6308 
305 16 1 -1 28.33 34.756 28.7262 
306 16 3 1 28.6029 35.6416 28.557 
307 16 3 1 29.3213 35.994 29.0739 
308 16 1 -1 30.0187 35.799 29.7497 
309 16 1 -1 30.5119 36.6282 29.9813 
310 16 2 0 31.1512 36.0716 29.5306 
311 16 2 0 31.1391 35.9147 28.605 
312 16 4 0 30.812 36.693 28.1321 
313 16 2 0 30.875 36.9244 29.0906 
314 16 1 -1 31.7972 36.581 29.0832 
315 16 1 -1 32.159 35.6429 29.1225 
316 16 3 1 33.0726 35.9088 29.0361 
317 16 2 0 32.8567 35.2421 28.3766 
318 16 1 -1 32.3793 34.4006 28.1839 
319 16 1 -1 32.0586 33.7895 27.4612 
320 16 1 -1 32.858 33.4319 27.0883 
321 17 2 0 28.0999 29.4819 35.8928 
322 17 1 -1 27.9803 28.7823 36.5686 
323 17 2 0 27.7648 27.9029 36.2934 
324 17 1 -1 27.6919 28.5916 35.583 
325 17 1 -1 27.4552 27.6723 35.3648 
326 17 4 0 26.9565 26.845 35.2573 
327 17 3 1 26.7459 27.217 36.1444 
328 17 1 -1 26.6136 28.1719 36.4265 
329 17 2 0 26.6086 28.6821 35.6323 
330 17 2 0 26.9934 29.5842 35.5352 
331 17 1 -1 26.8508 29.0403 34.7144 
332 17 1 -1 27.5942 28.4965 34.3615 
333 17 1 -1 28.3189 28.1004 34.7541 
334 17 3 1 28.1832 27.4312 34.0294 
335 17 3 1 27.9682 26.6302 34.5075 
336 17 1 -1 27.6992 25.9257 35.0184 
337 17 3 1 27.0811 25.1601 34.9019 
338 17 1 -1 26.1959 25.0106 35.3113 
339 17 3 1 25.7095 25.7582 35.0842 
340 17 1 -1 25.2347 25.2446 35.8751 
341 18 2 0 36.1791 29.3027 35.0246 
342 18 1 -1 36.9064 28.7645 35.2725 
343 18 1 -1 36.9645 28.9611 34.3602 
344 18 1 -1 36.4338 29.0922 33.5215 
345 18 2 0 36.3945 28.1644 33.7712 
346 18 1 -1 35.9094 28.5092 34.5035 
347 18 1 -1 35.23 28.6769 35.07 
348 18 3 1 35.2936 29.4306 35.6618 
349 18 1 -1 35.3959 28.6105 36.0947 
350 18 1 -1 36.1519 28.1707 36.4545 
351 18 3 1 36.908 27.6033 36.7466 
352 18 3 1 37.5652 26.863 36.7201 
353 18 1 -1 37.1972 26.6318 35.8094 
354 18 1 -1 37.6348 27.121 35.1162 
355 18 1 -1 38.1334 26.3507 35.429 
356 18 3 1 37.9724 25.5742 34.7896 
357 18 3 1 37.2959 24.9992 34.3995 
358 18 4 0 36.8802 24.2437 34.0375 
359 18 2 0 36.2863 24.9667 33.8621 
360 18 2 0 35.73 24.7748 34.5934 
361 19 4 0 26.2452 39.2942 35.254 
362 19 3 1 26.146 38.5508 35.9098 
363 19 2 0 26.6518 37.8444 36.4439 
364 19 2 0 27.5418 37.7065 36.0697 
365 19 1 -1 27.9516 37.9345 35.2793 
366 19 3 1 27.6103 38.1628 34.343 
367 19 1 -1 27.1782 37.3001 34.1887 
368 19 3 1 26.7694 36.3602 34.2593 
369 19 1 -1 26.7074 36.1262 33.2883 
370 19 2 0 26.8104 35.3426 32.7059 
371 19 3 1 27.5992 35.1083 33.2461 
372 19 1 -1 28.4081 35.6195 33.2721 
373 19 1 -1 27.6683 36.2329 33.6329 
374 19 1 -1 27.6985 36.713 32.8136 
375 19 3 1 27.753 37.4482 32.2396 
376 19 1 -1 28.4489 37.0712 31.7495 
377 19 2 0 29.241 37.32 32.3027 
378 19 1 -1 30.1519 37.4679 31.9647 
379 19 1 -1 30.9819 37.6346 32.4232 
380 19 1 -1 31.6674 37.4471 33.0319 
381 20 3 1 32.0068 34.5263 25.5083 
382 20 1 -1 32.3243 35.2653 25.9905 
383 20 1 -1 32.2598 34.3817 26.439 
384 20 1 -1 33.1364 34.2512 26.6666 
385 20 2 0 33.2094 34.5754 27.5505 
386 20 3 1 33.9007 35.1567 27.3424 
387 20 1 -1 34.282 34.6426 26.524 
388 20 4 0 35.0865 34.9527 25.9276 
389 20 1 -1 35.301 34.0595 25.666 
390 20 1 -1 34.9739 33.8399 26.5693 
391 20 1 -1 35.6391 34.1424 27.2151 
392 20 1 -1 35.423 33.2453 27.3436 
393 20 2 0 34.6075 32.7864 27.0385 
394 20 1 -1 33.9779 33.5135 26.8047 
395 20 2 0 33.9384 33.0495 25.8926 
396 20 1 -1 34.1072 33.954 25.6799 
397 20 3 1 34.2945 34.269 24.8004 
398 20 2 0 33.9289 34.7121 24.0585 
399 20 3 1 34.31 35.1302 23.259 
400 20 3 1 34.8787 35.9169 22.9608 
401 21 1 -1 35.8035 37.6331 31.0059 
402 21 1 -1 35.865 37.0457 30.199 
403 21 3 1 35.446 37.3863 29.3937 
404 21 2 0 35.1746 37.2623 28.4247 
405 21 1 -1 34.5987 36.9264 29.1106 
406 21 1 -1 33.7483 37.1581 28.755 
407 21 1 -1 33.287 37.0203 27.9597 
408 21 2 0 34.0259 37.3804 27.5794 
409 21 4 0 34.8095 36.8406 27.6406 
410 21 3 1 34.8132 35.9583 28.0359 
411 21 1 -1 35.3314 35.1052 27.8441 
412 21 2 0 35.3117 35.359 26.9433 
413 21 1 -1 36.1164 34.9096 26.9583 
414 21 1 -1 36.8049 35.314 27.4866 
415 21 1 -1 37.0947 35.1072 26.5922 
416 21 3 1 37.936 35.5905 26.6591 
417 21 3 1 38.3784 34.8328 26.3849 
418 21 1 -1 39.0889 35.4212 26.1238 
419 21 3 1 39.4916 35.7409 25.3004 
420 21 2 0 38.6898 36.1785 24.9551 
421 22 3 1 36.0111 39.084 29.482 
422 22 3 1 35.7824 38.4184 28.7682 
423 22 1 -1 36.7869 38.4815 28.8051 
424 22 3 1 37.0003 38.4054 29.7923 
425 22 1 -1 37.2022 37.837 30.578 
426 22 1 -1 36.8539 37.7145 31.4458 
427 22 1 -1 37.424 37.9006 32.1744 
428 22 1 -1 37.9609 37.5823 32.8711 
429 22 1 -1 37.3437 36.8365 32.9684 
430 22 1 -1 37.6177 35.9578 33.3231 
431 22 3 1 38.0046 35.3264 33.9594 
432 22 2 0 37.4539 34.7334 33.3715 
433 22 3 1 36.9744 34.242 32.6764 
434 22 2 0 36.6768 33.4071 32.2788 
435 22 2 0 36.3089 32.6476 32.8214 
436 22 4 0 37.1565 32.9482 33.1712 
437 22 1 -1 37.1298 33.2046 34.0818 
438 22 1 -1 37.9767 32.8055 34.0254 
439 22 2 0 37.3031 32.1515 33.9998 
440 22 1 -1 37.3435 31.751 33.0399 
441 23 2 0 30.0452 31.9198 36.4988 
442 23 2 0 29.4179 31.3202 36.1664 
443 23 3 1 28.6408 31.8383 35.9246 
444 23 3 1 28.4708 31.71 34.9501 
445 23 2 0 28.8748 30.912 35.2822 
446 23 1 -1 28.4895 30.5759 36.0311 
447 23 1 -1 29.3935 30.3994 36.4556 
448 23 1 -1 29.3584 29.5439 36.0251 
449 23 1 -1 28.9135 28.7163 35.9603 
450 23 1 -1 28.7982 27.7825 35.65 
451 23 4 0 29.666 27.4595 35.1996 
452 23 1 -1 29.7291 26.6821 35.6534 
453 23 3 1 29.6772 26.1262 36.4341 
454 23 3 1 29.962 26.1322 37.3159 
455 23 1 -1 30.3304 26.962 37.505 
456 23 3 1 30.9569 27.3791 38.0157 
457 23 1 -1 30.1985 27.9635 37.947 
458 23 1 -1 29.9631 28.3048 37.124 
459 23 2 0 29.4465 29.1101 37.185 
460 23 1 -1 28.5747 29.5139 36.9009 
461 24 1 -1 34.3174 26.9613 32.965 
462 24 1 -1 33.6312 26.4485 32.4346 
463 24 1 -1 34.4766 26.5489 31.8258 
464 24 1 -1 34.3363 25.636 32.0449 
465 24 2 0 33.8073 25.0602 31.4636 
466 24 3 1 34.1468 24.8176 30.6472 
467 24 4 0 35.0546 24.7117 30.4222 
468 24 1 -1 35.1112 25.4236 31.0647 
469 24 1 -1 36.0535 25.0601 30.9466 
470 24 3 1 36.4418 24.3501 30.3674 
471 24 1 -1 36.094 25.0781 29.8308 
472 24 1 -1 36.5634 25.7904 29.3993 
473 24 3 1 36.1104 26.5099 29.944 
474 24 3 1 36.9889 26.3847 30.4322 
475 24 2 0 37.8033 26.6713 30.1018 
476 24 1 -1 38.085 26.6769 29.2276 
477 24 1 -1 37.7382 25.8199 29.6057 
478 24 2 0 37.6867 25.6249 28.6041 
479 24 2 0 37.2629 25.9417 27.793 
480 24 3 1 37.0771 25.113 27.2717 
481 25 2 0 36.9497 26.4708 40.062 
482 25 2 0 36.4385 27.2826 40.0888 
483 25 1 -1 36.1053 26.9244 40.8666 
484 25 3 1 35.5914 27.4435 41.486 
485 25 3 1 34.9497 28.0649 41.9037 
486 25 1 -1 34.8267 28.3398 41.0188 
487 25 1 -1 35.3891 28.1027 40.2843 
488 25 2 0 35.4962 27.5747 39.552 
489 25 2 0 35.8657 28.2847 38.9932 
490 25 1 -1 35.5332 28.671 38.2246 
491 25 1 -1 34.7865 28.1282 37.9562 
492 25 1 -1 34.3179 27.6476 37.2906 
493 25 4 0 34.8281 27.6308 36.444 
494 25 3 1 35.1846 26.767 36.7009 
495 25 1 -1 35.5072 25.7635 36.8015 
496 25 3 1 35.8418 25.4041 35.9699 
497 25 1 -1 36.2572 25.4197 35.0995 
498 25 3 1 36.4696 26.0601 34.4009 
499 25 1 -1 36.3265 26.9853 34.1067 
500 25 1 -1 36.916 27.754 34.5325 
501 26 3 1 41.2439 35.0097 32.0249 
502 26 3 1 40.3477 35.2144 31.704 
503 26 2 0 39.824 35.606 31.0019 
504 26 4 0 39.3359 35.9377 31.7361 
505 26 1 -1 39.2991 36.8019 31.175 
506 26 3 1 39.5261 37.3629 30.4455 
507 26 2 0 38.7454 37.1384 29.9849 
508 26 1 -1 38.0325 37.7512 29.8296 
509 26 2 0 37.5215 37.3703 29.0725 
510 26 1 -1 37.3684 36.8935 29.9031 
511 26 1 -1 36.632 36.8879 29.2755 
512 26 1 -1 36.3435 36.1094 29.7737 
513 26 1 -1 37.2113 35.9842 29.2799 
514 26 1 -1 36.6525 35.2273 29.4031 
515 26 1 -1 37.3074 35.1404 28.6647 
516 26 2 0 36.5628 34.6807 28.3391 
517 26 3 1 36.747 33.9552 27.7051 
518 26 1 -1 36.4524 32.9941 27.597 
519 26 3 1 36.0794 32.2288 28.0706 
520 26 1 -1 35.8931 32.2533 27.13 
521 27 1 -1 31.2585 39.0171 33.7941 
522 27 1 -1 31.0686 38.8779 32.876 
523 27 3 1 30.5151 38.2352 33.4207 
524 27 2 0 30.1227 37.3822 33.4852 
525 27 1 -1 29.2514 37.5994 33.867 
526 27 2 0 28.6443 37.3927 33.1047 
527 27 2 0 29.0933 36.573 33.0396 
528 27 1 -1 29.0322 36.2568 32.1367 
529 27 1 -1 29.7848 36.3607 31.5255 
530 27 1 -1 29.4194 35.6692 30.9723 
531 27 3 1 29.0661 36.4799 30.6477 
532 27 3 1 29.2575 37.2726 30.0861 
533 27 2 0 30.1025 37.7489 29.878 
534 27 1 -1 30.0578 37.5834 30.816 
535 27 1 -1 29.656 38.4804 30.8654 
536 27 1 -1 28.7316 38.2379 31.3383 
537 27 4 0 28.1919 39.0295 31.1132 
538 27 3 1 27.5057 38.2843 30.9394 
539 27 3 1 27.3536 37.462 30.4422 
540 27 1 -1 28.0784 37.6308 29.7393 
541 28 1 -1 31.5496 31.3463 38.2969 
542 28 1 -1 32.088 32.0616 38.1185 
543 28 1 -1 32.2192 31.9767 39.1092 
544 28 2 0 32.4418 31.405 39.9083 
545 28 3 1 33.3659 31.3271 39.6688 
546 28 4 0 32.8734 30.5334 39.9887 
547 28 1 -1 32.027 30.1569 39.8141 
548 28 2 0 32.1158 29.8236 40.7542 
549 28 3 1 32.7259 29.145 41.2318 
550 28 3 1 33.5567 29.2106 41.8042 
551 28 1 -1 34.2395 29.2698 41.0814 
552 28 1 -1 33.7047 28.6351 40.604 
553 28 1 -1 34.3929 28.7435 39.9411 
554 28 1 -1 34.8781 28.3011 39.2703 
555 28 2 0 34.3802 27.6974 39.8859 
556 28 3 1 33.7342 27.5599 39.24 
557 28 1 -1 34.5707 27.2232 38.8275 
558 28 3 1 35.4581 26.726 38.8421 
559 28 2 0 34.8027 26.0536 38.7505 
560 28 1 -1 34.6771 26.0912 37.8315 
561 29 3 1 28.9405 33.0037 33.0896 
562 29 1 -1 28.1216 33.6201 33.169 
563 29 1 -1 27.3528 33.6539 33.7029 
564 29 2 0 26.7114 33.1225 34.1265 
565 29 3 1 27.0481 32.241 34.1418 
566 29 1 -1 26.4909 32.3957 34.8774 
567 29 4 0 26.4648 33.2777 35.2229 
568 29 1 -1 26.8929 34.193 35.187 
569 29 3 1 26.6184 34.5027 34.2728 
570 29 2 0 26.1765 35.0316 33.5639 
571 29 1 -1 25.6269 35.7944 33.2864 
572 29 2 0 25.0275 35.9168 32.5796 
573 29 3 1 24.5252 36.7659 32.8477 
574 29 1 -1 25.2921 36.8881 32.2943 
575 29 1 -1 26.2004 36.8181 32.4531 
576 29 1 -1 26.3929 37.5249 33.1312 
577 29 1 -1 25.8695 37.0092 33.8317 
578 29 3 1 26.0994 37.0544 34.7238 
579 29 1 -1 25.3288 37.6124 34.8987 
580 29 2 0 25.0468 38.3681 35.4073 
581 30 3 1 32.6291 33.6444 37.7108 
582 30 1 -1 32.0177 32.9616 37.462 
583 30 2 0 31.4186 33.688 37.7503 
584 30 2 0 31.3915 34.1972 38.655 
585 30 4 0 31.4351 35.1528 38.4496 
586 30 3 1 31.6712 35.7389 37.7641 
587 30 3 1 32.1827 36.4809 38.1336 
588 30 1 -1 33.0543 36.0505 37.9595 
589 30 3 1 32.8196 35.2425 37.5247 
590 30 1 -1 33.4239 34.4551 37.3474 
591 30 1 -1 33.9586 33.7141 37.1331 
592 30 1 -1 34.317 33.512 38.036 
593 30 1 -1 34.515 32.6604 38.3996 
594 30 3 1 34.2538 32.6507 37.4593 
595 30 2 0 34.8937 33.1572 37.012 
596 30 2 0 34.5538 33.2874 36.0352 
597 30 1 -1 35.3834 32.6816 35.8336 
598 30 1 -1 35.3179 33.1114 34.9589 
599 30 1 -1 35.1993 33.8923 35.4672 
600 30 1 -1 34.998 34.6856 35.0473 
601 31 1 -1 30.5122 28.1921 35.2535 
602 31 2 0 30.0597 28.7927 35.976 
603 31 1 -1 30.9483 28.607 36.2676 
604 31 3 1 31.3369 27.8684 36.8513 
605 31 3 1 31.5616 27.0211 36.5157 
606 31 1 -1 32.4077 27.1568 36.0119 
607 31 1 -1 32.5094 27.9974 36.4835 
608 31 2 0 32.9435 28.2499 37.2663 
609 31 3 1 33.4523 28.868 37.7259 
610 31 3 1 32.6185 29.2256 37.8043 
611 31 1 -1 32.5678 30.1672 38.0055 
612 31 1 -1 31.9014 30.3233 38.786 
613 31 2 0 31.0243 29.8667 38.9732 
614 31 3 1 30.5765 29.0192 38.9721 
615 31 4 0 29.8002 29.2412 38.4662 
616 31 1 -1 30.524 29.1445 37.8421 
617 31 1 -1 31.3064 29.7431 37.7488 
618 31 2 0 31.0816 30.6307 37.3842 
619 31 1 -1 30.2974 30.3622 37.8327 
620 31 1 -1 30.4932 29.7632 37.047 
621 32 3 1 35.2772 28.1184 31.9275 
622 32 3 1 35.1982 28.4064 32.8648 
623 32 1 -1 35.3438 29.146 33.4344 
624 32 1 -1 35.5075 29.3669 32.4963 
625 32 1 -1 36.3788 29.7788 32.2168 
626 32 1 -1 36.1661 30.3126 33.0137 
627 32 2 0 37.0221 30.0647 33.2763 
628 32 2 0 37.7467 29.99 32.5879 
629 32 1 -1 38.3354 29.3939 32.9586 
630 32 2 0 38.01 28.6807 32.4556 
631 32 1 -1 37.8499 28.3332 31.5519 
632 32 4 0 38.8345 28.1584 31.834 
633 32 3 1 38.9565 27.682 30.9616 
634 32 2 0 39.267 28.4959 30.6947 
635 32 1 -1 40.0412 29.0641 31.0035 
636 32 3 1 40.231 29.9691 31.0915 
637 32 1 -1 39.3092 29.9673 30.8202 
638 32 1 -1 38.4864 29.4027 30.6216 
639 32 3 1 37.6007 29.7005 30.4747 
640 32 1 -1 37.7523 30.3657 29.7215 
641 33 4 0 28.7881 38.9321 33.0774 
642 33 1 -1 29.5066 39.3871 33.4704 
643 33 2 0 29.9523 39.8291 34.2904 
644 33 1 -1 30.8668 40.0661 34.0766 
645 33 3 1 30.2848 40.8521 34.3177 
646 33 3 1 30.4045 41.6401 34.7793 
647 33 1 -1 30.8546 42.486 34.8195 
648 33 1 -1 31.703 42.3794 34.3705 
649 33 3 1 31.4761 42.4108 33.4067 
650 33 1 -1 31.017 41.5909 33.4955 
651 33 1 -1 31.968 41.4188 33.3626 
652 33 1 -1 31.3915 40.6436 33.3452 
653 33 3 1 32.2004 40.5547 32.8166 
654 33 1 -1 32.0193 39.5722 32.8742 
655 33 1 -1 32.1721 38.6197 33.0467 
656 33 2 0 32.4279 38.6058 32.1601 
657 33 2 0 31.6685 38.6884 31.5399 
658 33 3 1 32.0253 37.8231 31.4554 
659 33 2 0 31.5939 38.1157 30.693 
660 33 1 -1 30.9011 37.8666 31.3471 
661 34 3 1 30.4079 27.0977 27.9127 
662 34 1 -1 30.2005 27.8738 27.3635 
663 34 2 0 30.8817 28.4965 27.7057 
664 34 1 -1 30.7211 29.2755 28.2605 
665 34 2 0 30.2396 29.3951 29.0517 
666 34 3 1 30.5826 30.3028 28.9576 
667 34 1 -1 30.8094 30.6618 27.9807 
668 34 1 -1 31.2125 31.2496 28.6489 
669 34 1 -1 31.5598 31.8819 28.0719 
670 34 1 -1 31.1774 32.6184 28.5697 
671 34 4 0 30.4511 32.8805 29.1253 
672 34 1 -1 30.0782 33.7466 28.7196 
673 34 1 -1 29.2344 34.09 29.1323 
674 34 1 -1 28.3584 33.7177 29.4768 
675 34 3 1 27.4401 33.5478 29.538 
676 34 2 0 27.0924 33.1118 30.3102 
677 34 3 1 27.177 32.2974 30.8343 
678 34 1 -1 27.7595 32.0011 31.6334 
679 34 2 0 27.9912 31.3079 30.9355 
680 34 3 1 28.232 31.7294 30.0462 
681 35 1 -1 29.2111 26.589 28.5226 
682 35 2 0 29.4195 27.0309 29.3355 
683 35 4 0 29.5795 27.6559 30.0446 
684 35 1 -1 30.1081 28.4026 29.826 
685 35 3 1 30.627 28.1291 29.0328 
686 35 2 0 29.833 27.6621 28.677 
687 35 1 -1 29.2511 27.9278 27.9363 
688 35 2 0 29.8687 28.6382 28.0167 
689 35 1 -1 30.1897 29.239 27.2188 
690 35 1 -1 30.609 30.0606 26.8692 
691 35 1 -1 31.5193 29.8895 27.2231 
692 35 3 1 32.2975 29.9601 26.646 
693 35 1 -1 31.8105 29.297 26.2253 
694 35 1 -1 31.0764 28.794 26.7153 
695 35 1 -1 31.941 28.7952 27.1731 
696 35 3 1 32.0386 27.8297 27.4426 
697 35 1 -1 31.3465 27.8109 26.7938 
698 35 3 1 31.5202 26.8121 26.6462 
699 35 2 0 30.6031 26.5792 26.6886 
700 35 3 1 29.8492 26.1771 26.4052 
701 36 1 -1 42.3615 36.6216 34.3484 
702 36 2 0 42.1476 37.1026 35.1215 
703 36 1 -1 41.2377 37.4562 35.2127 
704 36 1 -1 40.4654 37.9727 35.4467 
705 36 3 1 40.007 38.2844 36.2331 
706 36 3 1 39.4788 38.8587 36.7689 
707 36 3 1 39.9199 39.4992 36.2611 
708 36 1 -1 39.0078 39.6437 35.8999 
709 36 1 -1 38.3428 39.0128 35.6154 
710 36 1 -1 38.1577 38.8498 34.6033 
711 36 4 0 38.8971 38.5587 34.0327 
712 36 3 1 38.5696 39.1914 33.3609 
713 36 3 1 37.8316 39.5463 32.9077 
714 36 2 0 37.3855 38.654 33.0692 
715 36 1 -1 37.2618 38.2429 33.994 
716 36 1 -1 36.6134 37.8029 33.4041 
717 36 1 -1 35.8942 37.2743 33.7457 
718 36 2 0 36.4932 36.4377 33.7319 
719 36 2 0 36.1463 36.4903 34.6475 
720 36 1 -1 36.9559 35.9948 34.7256 
721 37 2 0 35.7603 30.2618 34.6091 
722 37 2 0 36.6922 30.1615 34.6668 
723 37 1 -1 37.6458 30.4195 34.4061 
724 37 3 1 38.0401 29.8423 33.7187 
725 37 1 -1 37.48 29.1013 33.4669 
726 37 1 -1 37.5739 28.1995 33.6284 
727 37 3 1 37.5822 27.7268 32.8465 
728 37 3 1 38.4934 27.7275 33.2321 
729 37 2 0 37.9872 27.2483 33.913 
730 37 1 -1 38.5449 27.2144 34.6152 
731 37 1 -1 39.1672 27.8847 34.188 
732 37 2 0 38.3322 28.452 34.0877 
733 37 1 -1 38.13 28.212 34.9887 
734 37 1 -1 38.2746 29.1468 34.9689 
735 37 1 -1 39.2197 28.9258 34.5979 
736 37 1 -1 39.1578 28.8037 35.5574 
737 37 3 1 38.9772 29.0294 36.4825 
738 37 4 0 39.4632 29.3686 37.1871 
739 37 3 1 38.6332 29.1733 37.6808 
740 37 1 -1 37.6693 29.4127 37.8515 
741 38 1 -1 35.4294 32.9013 23.1563 
742 38 3 1 34.5401 32.6112 23.4587 
743 38 3 1 34.4907 31.6903 23.8305 
744 38 2 0 34.3949 31.2095 24.7026 
745 38 3 1 34.3885 31.0582 25.6847 
746 38 2 0 34.3091 31.9955 26.0173 
747 38 1 -1 35.2477 31.9973 26.2824 
748 38 2 0 35.0354 31.304 26.8567 
749 38 1 -1 34.059 31.1372 26.8294 
750 38 4 0 33.5586 31.0861 27.63 
751 38 1 -1 32.7968 31.7093 27.4634 
752 38 1 -1 32.32 32.4537 27.1325 
753 38 1 -1 32.1502 32.6845 28.0192 
754 38 1 -1 31.8295 33.5103 28.4318 
755 38 1 -1 31.1659 34.259 28.3877 
756 38 1 -1 31.3987 35.0153 27.8686 
757 38 2 0 32.1518 35.4145 27.3966 
758 38 1 -1 31.6959 36.0511 26.8885 
759 38 3 1 31.0415 36.8938 26.8518 
760 38 3 1 31.6021 37.5855 27.1743 
761 39 1 -1 33.3515 37.8171 29.8676 
762 39 1 -1 34.1146 38.3064 30.2378 
763 39 1 -1 34.5893 38.1523 29.3858 
764 39 2 0 33.9349 38.7197 29.1628 
765 39 3 1 33.4617 39.5523 29.1456 
766 39 3 1 32.9784 39.1217 28.4727 
767 39 4 0 32.349 39.3165 29.2237 
768 39 1 -1 32.9576 38.743 29.5984 
769 39 2 0 33.5552 39.1493 30.3327 
770 39 3 1 33.3761 40.075 30.6153 
771 39 3 1 33.7548 40.4177 31.5005 
772 39 2 0 33.5777 39.6258 31.9788 
773 39 1 -1 32.6638 39.6002 31.9741 
774 39 3 1 33.0229 39.3232 32.8186 
775 39 1 -1 33.7017 38.6923 32.6203 
776 39 1 -1 33.2889 38.5438 33.4629 
777 39 1 -1 32.6726 39.2462 33.9656 
778 39 1 -1 32.113 38.4908 34.0926 
779 39 1 -1 32.3382 38.8413 34.9925 
780 39 2 0 31.7683 38.2247 35.5219 
781 40 3 1 38.6179 36.407 36.7848 
782 40 1 -1 38.0928 35.8767 37.3634 
783 40 3 1 38.7471 35.3092 36.9001 
784 40 1 -1 38.5939 34.4303 36.4952 
785 40 3 1 38.6162 33.6506 37.1404 
786 40 3 1 38.1562 33.1531 37.821 
787 40 1 -1 37.4269 33.619 37.3308 
788 40 1 -1 36.679 34.1791 37.3612 
789 40 3 1 36.8757 34.5599 36.4713 
790 40 4 0 36.1811 34.8868 35.9144 
791 40 1 -1 35.8163 35.2857 36.6767 
792 40 1 -1 35.3989 36.2208 36.4763 
793 40 1 -1 34.6836 36.8461 36.4082 
794 40 2 0 34.2658 37.3108 35.7008 
795 40 2 0 34.6076 36.5041 35.375 
796 40 1 -1 35.1426 35.6259 35.3877 
797 40 1 -1 34.6177 34.9354 35.9075 
798 40 1 -1 35.2154 34.4385 36.4542 
799 40 2 0 34.4123 34.6195 36.9886 
800 40 2 0 33.7472 34.548 36.2764 
801 41 1 -1 27.4887 27.884 31.8524 
802 41 3 1 28.0929 26.9932 31.9027 
803 41 2 0 27.9264 26.7168 31.0491 
804 41 1 -1 28.555 27.4844 30.934 
805 41 2 0 28.59 26.7992 30.193 
806 41 3 1 28.4771 25.8735 30.0744 
807 41 1 -1 28.5065 25.09 29.5028 
808 41 1 -1 28.9404 24.3452 29.061 
809 41 4 0 28.5586 23.7242 29.6412 
810 41 1 -1 29.3052 24.099 30.2367 
811 41 1 -1 30.169 24.5513 30.3484 
812 41 3 1 30.1084 23.991 31.174 
813 41 1 -1 30.7171 24.4362 31.9078 
814 41 1 -1 30.3378 25.0582 31.3463 
815 41 1 -1 29.6038 24.9653 31.9529 
816 41 3 1 28.7954 25.1217 32.5299 
817 41 3 1 28.5836 25.9425 32.0101 
818 41 1 -1 29.0099 26.2446 31.2362 
819 41 2 0 29.7803 25.8803 30.7224 
820 41 2 0 29.2874 25.1074 30.7992 
821 42 2 0 37.0883 30.9336 35.6199 
822 42 2 0 36.9074 29.9698 35.6904 
823 42 1 -1 37.6407 30.2133 36.2854 
824 42 2 0 38.465 29.8742 35.9829 
825 42 1 -1 38.2454 30.4316 35.2555 
826 42 2 0 39.0994 30.6558 35.5338 
827 42 3 1 39.8442 30.8348 36.0945 
828 42 3 1 40.1431 30.7339 35.1722 
829 42 1 -1 39.8117 29.9079 34.7808 
830 42 1 -1 38.8866 29.9753 34.5909 
831 42 1 -1 39.1909 29.5231 33.7907 
832 42 1 -1 39.64 30.4606 33.8449 
833 42 3 1 39.0442 30.9851 34.4496 
834 42 1 -1 39.5564 31.834 34.4912 
835 42 1 -1 39.2168 32.4236 35.2004 
836 42 4 0 38.6858 31.64 35.4608 
837 42 3 1 38.3473 32.1089 36.1894 
838 42 1 -1 38.2341 31.1538 36.4679 
839 42 1 -1 38.9652 30.598 36.6735 
840 42 3 1 38.9149 31.4595 37.1125 
841 43 2 0 26.0927 27.7319 34.9984 
842 43 3 1 25.8013 26.8514 34.6278 
843 43 2 0 25.2554 27.1962 35.35 
844 43 1 -1 25.2337 28.0224 35.8939 
845 43 1 -1 24.7977 28.6557 36.4932 
846 43 3 1 24.6706 29.2387 37.2259 
847 43 1 -1 25.1682 29.7528 37.8876 
848 43 3 1 25.672 28.8909 37.7201 
849 43 1 -1 26.1122 29.1894 36.8832 
850 43 1 -1 26.0696 30.193 36.7998 
851 43 1 -1 26.2892 30.9404 36.175 
852 43 2 0 26.6264 31.7495 35.728 
853 43 1 -1 25.7144 32.0875 35.8134 
854 43 3 1 25.3542 31.207 35.9041 
855 43 1 -1 25.7938 30.6276 35.3289 
856 43 2 0 25.3603 29.8123 35.4513 
857 43 4 0 24.7568 29.8725 34.7354 
858 43 3 1 24.0845 29.5592 34.1028 
859 43 1 -1 23.4651 30.249 33.7256 
860 43 1 -1 22.5327 30.483 33.7732 
861 44 1 -1 28.3619 42.0158 32.1711 
862 44 4 0 28.601 41.0949 32.2696 
863 44 3 1 29.556 41.1299 32.1958 
864 44 1 -1 30.222 41.005 33.0335 
865 44 2 0 30.1781 40.2682 32.3816 
866 44 2 0 30.9011 39.8217 32.7908 
867 44 1 -1 31.3689 39.9669 32.0249 
868 44 1 -1 32.0685 40.3511 31.5303 
869 44 2 0 32.4698 41.1018 31.1502 
870 44 3 1 33.1218 41.8192 31.2488 
871 44 1 -1 32.4664 41.8454 31.9363 
872 44 1 -1 31.6999 41.3518 32.1715 
873 44 3 1 30.7919 41.2854 31.8659 
874 44 2 0 30.5238 40.6066 31.2458 
875 44 1 -1 30.6241 39.7586 30.8098 
876 44 3 1 30.6237 38.8805 31.2126 
877 44 1 -1 30.1459 38.9774 32.0406 
878 44 1 -1 29.8238 39.6031 31.4778 
879 44 1 -1 29.3022 40.3818 31.2229 
880 44 3 1 28.3411 40.2608 31.3579 
881 45 1 -1 37.1159 36.4684 28.3355 
882 45 2 0 36.3834 35.8148 28.4661 
883 45 1 -1 36.0182 36.2878 27.6542 
884 45 1 -1 35.6175 36.981 27.0747 
885 45 3 1 35.9378 36.5437 26.3119 
886 45 3 1 35.4015 36.8546 25.5877 
887 45 1 -1 34.5193 36.5505 25.4499 
888 45 3 1 33.6108 36.2838 25.6778 
889 45 1 -1 33.0338 36.012 24.9987 
890 45 1 -1 32.2954 36.1444 24.3516 
891 45 3 1 32.5097 35.24 24.0691 
892 45 3 1 31.7106 35.0954 24.5868 
893 45 1 -1 30.9792 35.2318 25.1117 
894 45 2 0 31.369 36.0414 25.5041 
895 45 2 0 30.8792 35.6869 26.263 
896 45 2 0 30.7329 35.0011 26.9602 
897 45 1 -1 30.3804 35.3778 27.7541 
898 45 1 -1 29.7946 35.7485 27.0954 
899 45 4 0 29.5604 34.8384 27.142 
900 45 1 -1 30.2216 34.322 27.6688 
901 46 1 -1 36.002 31.7853 36.2508 
902 46 3 1 36.7134 32.4818 36.2538 
903 46 3 1 36.8305 32.9689 35.4351 
904 46 2 0 36.2829 32.2538 35.1929 
905 46 1 -1 36.411 31.4592 34.73 
906 46 1 -1 35.9722 31.1103 35.457 
907 46 1 -1 35.1223 31.4028 35.8268 
908 46 1 -1 34.4758 30.7559 36.0058 
909 46 1 -1 34.3233 29.9138 36.2681 
910 46 2 0 34.8321 29.2199 36.8 
911 46 1 -1 35.7551 29.1683 36.9798 
912 46 3 1 36.38 29.5628 37.6205 
913 46 2 0 36.8111 28.7981 37.1441 
914 46 1 -1 37.3237 28.4356 37.9141 
915 46 3 1 37.0362 28.6227 38.8832 
916 46 1 -1 37.1067 28.535 39.8728 
917 46 2 0 36.3465 29.1161 39.5972 
918 46 1 -1 36.0397 29.1212 40.4971 
919 46 4 0 36.6676 29.768 40.8956 
920 46 3 1 37.0984 28.9232 41.1976 
921 47 3 1 30.1206 23.2097 31.9122 
922 47 1 -1 29.4134 23.5838 32.4524 
923 47 1 -1 30.3422 23.8269 32.7423 
924 47 1 -1 30.8243 22.9803 32.7622 
925 47 3 1 31.3507 23.3164 32.0167 
926 47 2 0 32.1446 23.5922 32.585 
927 47 4 0 31.3381 23.922 32.971 
928 47 3 1 30.8145 24.6526 33.1713 
929 47 2 0 31.5745 25.0858 32.7418 
930 47 1 -1 31.8304 25.6704 32.08 
931 47 1 -1 30.8349 25.7323 32.0713 
932 47 1 -1 30.1556 25.4737 32.8191 
933 47 1 -1 30.519 26.3469 32.8244 
934 47 1 -1 31.418 26.311 33.0698 
935 47 2 0 32.1791 26.5209 32.4779 
936 47 2 0 31.6008 27.1813 32.4006 
937 47 3 1 31.76 28.1134 32.2703 
938 47 1 -1 31.8046 28.345 33.2251 
939 47 3 1 32.189 27.5113 33.1287 
940 47 1 -1 32.6594 26.7077 33.3959 
941 48 4 0 29.1035 39.7831 35.535 
942 48 2 0 28.2222 39.3037 35.5073 
943 48 1 -1 28.3732 38.4978 36.1049 
944 48 3 1 28.6256 38.8336 37.0358 
945 48 1 -1 28.6057 38.0458 37.6567 
946 48 1 -1 29.1797 37.8834 36.8999 
947 48 1 -1 28.6049 37.5018 36.22 
948 48 1 -1 29.1491 38.0059 35.633 
949 48 3 1 29.5784 38.502 34.8933 
950 48 3 1 30.059 37.7119 35.2146 
951 48 1 -1 30.9752 37.3385 35.23 
952 48 3 1 30.4195 36.9745 34.5257 
953 48 3 1 29.7796 36.2894 34.7474 
954 48 1 -1 30.2181 35.8488 34.0365 
955 48 2 0 31.1485 35.6338 34.403 
956 48 2 0 32.0146 35.9082 34.5632 
957 48 1 -1 32.7536 35.6418 35.1209 
958 48 2 0 32.1684 36.0319 35.8101 
959 48 1 -1 31.2008 36.2598 35.8556 
960 48 1 -1 31.5806 36.6377 35.0688 
961 49 3 1 33.0269 40.0867 37.1287 
962 49 1 -1 33.4848 39.5645 36.4793 
963 49 1 -1 34.1948 40.0451 36.8835 
964 49 1 -1 34.2991 40.2856 35.9555 
965 49 3 1 35.0576 40.7674 35.5629 
966 49 1 -1 35.1543 39.8097 35.5828 
967 49 1 -1 35.056 39.9527 34.6209 
968 49 2 0 35.3904 39.2797 34.0634 
969 49 2 0 36.2511 38.8183 33.8565 
970 49 2 0 35.918 38.5485 33.0246 
971 49 3 1 35.8109 39.174 32.3114 
972 49 1 -1 35.7594 38.5857 31.5521 
973 49 1 -1 34.915 38.36 31.9556 
974 49 2 0 34.5744 38.6427 31.0027 
975 49 4 0 34.5578 39.5206 30.611 
976 49 3 1 34.6801 40.4569 30.7499 
977 49 1 -1 35.0658 40.821 31.5313 
978 49 1 -1 34.7405 41.0324 32.4947 
979 49 1 -1 34.4855 40.0277 32.3938 
980 49 3 1 34.9664 39.6486 33.0671 
981 50 2 0 35.9188 33.4118 26.3157 
982 50 1 -1 35.0818 33.0749 25.8676 
983 50 1 -1 35.0296 33.0698 24.8653 
984 50 1 -1 35.563 32.3027 25.1364 
985 50 1 -1 36.1068 32.4565 25.9106 
986 50 2 0 36.2252 33.1329 25.1631 
987 50 3 1 36.3542 33.0383 24.206 
988 50 3 1 37.1968 33.2847 24.5524 
989 50 2 0 37.1392 33.1492 25.5603 
990 50 3 1 37.6339 32.6824 26.2552 
991 50 1 -1 37.6734 33.0972 27.1517 
992 50 1 -1 38.191 32.5457 27.8001 
993 50 2 0 38.7673 32.5463 28.577 
994 50 4 0 39.0554 31.7586 28.1183 
995 50 1 -1 38.6398 31.5698 29.0272 
996 50 3 1 37.8991 31.5193 29.6969 
997 50 1 -1 37.505 31.2967 30.6008 
998 50 3 1 38.2534 30.5973 30.629 
999 50 1 -1 37.6861 30.5568 31.439 
1000 50 1 -1 38.0184 31.26 32.0805 
1001 13 5 0 33.7501 35.3742 34.81 
1002 13 5 0 33.4339 37.8399 31.0701 
1003 13 5 0 32.1268 32.9685 31.9542 
1004 13 5 0 34.7694 36.8932 32.9261 
1005 13 5 0 34.9053 34.1109 32.5562 
1006 13 5 0 28.9907 29.344 29.9797 
1007 13 5 0 35.3873 33.5876 29.3736 
1008 13 5 0 29.7631 27.3894 31.4682 
1009 13 5 0 31.5723 29.7384 36.4194 
1010 13 5 0 32.3409 34.6329 33.5706 
1011 13 5 0 30.6467 29.0656 32.6332 
1012 13 5 0 32.899 33.2492 36.7052 
1013 13 5 0 29.9721 32.4212 35.1163 
1014 13 5 0 32.7747 36.154 33.5842 
1015 13 5 0 32.9383 33.4204 29.294 
1016 13 5 0 32.4591 31.8225 30.5792 
1017 13 5 0 35.0039 36.6386 34.1224 
1018 13 5 0 34.7228 37.3322 30.2161 
1019 13 5 0 29.9235 31.3039 34.9845 
1020 13 5 0 36.8122 34.2138 33.9707 
1021 13 5 0 33.7886 28.7635 35.3468 
1022 13 5 0 30.2263 28.0027 32.9591 
1023 13 5 0 29.6582 34.9447 31.8482 
1024 13 5 0 30.0789 31.9713 33.9669 
1025 13 5 0 35.4757 33.0634 31.6902 
1026 13 5 0 35.4269 30.767 32.4244 
1027 13 5 0 32.8328 32.1724 36.7267 
1028 13 5 0 32.0463 31.2547 33.8322 
1029 13 5 0 33.4478 32.6225 27.6287 
1030 13 5 0 34.4954 33.8239 27.6646 
1031 13 5 0 34.5797 37.3125 31.8165 
1032 13 5 0 35.2532 31.8377 34.7037 
1033 13 5 0 29.7873 33.4604 33.5592 
1034 13 5 0 29.6948 31.9381 32.6745 
1035 13 5 0 34.6754 31.0058 30.8034 
1036 13 5 0 32.14 35.9904 30.622 
1037 13 5 0 31.208 33.808 30.9307 
1038 13 5 0 34.3153 29.4614 33.927 
1039 13 5 0 32.1174 30.8113 36.2889 
1040 13 5 0 34.3093 31.0633 34.7067 
1041 13 5 0 31.4251 32.2528 33.7869 
1042 13 5 0 34.4974 33.3045 34.1082 
1043 13 5 0 33.7249 33.9838 32.5063 
1044 13 5 0 31.4123 36.1835 32.1055 
1045 13 5 0 30.1939 36.2239 32.5134 
1046 13 5 0 28.5567 28.8696 34.1531 
1047 13 5 0 31.6063 31.3126 34.8908 
1048 13 5 0 33.5459 28.2261 34.0688 
1049 13 5 0 34.0445 31.0863 29.5349 
1050 13 5 0 31.0703 32.2719 35.2531 
1051 13 5 0 30.3024 28.3033 31.3215 
1052 13 5 0 35.4285 36.246 29.0869 
1053 13 5 0 35.1427 35.5561 29.8056 
1054 13 5 0 28.7074 28.2832 32.1166 
1055 13 5 0 36.2268 35.0326 32.0465 
1056 13 5 0 33.1837 37.6966 32.7159 
1057 13 5 0 35.6937 35.7676 33.9955 
1058 13 5 0 27.9244 29.3691 32.2724 
1059 13 5 0 33.9776 36.4774 34.5654 
1060 13 5 0 31.1556 29.8109 33.6845 
1061 13 5 0 35.4749 31.1689 33.8618 
1062 13 5 0 37.2298 35.011 31.0733 
1063 13 5 0 34.1782 35.0293 30.7541 
1064 13 5 0 33.5821 35.3273 29.7203 
1065 13 5 0 30.0384 26.3054 31.6557 
1066 13 5 0 33.9113 33.0441 31.9157 
1067 13 5 0 32.5199 37.1953 33.3683 
1068 13 5 0 30.6149 30.8112 30.0888 
1069 13 5 0 31.8114 34.7205 34.7636 
1070 13 5 0 30.8234 28.4007 33.7873 
1071 13 5 0 32.5266 32.2952 29.1974 
1072 13 5 0 29.7069 30.2269 34.9107 
1073 13 5 0 33.2541 33.6061 28.342 
1074 13 5 0 31.9645 29.4027 32.4925 
1075 13 5 0 30.4552 31.0867 31.9675 
1076 13 5 0 34.4783 29.8993 32.5593 
1077 13 5 0 34.1684 32.7328 35.1994 
1078 13 5 0 32.5662 34.5506 29.3524 
1079 13 5 0 31.1762 32.2259 29.8955 
1080 13 5 0 35.1705 37.8089 33.2525 
1081 13 5 0 36.1892 35.6234 31.0862 
1082 13 5 0 27.8311 29.027 33.3758 
1083 13 5 0 31.5269 31.4865 36.908 
1084 13 5 0 31.5792 32.6401 36.5094 
1085 13 5 0 30.6508 35.9154 30.7473 
1086 13 5 0 33.4949 28.7338 32.5475 
1087 13 5 0 35.1516 30.3242 33.2907 
1088 13 5 0 29.9948 30.5573 30.962 
1089 13 5 0 29.4673 35.6046 32.8368 
1090 13 5 0 28.6753 30.0011 33.1906 
1091 13 5 0 33.6986 29.8127 35.0358 
1092 13 5 0 35.5227 34.8258 30.7112 
1093 13 5 0 35.4259 33.3987 33.4674 
1094 13 5 0 31.5269 32.0601 31.5084 
1095 13 5 0 31.5867 36.5299 33.6626 
1096 13 5 0 30.5327 29.1217 34.5139 
1097 13 5 0 28.8641 30.8496 30.0591 
1098 13 5 0 34.6038 33.7158 30.6717 
1099 13 5 0 28.9109 29.8946 31.1151 
1100 13 5 0 29.5664 29.4934 34.0747 
1101 13 5 0 33.5171 36.2508 30.932 
1102 13 5 0 35.0113 35.4143 32.1617 
1103 13 5 0 33.5398 32.5643 29.9903 
1104 13 5 0 30.6854 29.7225 35.5568 
1105 13 5 0 30.8978 26.9001 31.4185 
1106 13 5 0 30.1797 33.0455 31.8319 
1107 13 5 0 32.1809 28.7698 34.1693 
1108 13 6 0 31.9321 29.6492 31.4503 
1109 13 6 0 32.0158 33.4315 34.0007 
1110 13 6 0 34.1158 34.3768 31.3786 
1111 13 6 0 30.9297 34.4565 32.0355 
1112 13 6 0 29.4469 27.7912 32.5546 
1113 13 6 0 32.5708 29.482 35.6638 
1114 13 6 0 32.299 34.0847 35.3015 
1115 13 6 0 33.085 29.2032 34.0465 
1116 13 6 0 33.4207 32.0561 32.3408 
1117 13 6 0 32.4423 34.9243 31.1821 
1118 13 6 0 34.2554 36.5157 31.8019 
1119 13 6 0 29.8005 32.6825 33.439 
1120 13 6 0 35.0152 31.5239 32.9884 
1121 13 6 0 32.7228 36.9616 30.9812 
1122 13 6 0 30.4042 33.5868 34.5846 
1123 13 6 0 32.9804 29.306 32.0804 
1124 13 6 0 33.7338 31.7925 31.307 
1125 13 6 0 32.3184 29.923 34.2895 
1126 13 6 0 34.6079 31.9153 30.2296 
1127 13 6 0 33.4654 33.6013 30.3325 
1128 13 6 0 35.2011 32.7202 32.713 
1129 13 6 0 30.578 27.337 32.5565 
1130 13 6 0 34.7599 34.9966 33.6844 
1131 13 6 0 28.9908 28.7986 30.7184 
1132 13 6 0 31.4024 33.1751 33.0757 
1133 13 6 0 29.4418 31.0264 32.2073 
1134 13 6 0 32.0648 33.0933 30.6654 
1135 13 6 0 32.3033 35.9313 31.8186 
1136 13 6 0 33.9429 35.3714 33.0946 
1137 13 6 0 30.8005 30.2759 32.5656 
1138 13 6 0 33.1824 30.4467 31.6227 
1139 13 6 0 33.8372 37.7395 31.32 
1140 13 6 0 33.1065 31.9981 35.7153 
1141 13 6 0 31.8513 31.8357 29.7472 
1142 13 6 0 29.0976 30.9564 30.9131 
1143 13 6 0 34.9949 34.8121 29.1578 
1144 13 6 0 33.0339 34.0677 31.1359 
1145 13 6 0 30.6402 35.7279 32.8297 
1146 13 6 0 30.7168 31.4891 32.9812 
1147 13 6 0 29.5406 28.7946 31.6504 
1148 13 6 0 32.2972 32.8134 35.6004 
1149 13 6 0 34.1814 30.8121 30.4749 
1150 13 6 0 29.6405 29.8343 30.1753 
1151 13 6 0 29.4013 26.6161 32.5438 
1152 13 6 0 31.079 29.9965 30.9255 
1153 13 6 0 33.5117 35.4998 31.7902 
1154 13 6 0 33.3593 34.6743 34.3163 
1155 13 6 0 33.434 33.685 35.0747 
1156 13 6 0 32.499 36.9785 32.2226 
1157 13 6 0 28.4719 29.9788 31.5074 
1158 13 6 0 35.9356 33.8383 31.0412 
1159 13 6 0 36.1073 34.5481 31.755 
1160 13 6 0 35.8349 34.7126 33.4858 
1161 13 6 0 33.1083 31.831 29.9839 
1162 13 6 0 29.8131 34.134 32.4841 
1163 13 6 0 30.4673 30.9658 35.8312 
1164 13 6 0 33.9387 34.0887 29.4733 
1165 13 6 0 31.1927 34.8328 33.5622 
1166 13 6 0 30.431 27.4066 33.6013 
1167 13 6 0 28.9532 28.6153 33.053 
1168 13 6 0 29.0722 31.3298 33.742 
1169 13 6 0 33.2094 30.0254 33.0541 
1170 13 6 0 31.7399 35.2947 32.5012 
1171 13 6 0 31.18 30.3209 34.6555 
1172 13 6 0 35.5117 35.9447 33.1741 
1173 13 6 0 32.7806 33.5571 33.0677 
1174 13 6 0 33.7555 28.6125 33.0832 
1175 13 6 0 33.1993 29.9037 36.4402 
1176 13 6 0 35.2577 35.9362 30.8091 
1177 13 6 0 34.002 31.0215 32.8128 
1178 13 6 0 32.8017 35.1373 32.7503 
1179 13 6 0 32.1495 34.1224 30.4697 
1180 13 6 0 35.9363 34.1513 32.641 
1181 13 6 0 32.5883 30.6513 29.7409 
1182 13 6 0 32.3474 33.6671 31.9826 
1183 13 6 0 29.609 32.0274 31.2914 
1184 13 6 0 34.2083 32.9654 33.3279 
1185 13 6 0 31.531 29.3938 35.0167 
1186 13 6 0 31.2427 35.1688 30.6734 
1187 13 6 0 33.4178 36.7302 32.4365 
1188 13 6 0 30.0427 29.9903 31.9495 
1189 13 6 0 34.1232 37.8644 33.2455 
1190 13 6 0 34.3372 33.3726 28.5736 
1191 13 6 0 29.1657 29.8419 32.5578 
1192 13 6 0 32.9556 32.8103 34.5297 
1193 13 6 0 31.9381 31.3692 35.7577 
1194 13 6 0 34.0046 35.3621 28.8746 
1195 13 6 0 33.8058 32.0778 34.0043 
1196 13 6 0 33.2034 30.788 35.4001 
1197 13 6 0 33.7141 32.0389 29.1372 
1198 13 6 0 32.8885 27.7473 34.3105 
1199 13 6 0 33.9334 36.3775 29.7595 
1200 13 6 0 33.4389 30.7341 33.9893 
1201 13 6 0 35.8383 34.3405 29.384 
1202 13 6 0 35.0706 35.9022 34.3361 
1203 13 6 0 32.8674 31.7372 34.3993 
1204 13 6 0 29.922 28.7402 33.3631 
1205 13 6 0 34.6605 32.9539 29.8237 
