%!PS-Adobe-2.0 EPSF-2.0
%%Title: coord-0.8-fA-0.5.eps
%%Creator: gnuplot 5.0 patchlevel 5
%%CreationDate: Wed Jan 10 09:13:04 2018
%%DocumentFonts: (atend)
%%BoundingBox: 50 50 770 503
%%EndComments
%%BeginProlog
/gnudict 256 dict def
gnudict begin
%
% The following true/false flags may be edited by hand if desired.
% The unit line width and grayscale image gamma correction may also be changed.
%
/Color true def
/Blacktext false def
/Solid false def
/Dashlength 1 def
/Landscape false def
/Level1 false def
/Level3 false def
/Rounded false def
/ClipToBoundingBox false def
/SuppressPDFMark false def
/TransparentPatterns false def
/gnulinewidth 5.000 def
/userlinewidth gnulinewidth def
/Gamma 1.0 def
/BackgroundColor {-1.000 -1.000 -1.000} def
%
/vshift -166 def
/dl1 {
  10.0 Dashlength userlinewidth gnulinewidth div mul mul mul
  Rounded { currentlinewidth 0.75 mul sub dup 0 le { pop 0.01 } if } if
} def
/dl2 {
  10.0 Dashlength userlinewidth gnulinewidth div mul mul mul
  Rounded { currentlinewidth 0.75 mul add } if
} def
/hpt_ 31.5 def
/vpt_ 31.5 def
/hpt hpt_ def
/vpt vpt_ def
/doclip {
  ClipToBoundingBox {
    newpath 50 50 moveto 770 50 lineto 770 503 lineto 50 503 lineto closepath
    clip
  } if
} def
%
% Gnuplot Prolog Version 5.1 (Oct 2015)
%
%/SuppressPDFMark true def
%
/M {moveto} bind def
/L {lineto} bind def
/R {rmoveto} bind def
/V {rlineto} bind def
/N {newpath moveto} bind def
/Z {closepath} bind def
/C {setrgbcolor} bind def
/f {rlineto fill} bind def
/g {setgray} bind def
/Gshow {show} def   % May be redefined later in the file to support UTF-8
/vpt2 vpt 2 mul def
/hpt2 hpt 2 mul def
/Lshow {currentpoint stroke M 0 vshift R 
	Blacktext {gsave 0 setgray textshow grestore} {textshow} ifelse} def
/Rshow {currentpoint stroke M dup stringwidth pop neg vshift R
	Blacktext {gsave 0 setgray textshow grestore} {textshow} ifelse} def
/Cshow {currentpoint stroke M dup stringwidth pop -2 div vshift R 
	Blacktext {gsave 0 setgray textshow grestore} {textshow} ifelse} def
/UP {dup vpt_ mul /vpt exch def hpt_ mul /hpt exch def
  /hpt2 hpt 2 mul def /vpt2 vpt 2 mul def} def
/DL {Color {setrgbcolor Solid {pop []} if 0 setdash}
 {pop pop pop 0 setgray Solid {pop []} if 0 setdash} ifelse} def
/BL {stroke userlinewidth 2 mul setlinewidth
	Rounded {1 setlinejoin 1 setlinecap} if} def
/AL {stroke userlinewidth 2 div setlinewidth
	Rounded {1 setlinejoin 1 setlinecap} if} def
/UL {dup gnulinewidth mul /userlinewidth exch def
	dup 1 lt {pop 1} if 10 mul /udl exch def} def
/PL {stroke userlinewidth setlinewidth
	Rounded {1 setlinejoin 1 setlinecap} if} def
3.8 setmiterlimit
% Classic Line colors (version 5.0)
/LCw {1 1 1} def
/LCb {0 0 0} def
/LCa {0 0 0} def
/LC0 {1 0 0} def
/LC1 {0 1 0} def
/LC2 {0 0 1} def
/LC3 {1 0 1} def
/LC4 {0 1 1} def
/LC5 {1 1 0} def
/LC6 {0 0 0} def
/LC7 {1 0.3 0} def
/LC8 {0.5 0.5 0.5} def
% Default dash patterns (version 5.0)
/LTB {BL [] LCb DL} def
/LTw {PL [] 1 setgray} def
/LTb {PL [] LCb DL} def
/LTa {AL [1 udl mul 2 udl mul] 0 setdash LCa setrgbcolor} def
/LT0 {PL [] LC0 DL} def
/LT1 {PL [2 dl1 3 dl2] LC1 DL} def
/LT2 {PL [1 dl1 1.5 dl2] LC2 DL} def
/LT3 {PL [6 dl1 2 dl2 1 dl1 2 dl2] LC3 DL} def
/LT4 {PL [1 dl1 2 dl2 6 dl1 2 dl2 1 dl1 2 dl2] LC4 DL} def
/LT5 {PL [4 dl1 2 dl2] LC5 DL} def
/LT6 {PL [1.5 dl1 1.5 dl2 1.5 dl1 1.5 dl2 1.5 dl1 6 dl2] LC6 DL} def
/LT7 {PL [3 dl1 3 dl2 1 dl1 3 dl2] LC7 DL} def
/LT8 {PL [2 dl1 2 dl2 2 dl1 6 dl2] LC8 DL} def
/SL {[] 0 setdash} def
/Pnt {stroke [] 0 setdash gsave 1 setlinecap M 0 0 V stroke grestore} def
/Dia {stroke [] 0 setdash 2 copy vpt add M
  hpt neg vpt neg V hpt vpt neg V
  hpt vpt V hpt neg vpt V closepath stroke
  Pnt} def
/Pls {stroke [] 0 setdash vpt sub M 0 vpt2 V
  currentpoint stroke M
  hpt neg vpt neg R hpt2 0 V stroke
 } def
/Box {stroke [] 0 setdash 2 copy exch hpt sub exch vpt add M
  0 vpt2 neg V hpt2 0 V 0 vpt2 V
  hpt2 neg 0 V closepath stroke
  Pnt} def
/Crs {stroke [] 0 setdash exch hpt sub exch vpt add M
  hpt2 vpt2 neg V currentpoint stroke M
  hpt2 neg 0 R hpt2 vpt2 V stroke} def
/TriU {stroke [] 0 setdash 2 copy vpt 1.12 mul add M
  hpt neg vpt -1.62 mul V
  hpt 2 mul 0 V
  hpt neg vpt 1.62 mul V closepath stroke
  Pnt} def
/Star {2 copy Pls Crs} def
/BoxF {stroke [] 0 setdash exch hpt sub exch vpt add M
  0 vpt2 neg V hpt2 0 V 0 vpt2 V
  hpt2 neg 0 V closepath fill} def
/TriUF {stroke [] 0 setdash vpt 1.12 mul add M
  hpt neg vpt -1.62 mul V
  hpt 2 mul 0 V
  hpt neg vpt 1.62 mul V closepath fill} def
/TriD {stroke [] 0 setdash 2 copy vpt 1.12 mul sub M
  hpt neg vpt 1.62 mul V
  hpt 2 mul 0 V
  hpt neg vpt -1.62 mul V closepath stroke
  Pnt} def
/TriDF {stroke [] 0 setdash vpt 1.12 mul sub M
  hpt neg vpt 1.62 mul V
  hpt 2 mul 0 V
  hpt neg vpt -1.62 mul V closepath fill} def
/DiaF {stroke [] 0 setdash vpt add M
  hpt neg vpt neg V hpt vpt neg V
  hpt vpt V hpt neg vpt V closepath fill} def
/Pent {stroke [] 0 setdash 2 copy gsave
  translate 0 hpt M 4 {72 rotate 0 hpt L} repeat
  closepath stroke grestore Pnt} def
/PentF {stroke [] 0 setdash gsave
  translate 0 hpt M 4 {72 rotate 0 hpt L} repeat
  closepath fill grestore} def
/Circle {stroke [] 0 setdash 2 copy
  hpt 0 360 arc stroke Pnt} def
/CircleF {stroke [] 0 setdash hpt 0 360 arc fill} def
/C0 {BL [] 0 setdash 2 copy moveto vpt 90 450 arc} bind def
/C1 {BL [] 0 setdash 2 copy moveto
	2 copy vpt 0 90 arc closepath fill
	vpt 0 360 arc closepath} bind def
/C2 {BL [] 0 setdash 2 copy moveto
	2 copy vpt 90 180 arc closepath fill
	vpt 0 360 arc closepath} bind def
/C3 {BL [] 0 setdash 2 copy moveto
	2 copy vpt 0 180 arc closepath fill
	vpt 0 360 arc closepath} bind def
/C4 {BL [] 0 setdash 2 copy moveto
	2 copy vpt 180 270 arc closepath fill
	vpt 0 360 arc closepath} bind def
/C5 {BL [] 0 setdash 2 copy moveto
	2 copy vpt 0 90 arc
	2 copy moveto
	2 copy vpt 180 270 arc closepath fill
	vpt 0 360 arc} bind def
/C6 {BL [] 0 setdash 2 copy moveto
	2 copy vpt 90 270 arc closepath fill
	vpt 0 360 arc closepath} bind def
/C7 {BL [] 0 setdash 2 copy moveto
	2 copy vpt 0 270 arc closepath fill
	vpt 0 360 arc closepath} bind def
/C8 {BL [] 0 setdash 2 copy moveto
	2 copy vpt 270 360 arc closepath fill
	vpt 0 360 arc closepath} bind def
/C9 {BL [] 0 setdash 2 copy moveto
	2 copy vpt 270 450 arc closepath fill
	vpt 0 360 arc closepath} bind def
/C10 {BL [] 0 setdash 2 copy 2 copy moveto vpt 270 360 arc closepath fill
	2 copy moveto
	2 copy vpt 90 180 arc closepath fill
	vpt 0 360 arc closepath} bind def
/C11 {BL [] 0 setdash 2 copy moveto
	2 copy vpt 0 180 arc closepath fill
	2 copy moveto
	2 copy vpt 270 360 arc closepath fill
	vpt 0 360 arc closepath} bind def
/C12 {BL [] 0 setdash 2 copy moveto
	2 copy vpt 180 360 arc closepath fill
	vpt 0 360 arc closepath} bind def
/C13 {BL [] 0 setdash 2 copy moveto
	2 copy vpt 0 90 arc closepath fill
	2 copy moveto
	2 copy vpt 180 360 arc closepath fill
	vpt 0 360 arc closepath} bind def
/C14 {BL [] 0 setdash 2 copy moveto
	2 copy vpt 90 360 arc closepath fill
	vpt 0 360 arc} bind def
/C15 {BL [] 0 setdash 2 copy vpt 0 360 arc closepath fill
	vpt 0 360 arc closepath} bind def
/Rec {newpath 4 2 roll moveto 1 index 0 rlineto 0 exch rlineto
	neg 0 rlineto closepath} bind def
/Square {dup Rec} bind def
/Bsquare {vpt sub exch vpt sub exch vpt2 Square} bind def
/S0 {BL [] 0 setdash 2 copy moveto 0 vpt rlineto BL Bsquare} bind def
/S1 {BL [] 0 setdash 2 copy vpt Square fill Bsquare} bind def
/S2 {BL [] 0 setdash 2 copy exch vpt sub exch vpt Square fill Bsquare} bind def
/S3 {BL [] 0 setdash 2 copy exch vpt sub exch vpt2 vpt Rec fill Bsquare} bind def
/S4 {BL [] 0 setdash 2 copy exch vpt sub exch vpt sub vpt Square fill Bsquare} bind def
/S5 {BL [] 0 setdash 2 copy 2 copy vpt Square fill
	exch vpt sub exch vpt sub vpt Square fill Bsquare} bind def
/S6 {BL [] 0 setdash 2 copy exch vpt sub exch vpt sub vpt vpt2 Rec fill Bsquare} bind def
/S7 {BL [] 0 setdash 2 copy exch vpt sub exch vpt sub vpt vpt2 Rec fill
	2 copy vpt Square fill Bsquare} bind def
/S8 {BL [] 0 setdash 2 copy vpt sub vpt Square fill Bsquare} bind def
/S9 {BL [] 0 setdash 2 copy vpt sub vpt vpt2 Rec fill Bsquare} bind def
/S10 {BL [] 0 setdash 2 copy vpt sub vpt Square fill 2 copy exch vpt sub exch vpt Square fill
	Bsquare} bind def
/S11 {BL [] 0 setdash 2 copy vpt sub vpt Square fill 2 copy exch vpt sub exch vpt2 vpt Rec fill
	Bsquare} bind def
/S12 {BL [] 0 setdash 2 copy exch vpt sub exch vpt sub vpt2 vpt Rec fill Bsquare} bind def
/S13 {BL [] 0 setdash 2 copy exch vpt sub exch vpt sub vpt2 vpt Rec fill
	2 copy vpt Square fill Bsquare} bind def
/S14 {BL [] 0 setdash 2 copy exch vpt sub exch vpt sub vpt2 vpt Rec fill
	2 copy exch vpt sub exch vpt Square fill Bsquare} bind def
/S15 {BL [] 0 setdash 2 copy Bsquare fill Bsquare} bind def
/D0 {gsave translate 45 rotate 0 0 S0 stroke grestore} bind def
/D1 {gsave translate 45 rotate 0 0 S1 stroke grestore} bind def
/D2 {gsave translate 45 rotate 0 0 S2 stroke grestore} bind def
/D3 {gsave translate 45 rotate 0 0 S3 stroke grestore} bind def
/D4 {gsave translate 45 rotate 0 0 S4 stroke grestore} bind def
/D5 {gsave translate 45 rotate 0 0 S5 stroke grestore} bind def
/D6 {gsave translate 45 rotate 0 0 S6 stroke grestore} bind def
/D7 {gsave translate 45 rotate 0 0 S7 stroke grestore} bind def
/D8 {gsave translate 45 rotate 0 0 S8 stroke grestore} bind def
/D9 {gsave translate 45 rotate 0 0 S9 stroke grestore} bind def
/D10 {gsave translate 45 rotate 0 0 S10 stroke grestore} bind def
/D11 {gsave translate 45 rotate 0 0 S11 stroke grestore} bind def
/D12 {gsave translate 45 rotate 0 0 S12 stroke grestore} bind def
/D13 {gsave translate 45 rotate 0 0 S13 stroke grestore} bind def
/D14 {gsave translate 45 rotate 0 0 S14 stroke grestore} bind def
/D15 {gsave translate 45 rotate 0 0 S15 stroke grestore} bind def
/DiaE {stroke [] 0 setdash vpt add M
  hpt neg vpt neg V hpt vpt neg V
  hpt vpt V hpt neg vpt V closepath stroke} def
/BoxE {stroke [] 0 setdash exch hpt sub exch vpt add M
  0 vpt2 neg V hpt2 0 V 0 vpt2 V
  hpt2 neg 0 V closepath stroke} def
/TriUE {stroke [] 0 setdash vpt 1.12 mul add M
  hpt neg vpt -1.62 mul V
  hpt 2 mul 0 V
  hpt neg vpt 1.62 mul V closepath stroke} def
/TriDE {stroke [] 0 setdash vpt 1.12 mul sub M
  hpt neg vpt 1.62 mul V
  hpt 2 mul 0 V
  hpt neg vpt -1.62 mul V closepath stroke} def
/PentE {stroke [] 0 setdash gsave
  translate 0 hpt M 4 {72 rotate 0 hpt L} repeat
  closepath stroke grestore} def
/CircE {stroke [] 0 setdash 
  hpt 0 360 arc stroke} def
/Opaque {gsave closepath 1 setgray fill grestore 0 setgray closepath} def
/DiaW {stroke [] 0 setdash vpt add M
  hpt neg vpt neg V hpt vpt neg V
  hpt vpt V hpt neg vpt V Opaque stroke} def
/BoxW {stroke [] 0 setdash exch hpt sub exch vpt add M
  0 vpt2 neg V hpt2 0 V 0 vpt2 V
  hpt2 neg 0 V Opaque stroke} def
/TriUW {stroke [] 0 setdash vpt 1.12 mul add M
  hpt neg vpt -1.62 mul V
  hpt 2 mul 0 V
  hpt neg vpt 1.62 mul V Opaque stroke} def
/TriDW {stroke [] 0 setdash vpt 1.12 mul sub M
  hpt neg vpt 1.62 mul V
  hpt 2 mul 0 V
  hpt neg vpt -1.62 mul V Opaque stroke} def
/PentW {stroke [] 0 setdash gsave
  translate 0 hpt M 4 {72 rotate 0 hpt L} repeat
  Opaque stroke grestore} def
/CircW {stroke [] 0 setdash 
  hpt 0 360 arc Opaque stroke} def
/BoxFill {gsave Rec 1 setgray fill grestore} def
/Density {
  /Fillden exch def
  currentrgbcolor
  /ColB exch def /ColG exch def /ColR exch def
  /ColR ColR Fillden mul Fillden sub 1 add def
  /ColG ColG Fillden mul Fillden sub 1 add def
  /ColB ColB Fillden mul Fillden sub 1 add def
  ColR ColG ColB setrgbcolor} def
/BoxColFill {gsave Rec PolyFill} def
/PolyFill {gsave Density fill grestore grestore} def
/h {rlineto rlineto rlineto gsave closepath fill grestore} bind def
%
% PostScript Level 1 Pattern Fill routine for rectangles
% Usage: x y w h s a XX PatternFill
%	x,y = lower left corner of box to be filled
%	w,h = width and height of box
%	  a = angle in degrees between lines and x-axis
%	 XX = 0/1 for no/yes cross-hatch
%
/PatternFill {gsave /PFa [ 9 2 roll ] def
  PFa 0 get PFa 2 get 2 div add PFa 1 get PFa 3 get 2 div add translate
  PFa 2 get -2 div PFa 3 get -2 div PFa 2 get PFa 3 get Rec
  TransparentPatterns {} {gsave 1 setgray fill grestore} ifelse
  clip
  currentlinewidth 0.5 mul setlinewidth
  /PFs PFa 2 get dup mul PFa 3 get dup mul add sqrt def
  0 0 M PFa 5 get rotate PFs -2 div dup translate
  0 1 PFs PFa 4 get div 1 add floor cvi
	{PFa 4 get mul 0 M 0 PFs V} for
  0 PFa 6 get ne {
	0 1 PFs PFa 4 get div 1 add floor cvi
	{PFa 4 get mul 0 2 1 roll M PFs 0 V} for
 } if
  stroke grestore} def
%
/languagelevel where
 {pop languagelevel} {1} ifelse
dup 2 lt
	{/InterpretLevel1 true def
	 /InterpretLevel3 false def}
	{/InterpretLevel1 Level1 def
	 2 gt
	    {/InterpretLevel3 Level3 def}
	    {/InterpretLevel3 false def}
	 ifelse }
 ifelse
%
% PostScript level 2 pattern fill definitions
%
/Level2PatternFill {
/Tile8x8 {/PaintType 2 /PatternType 1 /TilingType 1 /BBox [0 0 8 8] /XStep 8 /YStep 8}
	bind def
/KeepColor {currentrgbcolor [/Pattern /DeviceRGB] setcolorspace} bind def
<< Tile8x8
 /PaintProc {0.5 setlinewidth pop 0 0 M 8 8 L 0 8 M 8 0 L stroke} 
>> matrix makepattern
/Pat1 exch def
<< Tile8x8
 /PaintProc {0.5 setlinewidth pop 0 0 M 8 8 L 0 8 M 8 0 L stroke
	0 4 M 4 8 L 8 4 L 4 0 L 0 4 L stroke}
>> matrix makepattern
/Pat2 exch def
<< Tile8x8
 /PaintProc {0.5 setlinewidth pop 0 0 M 0 8 L
	8 8 L 8 0 L 0 0 L fill}
>> matrix makepattern
/Pat3 exch def
<< Tile8x8
 /PaintProc {0.5 setlinewidth pop -4 8 M 8 -4 L
	0 12 M 12 0 L stroke}
>> matrix makepattern
/Pat4 exch def
<< Tile8x8
 /PaintProc {0.5 setlinewidth pop -4 0 M 8 12 L
	0 -4 M 12 8 L stroke}
>> matrix makepattern
/Pat5 exch def
<< Tile8x8
 /PaintProc {0.5 setlinewidth pop -2 8 M 4 -4 L
	0 12 M 8 -4 L 4 12 M 10 0 L stroke}
>> matrix makepattern
/Pat6 exch def
<< Tile8x8
 /PaintProc {0.5 setlinewidth pop -2 0 M 4 12 L
	0 -4 M 8 12 L 4 -4 M 10 8 L stroke}
>> matrix makepattern
/Pat7 exch def
<< Tile8x8
 /PaintProc {0.5 setlinewidth pop 8 -2 M -4 4 L
	12 0 M -4 8 L 12 4 M 0 10 L stroke}
>> matrix makepattern
/Pat8 exch def
<< Tile8x8
 /PaintProc {0.5 setlinewidth pop 0 -2 M 12 4 L
	-4 0 M 12 8 L -4 4 M 8 10 L stroke}
>> matrix makepattern
/Pat9 exch def
/Pattern1 {PatternBgnd KeepColor Pat1 setpattern} bind def
/Pattern2 {PatternBgnd KeepColor Pat2 setpattern} bind def
/Pattern3 {PatternBgnd KeepColor Pat3 setpattern} bind def
/Pattern4 {PatternBgnd KeepColor Landscape {Pat5} {Pat4} ifelse setpattern} bind def
/Pattern5 {PatternBgnd KeepColor Landscape {Pat4} {Pat5} ifelse setpattern} bind def
/Pattern6 {PatternBgnd KeepColor Landscape {Pat9} {Pat6} ifelse setpattern} bind def
/Pattern7 {PatternBgnd KeepColor Landscape {Pat8} {Pat7} ifelse setpattern} bind def
} def
%
%
%End of PostScript Level 2 code
%
/PatternBgnd {
  TransparentPatterns {} {gsave 1 setgray fill grestore} ifelse
} def
%
% Substitute for Level 2 pattern fill codes with
% grayscale if Level 2 support is not selected.
%
/Level1PatternFill {
/Pattern1 {0.250 Density} bind def
/Pattern2 {0.500 Density} bind def
/Pattern3 {0.750 Density} bind def
/Pattern4 {0.125 Density} bind def
/Pattern5 {0.375 Density} bind def
/Pattern6 {0.625 Density} bind def
/Pattern7 {0.875 Density} bind def
} def
%
% Now test for support of Level 2 code
%
Level1 {Level1PatternFill} {Level2PatternFill} ifelse
%
/Symbol-Oblique /Symbol findfont [1 0 .167 1 0 0] makefont
dup length dict begin {1 index /FID eq {pop pop} {def} ifelse} forall
currentdict end definefont pop
%
/MFshow {
   { dup 5 get 3 ge
     { 5 get 3 eq {gsave} {grestore} ifelse }
     {dup dup 0 get findfont exch 1 get scalefont setfont
     [ currentpoint ] exch dup 2 get 0 exch R dup 5 get 2 ne {dup dup 6
     get exch 4 get {textshow} {stringwidth pop 0 R} ifelse }if dup 5 get 0 eq
     {dup 3 get {2 get neg 0 exch R pop} {pop aload pop M} ifelse} {dup 5
     get 1 eq {dup 2 get exch dup 3 get exch 6 get stringwidth pop -2 div
     dup 0 R} {dup 6 get stringwidth pop -2 div 0 R 6 get
     textshow 2 index {aload pop M neg 3 -1 roll neg R pop pop} {pop pop pop
     pop aload pop M} ifelse }ifelse }ifelse }
     ifelse }
   forall} def
/Gswidth {dup type /stringtype eq {stringwidth} {pop (n) stringwidth} ifelse} def
/MFwidth {0 exch { dup 5 get 3 ge { 5 get 3 eq { 0 } { pop } ifelse }
 {dup 3 get{dup dup 0 get findfont exch 1 get scalefont setfont
     6 get Gswidth pop add} {pop} ifelse} ifelse} forall} def
/MLshow { currentpoint stroke M
  0 exch R
  Blacktext {gsave 0 setgray MFshow grestore} {MFshow} ifelse } bind def
/MRshow { currentpoint stroke M
  exch dup MFwidth neg 3 -1 roll R
  Blacktext {gsave 0 setgray MFshow grestore} {MFshow} ifelse } bind def
/MCshow { currentpoint stroke M
  exch dup MFwidth -2 div 3 -1 roll R
  Blacktext {gsave 0 setgray MFshow grestore} {MFshow} ifelse } bind def
/XYsave    { [( ) 1 2 true false 3 ()] } bind def
/XYrestore { [( ) 1 2 true false 4 ()] } bind def
Level1 SuppressPDFMark or 
{} {
/SDict 10 dict def
systemdict /pdfmark known not {
  userdict /pdfmark systemdict /cleartomark get put
} if
SDict begin [
  /Title (coord-0.8-fA-0.5.eps)
  /Subject (gnuplot plot)
  /Creator (gnuplot 5.0 patchlevel 5)
  /Author (ndtrung)
%  /Producer (gnuplot)
%  /Keywords ()
  /CreationDate (Wed Jan 10 09:13:04 2018)
  /DOCINFO pdfmark
end
} ifelse
%
% Support for boxed text - Ethan A Merritt May 2005
%
/InitTextBox { userdict /TBy2 3 -1 roll put userdict /TBx2 3 -1 roll put
           userdict /TBy1 3 -1 roll put userdict /TBx1 3 -1 roll put
	   /Boxing true def } def
/ExtendTextBox { Boxing
    { gsave dup false charpath pathbbox
      dup TBy2 gt {userdict /TBy2 3 -1 roll put} {pop} ifelse
      dup TBx2 gt {userdict /TBx2 3 -1 roll put} {pop} ifelse
      dup TBy1 lt {userdict /TBy1 3 -1 roll put} {pop} ifelse
      dup TBx1 lt {userdict /TBx1 3 -1 roll put} {pop} ifelse
      grestore } if } def
/PopTextBox { newpath TBx1 TBxmargin sub TBy1 TBymargin sub M
               TBx1 TBxmargin sub TBy2 TBymargin add L
	       TBx2 TBxmargin add TBy2 TBymargin add L
	       TBx2 TBxmargin add TBy1 TBymargin sub L closepath } def
/DrawTextBox { PopTextBox stroke /Boxing false def} def
/FillTextBox { gsave PopTextBox 1 1 1 setrgbcolor fill grestore /Boxing false def} def
0 0 0 0 InitTextBox
/TBxmargin 20 def
/TBymargin 20 def
/Boxing false def
/textshow { ExtendTextBox Gshow } def
%
% redundant definitions for compatibility with prologue.ps older than 5.0.2
/LTB {BL [] LCb DL} def
/LTb {PL [] LCb DL} def
end
%%EndProlog
%%Page: 1 1
gnudict begin
gsave
doclip
50 50 translate
0.050 0.050 scale
0 setgray
newpath
(Helvetica) findfont 500 scalefont setfont
BackgroundColor 0 lt 3 1 roll 0 lt exch 0 lt or or not {BackgroundColor C 1.000 0 0 14400.00 9072.00 BoxColFill} if
4.000 UL
LTb
LCb setrgbcolor
2150 1600 M
252 0 V
11096 0 R
-252 0 V
stroke
1850 1600 M
[ [(Helvetica) 500.0 0.0 true true 0 (0.0)]
] -166.7 MRshow
4.000 UL
LTb
LCb setrgbcolor
2150 2058 M
126 0 V
11222 0 R
-126 0 V
2150 2516 M
252 0 V
11096 0 R
-252 0 V
stroke
1850 2516 M
[ [(Helvetica) 500.0 0.0 true true 0 (0.2)]
] -166.7 MRshow
4.000 UL
LTb
LCb setrgbcolor
2150 2974 M
126 0 V
11222 0 R
-126 0 V
2150 3432 M
252 0 V
11096 0 R
-252 0 V
stroke
1850 3432 M
[ [(Helvetica) 500.0 0.0 true true 0 (0.4)]
] -166.7 MRshow
4.000 UL
LTb
LCb setrgbcolor
2150 3890 M
126 0 V
11222 0 R
-126 0 V
2150 4348 M
252 0 V
11096 0 R
-252 0 V
stroke
1850 4348 M
[ [(Helvetica) 500.0 0.0 true true 0 (0.6)]
] -166.7 MRshow
4.000 UL
LTb
LCb setrgbcolor
2150 4806 M
126 0 V
11222 0 R
-126 0 V
2150 5264 M
252 0 V
11096 0 R
-252 0 V
stroke
1850 5264 M
[ [(Helvetica) 500.0 0.0 true true 0 (0.8)]
] -166.7 MRshow
4.000 UL
LTb
LCb setrgbcolor
2150 5722 M
126 0 V
11222 0 R
-126 0 V
2150 6180 M
252 0 V
11096 0 R
-252 0 V
stroke
1850 6180 M
[ [(Helvetica) 500.0 0.0 true true 0 (1.0)]
] -166.7 MRshow
4.000 UL
LTb
LCb setrgbcolor
2150 6638 M
126 0 V
11222 0 R
-126 0 V
2150 7096 M
252 0 V
11096 0 R
-252 0 V
stroke
1850 7096 M
[ [(Helvetica) 500.0 0.0 true true 0 (1.2)]
] -166.7 MRshow
4.000 UL
LTb
LCb setrgbcolor
2150 7554 M
126 0 V
11222 0 R
-126 0 V
2150 8012 M
252 0 V
11096 0 R
-252 0 V
stroke
1850 8012 M
[ [(Helvetica) 500.0 0.0 true true 0 (1.4)]
] -166.7 MRshow
4.000 UL
LTb
LCb setrgbcolor
2150 8470 M
126 0 V
11222 0 R
-126 0 V
2150 1600 M
0 252 V
0 6618 R
0 -252 V
stroke
2150 1100 M
[ [(Helvetica) 500.0 0.0 true true 0 (0)]
] -166.7 MCshow
4.000 UL
LTb
LCb setrgbcolor
3285 1600 M
0 126 V
0 6744 R
0 -126 V
4420 1600 M
0 252 V
0 6618 R
0 -252 V
stroke
4420 1100 M
[ [(Helvetica) 500.0 0.0 true true 0 (1000)]
] -166.7 MCshow
4.000 UL
LTb
LCb setrgbcolor
5554 1600 M
0 126 V
0 6744 R
0 -126 V
6689 1600 M
0 252 V
0 6618 R
0 -252 V
stroke
6689 1100 M
[ [(Helvetica) 500.0 0.0 true true 0 (2000)]
] -166.7 MCshow
4.000 UL
LTb
LCb setrgbcolor
7824 1600 M
0 126 V
0 6744 R
0 -126 V
8959 1600 M
0 252 V
0 6618 R
0 -252 V
stroke
8959 1100 M
[ [(Helvetica) 500.0 0.0 true true 0 (3000)]
] -166.7 MCshow
4.000 UL
LTb
LCb setrgbcolor
10094 1600 M
0 126 V
0 6744 R
0 -126 V
11228 1600 M
0 252 V
0 6618 R
0 -252 V
stroke
11228 1100 M
[ [(Helvetica) 500.0 0.0 true true 0 (4000)]
] -166.7 MCshow
4.000 UL
LTb
LCb setrgbcolor
12363 1600 M
0 126 V
0 6744 R
0 -126 V
13498 1600 M
0 252 V
0 6618 R
0 -252 V
stroke
13498 1100 M
[ [(Helvetica) 500.0 0.0 true true 0 (5000)]
] -166.7 MCshow
4.000 UL
LTb
LCb setrgbcolor
4.000 UL
LTB
LCb setrgbcolor
2150 8470 N
0 -6870 V
11348 0 V
0 6870 V
-11348 0 V
Z stroke
1.000 UP
4.000 UL
LTb
LCb setrgbcolor
LCb setrgbcolor
400 5035 M
[ [(Helvetica) 500.0 0.0 true true 0 (n)]
[(Helvetica) 400.0 -150.0 true true 0 (b)]
] -116.7 MCshow
LTb
LCb setrgbcolor
7824 350 M
[ [(Helvetica) 500.0 0.0 true true 0 (t/)]
[(Symbol-Oblique) 500.0 0.0 true true 0 (t)]
] -166.7 MCshow
LTb
% Begin plot #1
6.000 UL
LTb
0.00 0.00 1.00 C LCb setrgbcolor
9598 8157 M
[ [(Symbol-Oblique) 500.0 0.0 true true 0 (e)]
[(Helvetica) 400.0 -150.0 true true 0 (hh)]
[(Helvetica) 500.0 0.0 true true 0 (/k)]
[(Helvetica) 400.0 -150.0 true true 0 (B)]
[(Helvetica) 500.0 0.0 true true 0 (T = 2.0)]
] -116.7 MLshow
6.000 UL
LTb
0.00 0.00 1.00 C 8635 8157 M
663 0 V
2150 5842 M
11 53 V
12 -42 V
11 122 V
11 -88 V
12 141 V
11 -46 V
11 -140 V
12 194 V
11 -308 V
11 216 V
12 114 V
11 -266 V
12 99 V
11 205 V
11 -57 V
12 -19 V
11 -11 V
11 -19 V
12 68 V
11 23 V
11 -384 V
12 179 V
11 27 V
11 133 V
12 125 V
11 38 V
11 23 V
12 -145 V
11 -30 V
11 80 V
12 -80 V
11 -19 V
11 -80 V
12 76 V
11 88 V
12 -84 V
11 -30 V
11 49 V
12 -304 V
11 239 V
11 -159 V
12 144 V
11 -216 V
11 133 V
12 -23 V
11 159 V
11 -79 V
12 -31 V
11 110 V
11 -19 V
12 42 V
11 186 V
11 -121 V
12 -152 V
11 -72 V
11 60 V
12 46 V
11 15 V
12 141 V
11 -270 V
11 182 V
12 0 V
11 -72 V
11 69 V
12 -122 V
11 49 V
11 -121 V
12 49 V
11 -99 V
11 228 V
12 -3 V
11 -187 V
11 213 V
12 -251 V
11 130 V
11 -35 V
12 164 V
11 -297 V
11 259 V
12 -76 V
11 -15 V
12 79 V
11 -133 V
11 99 V
12 -213 V
11 57 V
11 149 V
12 -114 V
11 106 V
11 -224 V
12 57 V
11 -95 V
11 186 V
12 30 V
11 31 V
11 -53 V
12 -31 V
11 19 V
11 -4 V
12 251 V
11 -300 V
11 80 V
stroke 3307 5918 M
12 68 V
11 -80 V
12 0 V
11 35 V
11 -141 V
12 -133 V
11 38 V
11 -91 V
12 410 V
11 -483 V
11 187 V
12 205 V
11 -186 V
11 7 V
12 4 V
11 -68 V
11 57 V
12 -103 V
11 61 V
11 217 V
12 193 V
11 -144 V
12 -68 V
11 140 V
11 46 V
12 -88 V
11 -87 V
11 110 V
12 -110 V
11 144 V
11 0 V
12 149 V
11 -103 V
11 -49 V
12 -38 V
11 -31 V
11 -201 V
12 209 V
11 -12 V
11 27 V
12 -270 V
11 285 V
11 -182 V
12 213 V
11 -202 V
12 88 V
11 -145 V
11 57 V
12 129 V
11 -57 V
11 42 V
12 -99 V
11 -87 V
11 42 V
12 -27 V
11 -42 V
11 42 V
12 262 V
11 -277 V
11 160 V
12 3 V
11 -83 V
11 -72 V
12 -19 V
11 87 V
11 80 V
12 -12 V
11 -38 V
12 -3 V
11 26 V
11 -15 V
12 -91 V
11 19 V
11 26 V
12 -175 V
11 -98 V
11 247 V
12 -270 V
11 34 V
11 213 V
12 -61 V
11 88 V
11 -213 V
12 133 V
11 49 V
11 -30 V
12 38 V
11 -152 V
11 11 V
12 141 V
11 0 V
12 -118 V
11 -27 V
11 65 V
12 198 V
11 41 V
11 92 V
12 -403 V
11 133 V
11 175 V
12 -263 V
11 80 V
11 156 V
12 38 V
stroke 4488 5971 M
11 -110 V
11 121 V
12 187 V
11 -213 V
11 140 V
12 -155 V
11 -57 V
11 -4 V
12 15 V
11 -46 V
12 164 V
11 4 V
11 159 V
12 -349 V
11 125 V
11 -240 V
12 69 V
11 23 V
11 -80 V
12 30 V
11 -91 V
11 240 V
12 -16 V
11 -11 V
11 -125 V
12 171 V
11 -202 V
11 -8 V
12 4 V
11 -148 V
11 76 V
12 65 V
11 175 V
12 60 V
11 31 V
11 30 V
12 4 V
11 95 V
11 -483 V
12 171 V
11 240 V
11 -186 V
12 -137 V
11 64 V
11 -144 V
12 175 V
11 102 V
11 103 V
12 -87 V
11 22 V
11 -167 V
12 80 V
11 -23 V
11 -7 V
12 -50 V
11 27 V
12 -126 V
11 118 V
11 -163 V
12 133 V
11 -133 V
11 -16 V
12 221 V
11 -103 V
11 266 V
12 -182 V
11 -84 V
11 95 V
12 -110 V
11 209 V
11 -61 V
12 141 V
11 -61 V
11 -68 V
12 -31 V
11 -19 V
11 69 V
12 23 V
11 -84 V
12 281 V
11 -133 V
11 38 V
12 -64 V
11 -19 V
11 -12 V
12 -11 V
11 -88 V
11 209 V
12 -193 V
11 -194 V
11 11 V
12 -27 V
11 -95 V
11 263 V
12 -53 V
11 -8 V
11 11 V
12 -22 V
11 193 V
11 126 V
12 -354 V
11 12 V
12 91 V
11 -99 V
stroke 5668 5701 M
11 137 V
12 -95 V
11 68 V
11 156 V
12 -216 V
11 258 V
11 -312 V
12 152 V
11 99 V
11 -274 V
12 42 V
11 35 V
11 38 V
12 190 V
11 -259 V
11 53 V
12 -87 V
11 -8 V
11 19 V
12 -26 V
11 83 V
12 133 V
11 -87 V
11 -209 V
12 266 V
11 -53 V
11 -84 V
12 88 V
11 171 V
11 -103 V
12 -27 V
11 -110 V
11 80 V
12 4 V
11 -46 V
11 -141 V
12 27 V
11 152 V
11 -110 V
12 53 V
11 152 V
11 -15 V
12 -183 V
11 23 V
12 54 V
11 114 V
11 -65 V
12 -4 V
11 -76 V
11 42 V
12 42 V
11 0 V
11 -12 V
12 141 V
11 -49 V
11 -84 V
12 163 V
11 -277 V
11 137 V
12 11 V
11 31 V
11 95 V
12 -92 V
11 4 V
12 -205 V
11 129 V
11 205 V
12 0 V
11 -186 V
11 -106 V
12 83 V
11 -22 V
11 155 V
12 65 V
11 -179 V
11 -57 V
12 92 V
11 106 V
11 -122 V
12 152 V
11 -197 V
11 -61 V
12 179 V
11 -54 V
11 -152 V
12 263 V
11 -278 V
12 -106 V
11 41 V
11 65 V
12 -34 V
11 -274 V
11 297 V
12 87 V
11 -45 V
11 -118 V
12 106 V
11 148 V
11 107 V
12 -76 V
11 -65 V
11 12 V
12 102 V
11 -182 V
stroke 6848 5785 M
11 -152 V
12 -38 V
11 11 V
11 137 V
12 4 V
11 49 V
12 -160 V
11 46 V
11 53 V
12 -114 V
11 -64 V
11 167 V
12 -69 V
11 -26 V
11 38 V
12 144 V
11 -87 V
11 -27 V
12 -121 V
11 91 V
11 118 V
12 87 V
11 57 V
11 -167 V
12 144 V
11 57 V
11 -49 V
12 -95 V
11 270 V
12 11 V
11 -266 V
11 -30 V
12 -31 V
11 -3 V
11 -160 V
12 125 V
11 61 V
11 243 V
12 -106 V
11 -8 V
11 -129 V
12 -11 V
11 -118 V
11 175 V
12 -72 V
11 98 V
11 -167 V
12 31 V
11 60 V
11 202 V
12 -555 V
11 384 V
12 -15 V
11 -141 V
11 -53 V
12 125 V
11 -152 V
11 95 V
12 160 V
11 76 V
11 -91 V
12 64 V
11 -83 V
11 129 V
12 -88 V
11 114 V
11 12 V
12 114 V
11 -137 V
11 -8 V
12 -19 V
11 -133 V
11 16 V
12 197 V
11 76 V
12 -239 V
11 7 V
11 -140 V
12 -16 V
11 217 V
11 -26 V
12 -27 V
11 95 V
11 -72 V
12 7 V
11 114 V
11 -110 V
12 72 V
11 57 V
11 27 V
12 65 V
11 -50 V
11 -38 V
12 0 V
11 -72 V
11 122 V
12 -171 V
11 152 V
12 -297 V
11 319 V
11 -133 V
12 69 V
11 -53 V
11 0 V
stroke 8028 5960 M
12 155 V
11 -41 V
11 212 V
12 -117 V
11 -46 V
11 -148 V
12 38 V
11 137 V
11 19 V
12 -80 V
11 -12 V
11 -72 V
12 -197 V
11 -31 V
11 76 V
12 -11 V
11 11 V
12 160 V
11 -23 V
11 198 V
12 -84 V
11 -95 V
11 49 V
12 -239 V
11 -126 V
11 172 V
12 -31 V
11 -7 V
11 41 V
12 80 V
11 -26 V
11 98 V
12 -15 V
11 -125 V
11 -236 V
12 228 V
11 61 V
11 4 V
12 -114 V
11 197 V
12 -26 V
11 -133 V
11 106 V
12 -53 V
11 87 V
11 19 V
12 38 V
11 -205 V
11 122 V
12 -129 V
11 136 V
11 -148 V
12 57 V
11 -91 V
11 217 V
12 -293 V
11 163 V
11 -194 V
12 156 V
11 42 V
11 129 V
12 -167 V
11 42 V
12 -8 V
11 69 V
11 -61 V
12 42 V
11 80 V
11 -255 V
12 87 V
11 38 V
11 -76 V
12 12 V
11 72 V
11 -91 V
12 -42 V
11 182 V
11 35 V
12 -111 V
11 -175 V
11 0 V
12 153 V
11 0 V
11 -8 V
12 -68 V
11 129 V
12 -194 V
11 141 V
11 -61 V
12 11 V
11 42 V
11 49 V
12 183 V
11 -175 V
11 27 V
12 -141 V
11 87 V
11 46 V
12 -95 V
11 42 V
11 -76 V
12 11 V
11 -42 V
11 57 V
stroke 9208 5811 M
12 -3 V
11 163 V
12 -76 V
11 -27 V
11 46 V
12 -171 V
11 114 V
11 11 V
12 -121 V
11 61 V
11 -164 V
12 243 V
11 -159 V
11 163 V
12 -232 V
11 -53 V
11 183 V
12 -191 V
11 202 V
11 11 V
12 -7 V
11 -95 V
11 0 V
12 34 V
11 34 V
12 80 V
11 -255 V
11 297 V
12 -8 V
11 171 V
11 -175 V
12 156 V
11 -118 V
11 -41 V
12 -149 V
11 111 V
11 49 V
12 57 V
11 11 V
11 -182 V
12 19 V
11 171 V
11 -27 V
12 95 V
11 -133 V
11 -98 V
12 140 V
11 -76 V
12 72 V
11 -129 V
11 61 V
12 76 V
11 -156 V
11 129 V
12 -95 V
11 187 V
11 -183 V
12 -95 V
11 179 V
11 91 V
12 -122 V
11 -68 V
11 -30 V
12 60 V
11 114 V
11 0 V
12 -209 V
11 365 V
11 -475 V
12 152 V
11 -38 V
12 179 V
11 -232 V
11 19 V
12 205 V
11 -4 V
11 -235 V
12 106 V
11 -129 V
11 236 V
12 -133 V
11 15 V
11 -46 V
12 -114 V
11 87 V
11 -38 V
12 -11 V
11 -49 V
11 -27 V
12 57 V
11 4 V
11 7 V
12 191 V
11 22 V
12 -57 V
11 80 V
11 -102 V
12 60 V
11 -49 V
11 68 V
12 -121 V
11 159 V
11 -289 V
12 164 V
stroke 10389 5781 M
11 152 V
11 -91 V
12 133 V
11 -110 V
11 -84 V
12 118 V
11 -114 V
11 152 V
12 -84 V
11 122 V
11 -228 V
12 -8 V
11 61 V
12 19 V
11 -319 V
11 330 V
12 -201 V
11 114 V
11 -91 V
12 159 V
11 114 V
11 -110 V
12 -91 V
11 -110 V
11 205 V
12 152 V
11 -118 V
11 114 V
12 91 V
11 -19 V
11 -7 V
12 -65 V
11 -87 V
11 281 V
12 -137 V
11 -7 V
12 -133 V
11 -160 V
11 -80 V
12 175 V
11 -95 V
11 68 V
12 8 V
11 125 V
11 -91 V
12 12 V
11 -73 V
11 -68 V
12 -4 V
11 266 V
11 -148 V
12 -179 V
11 103 V
11 34 V
12 -23 V
11 -91 V
11 30 V
12 77 V
11 -111 V
12 160 V
11 -270 V
11 129 V
12 92 V
11 -141 V
11 -76 V
12 -42 V
11 194 V
11 -57 V
12 95 V
11 -95 V
11 -107 V
12 168 V
11 -149 V
11 107 V
12 -27 V
11 -34 V
11 -99 V
12 31 V
11 41 V
11 54 V
12 -50 V
11 61 V
12 57 V
11 -38 V
11 -87 V
12 -35 V
11 175 V
11 -26 V
12 -99 V
11 239 V
11 -91 V
12 -384 V
11 411 V
11 -84 V
12 -38 V
11 141 V
11 -156 V
12 -84 V
11 209 V
11 -53 V
12 -129 V
11 118 V
11 144 V
12 -49 V
stroke 11569 5785 M
11 -145 V
12 95 V
11 -114 V
11 130 V
12 91 V
11 -4 V
11 -38 V
12 308 V
11 -327 V
11 -46 V
12 175 V
11 19 V
11 -53 V
12 -46 V
11 -98 V
11 45 V
12 228 V
11 19 V
11 -292 V
12 3 V
11 8 V
11 148 V
12 -182 V
11 -69 V
12 202 V
11 -80 V
11 -19 V
12 -34 V
11 -8 V
11 -91 V
12 137 V
11 23 V
11 30 V
12 27 V
11 -153 V
11 -45 V
12 19 V
11 23 V
11 26 V
12 -277 V
11 327 V
11 -160 V
12 11 V
11 -53 V
12 228 V
11 -61 V
11 -121 V
12 144 V
11 -121 V
11 -57 V
12 311 V
11 38 V
11 -53 V
12 50 V
11 79 V
11 -193 V
12 285 V
11 -217 V
11 281 V
12 12 V
11 -225 V
11 0 V
12 -87 V
11 -80 V
11 31 V
12 -23 V
11 4 V
12 7 V
11 -129 V
11 148 V
12 -38 V
11 -95 V
11 198 V
12 57 V
11 -65 V
11 -121 V
12 60 V
11 -76 V
11 103 V
12 -126 V
11 -72 V
11 0 V
12 99 V
11 -38 V
11 30 V
12 -72 V
11 202 V
11 57 V
12 -80 V
11 46 V
12 -137 V
11 83 V
11 16 V
12 64 V
11 -194 V
11 95 V
12 198 V
11 -72 V
11 -19 V
12 -152 V
11 -73 V
11 160 V
12 -53 V
11 -27 V
stroke 12749 5754 M
11 -91 V
12 255 V
11 72 V
11 -122 V
12 -136 V
11 83 V
11 107 V
12 171 V
11 -111 V
12 -296 V
11 175 V
11 -164 V
12 84 V
11 53 V
11 -163 V
12 64 V
11 133 V
11 -144 V
12 114 V
11 -11 V
11 -4 V
12 -61 V
11 87 V
11 -98 V
12 117 V
11 -91 V
11 88 V
12 19 V
11 -172 V
11 156 V
12 -140 V
11 11 V
12 46 V
11 -12 V
11 -144 V
12 334 V
11 -212 V
11 57 V
12 30 V
11 -61 V
11 -26 V
12 0 V
11 152 V
11 -69 V
12 194 V
11 -72 V
11 -209 V
12 167 V
11 95 V
11 -148 V
12 -69 V
11 54 V
11 106 V
12 -190 V
11 -69 V
12 -205 V
11 205 V
11 46 V
12 19 V
11 -137 V
11 255 V
12 -99 V
11 133 V
11 255 V
12 -186 V
11 -88 V
% End plot #1
% Begin plot #2
stroke
LTb
1.00 0.00 0.00 C LCb setrgbcolor
9598 7657 M
[ [(Symbol-Oblique) 500.0 0.0 true true 0 (e)]
[(Helvetica) 400.0 -150.0 true true 0 (hh)]
[(Helvetica) 500.0 0.0 true true 0 (/k)]
[(Helvetica) 400.0 -150.0 true true 0 (B)]
[(Helvetica) 500.0 0.0 true true 0 (T = 1.5)]
] -116.7 MLshow
6.000 UL
LTb
1.00 0.00 0.00 C 8635 7657 M
663 0 V
2150 4842 M
11 38 V
12 137 V
11 -175 V
11 19 V
12 107 V
11 -61 V
11 -130 V
12 -26 V
11 80 V
11 30 V
12 -205 V
11 68 V
12 -38 V
11 19 V
11 -23 V
12 -133 V
11 213 V
11 -53 V
12 -57 V
11 -61 V
11 42 V
12 57 V
11 -8 V
11 95 V
12 -300 V
11 145 V
11 -145 V
12 -4 V
11 -22 V
11 87 V
12 103 V
11 22 V
11 4 V
12 107 V
11 61 V
12 110 V
11 -145 V
11 -38 V
12 31 V
11 45 V
11 -224 V
12 -255 V
11 202 V
11 -228 V
12 197 V
11 122 V
11 -129 V
12 190 V
11 26 V
11 -26 V
12 80 V
11 -225 V
11 -22 V
12 171 V
11 -99 V
11 15 V
12 232 V
11 57 V
12 -498 V
11 258 V
11 -148 V
12 19 V
11 -42 V
11 16 V
12 76 V
11 -27 V
11 -118 V
12 -99 V
11 285 V
11 -53 V
12 -194 V
11 278 V
11 68 V
12 -72 V
11 -15 V
11 -38 V
12 11 V
11 145 V
11 -187 V
12 84 V
11 4 V
12 87 V
11 -110 V
11 11 V
12 31 V
11 -42 V
11 -34 V
12 -34 V
11 152 V
11 -107 V
12 206 V
11 41 V
11 -209 V
12 69 V
11 -57 V
11 38 V
12 167 V
11 -293 V
11 186 V
12 -406 V
11 254 V
11 107 V
stroke 3307 4732 M
12 -72 V
11 -175 V
12 -19 V
11 0 V
11 -27 V
12 285 V
11 -178 V
11 -289 V
12 349 V
11 -41 V
11 38 V
12 -16 V
11 160 V
11 4 V
12 -31 V
11 -186 V
11 23 V
12 350 V
11 -38 V
11 -133 V
12 -194 V
11 167 V
12 -167 V
11 163 V
11 53 V
12 -140 V
11 19 V
11 -50 V
12 54 V
11 186 V
11 -338 V
12 -145 V
11 270 V
11 -103 V
12 111 V
11 -50 V
11 232 V
12 -236 V
11 190 V
11 -440 V
12 182 V
11 106 V
11 -254 V
12 80 V
11 136 V
12 54 V
11 -266 V
11 319 V
12 121 V
11 -136 V
11 26 V
12 -64 V
11 102 V
11 114 V
12 -232 V
11 54 V
11 171 V
12 213 V
11 -270 V
11 57 V
12 -88 V
11 228 V
11 -182 V
12 -65 V
11 -201 V
11 388 V
12 30 V
11 -118 V
12 -114 V
11 -30 V
11 -251 V
12 213 V
11 38 V
11 106 V
12 42 V
11 -186 V
11 0 V
12 205 V
11 -145 V
11 38 V
12 61 V
11 145 V
11 -194 V
12 232 V
11 -8 V
11 -140 V
12 -35 V
11 -167 V
11 247 V
12 53 V
11 -247 V
12 114 V
11 213 V
11 -262 V
12 76 V
11 8 V
11 -19 V
12 121 V
11 91 V
11 -72 V
12 198 V
11 -118 V
11 -209 V
12 76 V
stroke 4488 4903 M
11 -8 V
11 -121 V
12 228 V
11 -42 V
11 -84 V
12 -106 V
11 304 V
11 -316 V
12 411 V
11 -152 V
12 8 V
11 -23 V
11 -107 V
12 -106 V
11 -61 V
11 312 V
12 -171 V
11 72 V
11 -186 V
12 -35 V
11 8 V
11 -65 V
12 46 V
11 266 V
11 -186 V
12 -76 V
11 338 V
11 -232 V
12 -34 V
11 -27 V
11 -95 V
12 95 V
11 149 V
12 -118 V
11 -15 V
11 125 V
12 -277 V
11 190 V
11 4 V
12 -134 V
11 -57 V
11 -91 V
12 175 V
11 -61 V
11 -167 V
12 0 V
11 194 V
11 -23 V
12 304 V
11 -205 V
11 -148 V
12 155 V
11 -30 V
11 -190 V
12 175 V
11 68 V
12 -95 V
11 130 V
11 -130 V
12 31 V
11 -35 V
11 -95 V
12 -15 V
11 72 V
11 -26 V
12 144 V
11 12 V
11 64 V
12 -175 V
11 -121 V
11 167 V
12 38 V
11 -49 V
11 95 V
12 -76 V
11 190 V
11 -118 V
12 118 V
11 -187 V
12 99 V
11 -30 V
11 -50 V
12 -79 V
11 0 V
11 110 V
12 99 V
11 -76 V
11 -114 V
12 87 V
11 -65 V
11 95 V
12 -7 V
11 -76 V
11 68 V
12 -171 V
11 126 V
11 -76 V
12 -65 V
11 194 V
11 -183 V
12 133 V
11 -247 V
12 251 V
11 -148 V
stroke 5668 4595 M
11 -133 V
12 209 V
11 -137 V
11 205 V
12 -68 V
11 -53 V
11 106 V
12 160 V
11 -156 V
11 -8 V
12 35 V
11 -92 V
11 -11 V
12 -65 V
11 42 V
11 -118 V
12 297 V
11 -19 V
11 -411 V
12 92 V
11 7 V
12 4 V
11 156 V
11 -99 V
12 68 V
11 19 V
11 -30 V
12 61 V
11 83 V
11 -64 V
12 -84 V
11 164 V
11 -190 V
12 148 V
11 129 V
11 15 V
12 -338 V
11 -68 V
11 216 V
12 -106 V
11 26 V
11 16 V
12 -8 V
11 -57 V
12 8 V
11 201 V
11 145 V
12 -134 V
11 80 V
11 -121 V
12 15 V
11 11 V
11 285 V
12 -232 V
11 -79 V
11 213 V
12 -145 V
11 -76 V
11 87 V
12 -15 V
11 -45 V
11 68 V
12 -129 V
11 129 V
12 221 V
11 -213 V
11 156 V
12 -175 V
11 3 V
11 -7 V
12 65 V
11 -210 V
11 -49 V
12 -61 V
11 346 V
11 -57 V
12 -27 V
11 -49 V
11 167 V
12 -433 V
11 217 V
11 49 V
12 88 V
11 -27 V
11 -84 V
12 42 V
11 -42 V
12 145 V
11 -160 V
11 221 V
12 129 V
11 -274 V
11 -99 V
12 190 V
11 -80 V
11 -87 V
12 205 V
11 -64 V
11 7 V
12 -95 V
11 -38 V
11 50 V
12 -73 V
11 -26 V
stroke 6848 4675 M
11 -27 V
12 141 V
11 -228 V
11 281 V
12 80 V
11 -133 V
12 -107 V
11 -53 V
11 -57 V
12 -42 V
11 50 V
11 -12 V
12 -76 V
11 69 V
11 49 V
12 46 V
11 -34 V
11 186 V
12 -34 V
11 -289 V
11 -103 V
12 354 V
11 -107 V
11 -11 V
12 -202 V
11 289 V
11 -49 V
12 -31 V
11 -57 V
12 213 V
11 -285 V
11 202 V
12 22 V
11 84 V
11 -274 V
12 149 V
11 -156 V
11 30 V
12 91 V
11 80 V
11 -125 V
12 239 V
11 -171 V
11 -118 V
12 84 V
11 53 V
11 -4 V
12 168 V
11 -99 V
11 4 V
12 -27 V
11 42 V
12 -38 V
11 -118 V
11 76 V
12 -15 V
11 156 V
11 -88 V
12 42 V
11 -228 V
11 -133 V
12 255 V
11 11 V
11 8 V
12 144 V
11 -365 V
11 228 V
12 46 V
11 -107 V
11 -83 V
12 114 V
11 23 V
11 -73 V
12 251 V
11 -163 V
12 228 V
11 -217 V
11 99 V
12 -141 V
11 -30 V
11 8 V
12 83 V
11 -42 V
11 84 V
12 31 V
11 3 V
11 -72 V
12 -30 V
11 -149 V
11 -68 V
12 91 V
11 251 V
11 -179 V
12 -125 V
11 224 V
11 -163 V
12 23 V
11 194 V
12 -16 V
11 202 V
11 -247 V
12 -175 V
11 125 V
11 255 V
stroke 8028 4960 M
12 -274 V
11 -15 V
11 148 V
12 76 V
11 -140 V
11 228 V
12 -103 V
11 -141 V
11 -7 V
12 -8 V
11 -4 V
11 38 V
12 0 V
11 42 V
11 -114 V
12 -61 V
11 267 V
12 -12 V
11 76 V
11 -140 V
12 -137 V
11 -16 V
11 130 V
12 -133 V
11 -4 V
11 102 V
12 153 V
11 -160 V
11 144 V
12 -49 V
11 -103 V
11 -262 V
12 179 V
11 361 V
11 -122 V
12 -152 V
11 72 V
11 -72 V
12 255 V
11 -99 V
12 -308 V
11 -80 V
11 221 V
12 -57 V
11 235 V
11 -152 V
12 27 V
11 -12 V
11 350 V
12 -304 V
11 46 V
11 -213 V
12 152 V
11 -224 V
11 49 V
12 -148 V
11 159 V
11 -220 V
12 99 V
11 414 V
11 -64 V
12 19 V
11 15 V
12 26 V
11 -330 V
11 144 V
12 -53 V
11 255 V
11 -31 V
12 156 V
11 -34 V
11 -23 V
12 -141 V
11 -30 V
11 53 V
12 -11 V
11 -133 V
11 251 V
12 -179 V
11 -148 V
11 26 V
12 84 V
11 194 V
11 -31 V
12 -304 V
11 388 V
12 -293 V
11 0 V
11 84 V
12 -190 V
11 23 V
11 95 V
12 11 V
11 -156 V
11 103 V
12 64 V
11 39 V
11 -50 V
12 -110 V
11 171 V
11 -72 V
12 38 V
11 110 V
11 -285 V
stroke 9208 4618 M
12 338 V
11 -239 V
12 26 V
11 76 V
11 -42 V
12 84 V
11 38 V
11 -209 V
12 8 V
11 38 V
11 -92 V
12 130 V
11 42 V
11 -35 V
12 -190 V
11 34 V
11 156 V
12 4 V
11 -15 V
11 -80 V
12 186 V
11 -194 V
11 145 V
12 -42 V
11 -137 V
12 38 V
11 107 V
11 -54 V
12 12 V
11 15 V
11 -175 V
12 -91 V
11 46 V
11 304 V
12 -209 V
11 114 V
11 -92 V
12 130 V
11 11 V
11 23 V
12 217 V
11 -267 V
11 187 V
12 -228 V
11 273 V
11 -11 V
12 -179 V
11 175 V
12 27 V
11 -72 V
11 91 V
12 -133 V
11 175 V
11 0 V
12 -92 V
11 -155 V
11 125 V
12 -221 V
11 -34 V
11 255 V
12 -72 V
11 -72 V
11 19 V
12 155 V
11 -171 V
11 -23 V
12 -98 V
11 3 V
11 99 V
12 35 V
11 -73 V
12 126 V
11 -168 V
11 0 V
12 179 V
11 175 V
11 -80 V
12 -163 V
11 -95 V
11 -80 V
12 -152 V
11 353 V
11 4 V
12 27 V
11 -19 V
11 -228 V
12 140 V
11 137 V
11 -232 V
12 137 V
11 23 V
11 80 V
12 -255 V
11 34 V
12 141 V
11 72 V
11 -64 V
12 19 V
11 26 V
11 88 V
12 -46 V
11 -23 V
11 -42 V
12 164 V
stroke 10389 5040 M
11 -217 V
11 -217 V
12 297 V
11 -23 V
11 -179 V
12 179 V
11 61 V
11 -145 V
12 187 V
11 -194 V
11 262 V
12 -216 V
11 -58 V
12 46 V
11 69 V
11 -76 V
12 -107 V
11 15 V
11 -186 V
12 72 V
11 110 V
11 -83 V
12 255 V
11 -160 V
11 -15 V
12 133 V
11 114 V
11 -209 V
12 -19 V
11 49 V
11 137 V
12 -137 V
11 122 V
11 -46 V
12 141 V
11 -4 V
12 -141 V
11 -3 V
11 -23 V
12 15 V
11 -107 V
11 -7 V
12 -88 V
11 99 V
11 168 V
12 3 V
11 -68 V
11 -103 V
12 -45 V
11 30 V
11 148 V
12 -152 V
11 111 V
11 -58 V
12 -171 V
11 255 V
11 -84 V
12 -3 V
11 68 V
12 -53 V
11 -46 V
11 114 V
12 4 V
11 -255 V
11 8 V
12 34 V
11 289 V
11 -68 V
12 -149 V
11 -193 V
11 152 V
12 228 V
11 7 V
11 -243 V
12 76 V
11 -38 V
11 171 V
12 129 V
11 -53 V
11 -296 V
12 -149 V
11 126 V
12 201 V
11 -76 V
11 130 V
12 -115 V
11 -19 V
11 -19 V
12 35 V
11 11 V
11 118 V
12 -57 V
11 -259 V
11 107 V
12 76 V
11 -12 V
11 8 V
12 -42 V
11 0 V
11 65 V
12 160 V
11 -229 V
11 -45 V
12 34 V
stroke 11569 4709 M
11 251 V
12 -255 V
11 339 V
11 -12 V
12 15 V
11 270 V
11 -262 V
12 -148 V
11 -99 V
11 -69 V
12 297 V
11 198 V
11 -141 V
12 91 V
11 -110 V
11 -95 V
12 -49 V
11 15 V
11 -8 V
12 -76 V
11 -144 V
11 26 V
12 76 V
11 187 V
12 -369 V
11 121 V
11 80 V
12 -251 V
11 73 V
11 -61 V
12 266 V
11 114 V
11 -91 V
12 -84 V
11 53 V
11 80 V
12 -152 V
11 -217 V
11 369 V
12 -118 V
11 152 V
11 -68 V
12 -76 V
11 -15 V
12 114 V
11 -57 V
11 -34 V
12 -111 V
11 156 V
11 72 V
12 -167 V
11 69 V
11 -331 V
12 350 V
11 -175 V
11 3 V
12 99 V
11 54 V
11 -221 V
12 -23 V
11 251 V
11 -106 V
12 -152 V
11 148 V
11 -167 V
12 216 V
11 -64 V
12 194 V
11 19 V
11 -213 V
12 -8 V
11 -23 V
11 -83 V
12 110 V
11 -95 V
11 285 V
12 -213 V
11 19 V
11 68 V
12 12 V
11 -148 V
11 125 V
12 38 V
11 -91 V
11 19 V
12 19 V
11 -4 V
11 53 V
12 38 V
11 -15 V
12 -171 V
11 -95 V
11 34 V
12 -23 V
11 -49 V
11 114 V
12 53 V
11 141 V
11 -114 V
12 -137 V
11 -65 V
11 99 V
12 160 V
11 -99 V
stroke 12749 4690 M
11 -27 V
12 -22 V
11 -73 V
11 -87 V
12 152 V
11 99 V
11 45 V
12 65 V
11 -270 V
12 84 V
11 0 V
11 15 V
12 -239 V
11 102 V
11 -64 V
12 -54 V
11 164 V
11 57 V
12 30 V
11 -72 V
11 -42 V
12 186 V
11 -433 V
11 50 V
12 163 V
11 38 V
11 122 V
12 -130 V
11 -19 V
11 -125 V
12 144 V
11 -60 V
12 53 V
11 -12 V
11 -148 V
12 327 V
11 -65 V
11 -19 V
12 -57 V
11 -98 V
11 -42 V
12 -69 V
11 -30 V
11 133 V
12 65 V
11 -145 V
11 -68 V
12 247 V
11 -175 V
11 -68 V
12 102 V
11 76 V
11 53 V
12 84 V
11 -91 V
12 274 V
11 -240 V
11 46 V
12 174 V
11 -3 V
11 -35 V
12 -140 V
11 -8 V
11 122 V
12 0 V
11 61 V
% End plot #2
% Begin plot #3
stroke
LTb
0.00 0.00 0.00 C LCb setrgbcolor
9598 7157 M
[ [(Symbol-Oblique) 500.0 0.0 true true 0 (e)]
[(Helvetica) 400.0 -150.0 true true 0 (hh)]
[(Helvetica) 500.0 0.0 true true 0 (/k)]
[(Helvetica) 400.0 -150.0 true true 0 (B)]
[(Helvetica) 500.0 0.0 true true 0 (T = 1.0)]
] -116.7 MLshow
6.000 UL
LTb
0.00 0.00 0.00 C 8635 7157 M
663 0 V
2150 3250 M
11 -107 V
12 27 V
11 80 V
11 -16 V
12 -60 V
11 220 V
11 156 V
12 -202 V
11 198 V
11 -258 V
12 3 V
11 122 V
12 27 V
11 -92 V
11 -7 V
12 182 V
11 -91 V
11 30 V
12 12 V
11 -88 V
11 42 V
12 -137 V
11 -41 V
11 -80 V
12 205 V
11 -91 V
11 175 V
12 -206 V
11 -159 V
11 7 V
12 103 V
11 213 V
11 -91 V
12 144 V
11 -167 V
12 114 V
11 -4 V
11 8 V
12 -73 V
11 84 V
11 -87 V
12 364 V
11 -258 V
11 15 V
12 -11 V
11 -19 V
11 -46 V
12 -23 V
11 38 V
11 42 V
12 38 V
11 -114 V
11 110 V
12 -41 V
11 41 V
11 12 V
12 -198 V
11 -99 V
12 23 V
11 91 V
11 -163 V
12 8 V
11 152 V
11 -42 V
12 15 V
11 91 V
11 12 V
12 30 V
11 175 V
11 -8 V
12 -57 V
11 80 V
11 -198 V
12 -197 V
11 110 V
11 27 V
12 41 V
11 -45 V
11 -69 V
12 27 V
11 99 V
12 -122 V
11 -26 V
11 -171 V
12 -16 V
11 -159 V
11 194 V
12 -16 V
11 -102 V
11 289 V
12 -31 V
11 8 V
11 -15 V
12 190 V
11 -8 V
11 -72 V
12 99 V
11 144 V
11 -61 V
12 -114 V
11 -72 V
11 -76 V
stroke 3307 3261 M
12 114 V
11 -110 V
12 152 V
11 -186 V
11 -84 V
12 118 V
11 -65 V
11 -95 V
12 46 V
11 171 V
11 118 V
12 -76 V
11 26 V
11 -64 V
12 -27 V
11 160 V
11 -190 V
12 57 V
11 -27 V
11 -15 V
12 15 V
11 133 V
12 -57 V
11 -228 V
11 -163 V
12 79 V
11 27 V
11 217 V
12 -339 V
11 -38 V
11 293 V
12 137 V
11 -175 V
11 217 V
12 -4 V
11 -179 V
11 84 V
12 -4 V
11 -46 V
11 369 V
12 -220 V
11 -76 V
11 -111 V
12 57 V
11 -171 V
12 -110 V
11 122 V
11 -50 V
12 -26 V
11 121 V
11 -38 V
12 -11 V
11 -46 V
11 274 V
12 -236 V
11 -76 V
11 160 V
12 243 V
11 -125 V
11 -148 V
12 148 V
11 -57 V
11 -171 V
12 -31 V
11 152 V
11 -76 V
12 0 V
11 145 V
12 -38 V
11 80 V
11 -145 V
12 31 V
11 76 V
11 -35 V
12 0 V
11 95 V
11 236 V
12 -312 V
11 12 V
11 -99 V
12 99 V
11 224 V
11 -133 V
12 -38 V
11 -182 V
11 87 V
12 -160 V
11 42 V
11 331 V
12 -23 V
11 42 V
12 72 V
11 -91 V
11 -217 V
12 262 V
11 38 V
11 -106 V
12 213 V
11 144 V
11 -391 V
12 194 V
11 -118 V
11 262 V
12 -209 V
stroke 4488 3508 M
11 -80 V
11 194 V
12 -30 V
11 -8 V
11 11 V
12 -133 V
11 -19 V
11 -144 V
12 -15 V
11 99 V
12 163 V
11 -144 V
11 7 V
12 -125 V
11 72 V
11 -8 V
12 57 V
11 -152 V
11 99 V
12 -232 V
11 88 V
11 -69 V
12 16 V
11 98 V
11 61 V
12 -159 V
11 72 V
11 91 V
12 -15 V
11 -110 V
11 -54 V
12 240 V
11 -4 V
12 30 V
11 27 V
11 -84 V
12 -22 V
11 -23 V
11 -103 V
12 -102 V
11 125 V
11 -186 V
12 19 V
11 76 V
11 118 V
12 190 V
11 -221 V
11 186 V
12 -45 V
11 -221 V
11 187 V
12 -46 V
11 122 V
11 -175 V
12 -46 V
11 122 V
12 34 V
11 -152 V
11 42 V
12 -42 V
11 -30 V
11 -103 V
12 61 V
11 -110 V
11 -88 V
12 0 V
11 156 V
11 -11 V
12 95 V
11 -152 V
11 98 V
12 12 V
11 -114 V
11 194 V
12 -76 V
11 159 V
11 -26 V
12 -209 V
11 41 V
12 84 V
11 -53 V
11 -69 V
12 133 V
11 23 V
11 -7 V
12 -38 V
11 49 V
11 228 V
12 -144 V
11 250 V
11 -53 V
12 -148 V
11 148 V
11 -11 V
12 91 V
11 -148 V
11 144 V
12 -182 V
11 239 V
11 -64 V
12 -107 V
11 72 V
12 -186 V
11 69 V
stroke 5668 3402 M
11 -54 V
12 111 V
11 155 V
11 -79 V
12 102 V
11 -159 V
11 38 V
12 -95 V
11 7 V
11 46 V
12 106 V
11 -121 V
11 -152 V
12 -23 V
11 110 V
11 -76 V
12 -133 V
11 133 V
11 122 V
12 -95 V
11 224 V
12 -262 V
11 129 V
11 213 V
12 -145 V
11 -61 V
11 -144 V
12 49 V
11 122 V
11 175 V
12 0 V
11 -53 V
11 -57 V
12 15 V
11 125 V
11 -224 V
12 -87 V
11 -171 V
11 148 V
12 285 V
11 -236 V
11 145 V
12 -130 V
11 57 V
12 -186 V
11 209 V
11 126 V
12 201 V
11 -61 V
11 -262 V
12 -270 V
11 160 V
11 133 V
12 213 V
11 26 V
11 -281 V
12 167 V
11 -368 V
11 53 V
12 -50 V
11 84 V
11 137 V
12 106 V
11 -42 V
12 88 V
11 182 V
11 -156 V
12 0 V
11 8 V
11 -182 V
12 117 V
11 -87 V
11 53 V
12 -61 V
11 65 V
11 -110 V
12 190 V
11 -99 V
11 -194 V
12 251 V
11 -84 V
11 -106 V
12 34 V
11 145 V
11 -206 V
12 31 V
11 -217 V
12 53 V
11 -53 V
11 15 V
12 187 V
11 49 V
11 -72 V
12 -118 V
11 -232 V
11 285 V
12 12 V
11 41 V
11 266 V
12 54 V
11 -244 V
11 -11 V
12 179 V
11 -217 V
stroke 6848 3413 M
11 -87 V
12 -23 V
11 -12 V
11 61 V
12 34 V
11 -11 V
12 -19 V
11 114 V
11 -106 V
12 -149 V
11 168 V
11 -171 V
12 19 V
11 281 V
11 -354 V
12 61 V
11 -76 V
11 137 V
12 -68 V
11 19 V
11 -38 V
12 53 V
11 -278 V
11 46 V
12 46 V
11 205 V
11 110 V
12 118 V
11 -145 V
12 -201 V
11 46 V
11 -114 V
12 15 V
11 273 V
11 42 V
12 -182 V
11 4 V
11 -69 V
12 -95 V
11 167 V
11 8 V
12 11 V
11 -34 V
11 61 V
12 -114 V
11 80 V
11 -95 V
12 15 V
11 141 V
11 -42 V
12 -122 V
11 221 V
12 144 V
11 -251 V
11 -121 V
12 182 V
11 -186 V
11 76 V
12 -114 V
11 186 V
11 27 V
12 -23 V
11 -369 V
11 240 V
12 -19 V
11 79 V
11 -102 V
12 -31 V
11 316 V
11 -186 V
12 342 V
11 -209 V
11 -149 V
12 107 V
11 -80 V
12 -8 V
11 -98 V
11 144 V
12 53 V
11 31 V
11 -141 V
12 27 V
11 -4 V
11 -19 V
12 49 V
11 110 V
11 259 V
12 34 V
11 -243 V
11 -99 V
12 80 V
11 -27 V
11 -45 V
12 292 V
11 -137 V
11 -209 V
12 35 V
11 68 V
12 -27 V
11 130 V
11 -61 V
12 61 V
11 -137 V
11 -164 V
stroke 8028 3177 M
12 122 V
11 65 V
11 7 V
12 297 V
11 -122 V
11 -133 V
12 68 V
11 -79 V
11 -35 V
12 149 V
11 117 V
11 -98 V
12 -19 V
11 -301 V
11 -41 V
12 152 V
11 -73 V
12 187 V
11 -183 V
11 -61 V
12 -76 V
11 137 V
11 -95 V
12 0 V
11 27 V
11 -34 V
12 -95 V
11 68 V
11 106 V
12 171 V
11 84 V
11 -114 V
12 76 V
11 -61 V
11 -76 V
12 278 V
11 -213 V
11 -194 V
12 -163 V
11 197 V
12 -106 V
11 220 V
11 -152 V
12 84 V
11 45 V
11 -3 V
12 26 V
11 -83 V
11 -133 V
12 133 V
11 91 V
11 121 V
12 -235 V
11 19 V
11 -50 V
12 61 V
11 4 V
11 -95 V
12 114 V
11 106 V
11 -91 V
12 84 V
11 87 V
12 31 V
11 -16 V
11 -209 V
12 426 V
11 -353 V
11 -206 V
12 236 V
11 -125 V
11 3 V
12 221 V
11 -61 V
11 -46 V
12 -34 V
11 -137 V
11 149 V
12 -19 V
11 19 V
11 30 V
12 -68 V
11 -236 V
11 -152 V
12 160 V
11 76 V
12 -65 V
11 258 V
11 -243 V
12 -11 V
11 -34 V
11 273 V
12 -213 V
11 -45 V
11 -53 V
12 133 V
11 95 V
11 -190 V
12 197 V
11 42 V
11 -152 V
12 34 V
11 232 V
11 -72 V
stroke 9208 3341 M
12 -61 V
11 -182 V
12 91 V
11 80 V
11 34 V
12 83 V
11 0 V
11 -87 V
12 61 V
11 -42 V
11 11 V
12 -98 V
11 133 V
11 -209 V
12 91 V
11 45 V
11 -83 V
12 -69 V
11 -7 V
11 34 V
12 -163 V
11 171 V
11 41 V
12 -57 V
11 19 V
12 -49 V
11 -84 V
11 434 V
12 -217 V
11 4 V
11 4 V
12 -54 V
11 -136 V
11 216 V
12 -11 V
11 -46 V
11 -110 V
12 -190 V
11 49 V
11 92 V
12 110 V
11 -171 V
11 102 V
12 50 V
11 -183 V
11 164 V
12 42 V
11 -99 V
12 26 V
11 -251 V
11 156 V
12 -68 V
11 -19 V
11 103 V
12 -103 V
11 118 V
11 11 V
12 -53 V
11 76 V
11 19 V
12 -202 V
11 164 V
11 42 V
12 148 V
11 -11 V
11 57 V
12 152 V
11 45 V
11 -133 V
12 -83 V
11 -54 V
12 61 V
11 15 V
11 -34 V
12 -11 V
11 -133 V
11 114 V
12 -46 V
11 -140 V
11 106 V
12 -133 V
11 308 V
11 -76 V
12 53 V
11 57 V
11 -110 V
12 -31 V
11 103 V
11 -65 V
12 76 V
11 4 V
11 -376 V
12 23 V
11 -122 V
12 141 V
11 99 V
11 -187 V
12 289 V
11 -133 V
11 179 V
12 -103 V
11 91 V
11 -140 V
12 110 V
stroke 10389 3223 M
11 0 V
11 -53 V
12 11 V
11 -61 V
11 42 V
12 -42 V
11 -49 V
11 -76 V
12 -152 V
11 34 V
11 175 V
12 68 V
11 217 V
12 -110 V
11 -57 V
11 273 V
12 -76 V
11 -129 V
11 53 V
12 31 V
11 -232 V
11 152 V
12 -95 V
11 87 V
11 -98 V
12 -4 V
11 121 V
11 -19 V
12 171 V
11 -216 V
11 118 V
12 0 V
11 -31 V
11 103 V
12 -137 V
11 -91 V
12 262 V
11 -114 V
11 167 V
12 -110 V
11 19 V
11 -220 V
12 0 V
11 167 V
11 53 V
12 -141 V
11 -15 V
11 61 V
12 -84 V
11 23 V
11 183 V
12 -171 V
11 26 V
11 152 V
12 -163 V
11 129 V
11 137 V
12 -19 V
11 -57 V
12 137 V
11 -236 V
11 30 V
12 168 V
11 -194 V
11 72 V
12 65 V
11 -99 V
11 175 V
12 -107 V
11 0 V
11 4 V
12 8 V
11 19 V
11 -80 V
12 -34 V
11 228 V
11 -342 V
12 155 V
11 57 V
11 92 V
12 -198 V
11 -95 V
12 141 V
11 91 V
11 49 V
12 -182 V
11 99 V
11 41 V
12 -178 V
11 80 V
11 -84 V
12 414 V
11 -239 V
11 -129 V
12 182 V
11 -258 V
11 30 V
12 -171 V
11 262 V
11 122 V
12 -91 V
11 45 V
11 -243 V
12 144 V
stroke 11569 3386 M
11 -258 V
12 95 V
11 15 V
11 19 V
12 4 V
11 -34 V
11 -69 V
12 225 V
11 133 V
11 -141 V
12 -182 V
11 -23 V
11 178 V
12 122 V
11 -201 V
11 273 V
12 -26 V
11 -27 V
11 61 V
12 38 V
11 -209 V
11 26 V
12 54 V
11 -57 V
12 64 V
11 15 V
11 -148 V
12 -30 V
11 -8 V
11 34 V
12 -53 V
11 107 V
11 212 V
12 65 V
11 -103 V
11 80 V
12 -11 V
11 -72 V
11 7 V
12 -129 V
11 -4 V
11 198 V
12 -126 V
11 -68 V
12 -34 V
11 38 V
11 -437 V
12 102 V
11 -83 V
11 -73 V
12 160 V
11 145 V
11 -152 V
12 372 V
11 42 V
11 118 V
12 -99 V
11 -110 V
11 -80 V
12 281 V
11 -289 V
11 110 V
12 -15 V
11 -308 V
11 354 V
12 -247 V
11 156 V
12 72 V
11 -19 V
11 -8 V
12 -83 V
11 30 V
11 15 V
12 -110 V
11 -122 V
11 -79 V
12 129 V
11 87 V
11 217 V
12 -194 V
11 118 V
11 -76 V
12 -53 V
11 129 V
11 -27 V
12 57 V
11 -197 V
11 254 V
12 -83 V
11 0 V
12 53 V
11 -88 V
11 -76 V
12 -34 V
11 -72 V
11 -15 V
12 -34 V
11 334 V
11 -346 V
12 -34 V
11 255 V
11 -57 V
12 129 V
11 114 V
stroke 12749 3569 M
11 -160 V
12 19 V
11 198 V
11 -304 V
12 -57 V
11 68 V
11 183 V
12 -217 V
11 91 V
12 31 V
11 -95 V
11 49 V
12 -137 V
11 80 V
11 38 V
12 27 V
11 201 V
11 68 V
12 -364 V
11 -8 V
11 198 V
12 19 V
11 -88 V
11 -114 V
12 27 V
11 72 V
11 -38 V
12 -15 V
11 95 V
11 91 V
12 -194 V
11 118 V
12 -171 V
11 152 V
11 -213 V
12 107 V
11 53 V
11 -46 V
12 -19 V
11 -11 V
11 61 V
12 -27 V
11 34 V
11 -49 V
12 251 V
11 -255 V
11 65 V
12 102 V
11 -42 V
11 175 V
12 -277 V
11 0 V
11 178 V
12 -216 V
11 34 V
12 144 V
11 -19 V
11 54 V
12 -76 V
11 91 V
11 129 V
12 -106 V
11 -259 V
11 129 V
12 -95 V
11 31 V
% End plot #3
% Begin plot #4
stroke
LTb
0.00 0.39 0.00 C LCb setrgbcolor
9598 6657 M
[ [(Symbol-Oblique) 500.0 0.0 true true 0 (e)]
[(Helvetica) 400.0 -150.0 true true 0 (hh)]
[(Helvetica) 500.0 0.0 true true 0 (/k)]
[(Helvetica) 400.0 -150.0 true true 0 (B)]
[(Helvetica) 500.0 0.0 true true 0 (T = 0.5)]
] -116.7 MLshow
6.000 UL
LTb
0.00 0.39 0.00 C 8635 6657 M
663 0 V
2150 1980 M
11 49 V
12 -26 V
11 -91 V
11 311 V
12 -171 V
11 -125 V
11 34 V
12 262 V
11 -83 V
11 -107 V
12 -34 V
11 -27 V
12 175 V
11 -30 V
11 49 V
12 -11 V
11 -34 V
11 42 V
12 -213 V
11 125 V
11 -103 V
12 4 V
11 61 V
11 11 V
12 -95 V
11 92 V
11 -8 V
12 8 V
11 99 V
11 -175 V
12 102 V
11 -19 V
11 65 V
12 61 V
11 38 V
12 -107 V
11 19 V
11 76 V
12 35 V
11 -126 V
11 -68 V
12 87 V
11 -129 V
11 -88 V
12 225 V
11 11 V
11 95 V
12 -125 V
11 45 V
11 -102 V
12 -8 V
11 -23 V
11 141 V
12 -156 V
11 23 V
11 23 V
12 -31 V
11 69 V
12 110 V
11 -8 V
11 114 V
12 8 V
11 -118 V
11 69 V
12 91 V
11 15 V
11 -289 V
12 38 V
11 186 V
11 31 V
12 -27 V
11 -87 V
11 152 V
12 -15 V
11 -84 V
11 95 V
12 -148 V
11 137 V
11 91 V
12 -198 V
11 76 V
12 137 V
11 -15 V
11 30 V
12 -11 V
11 30 V
11 -163 V
12 80 V
11 -57 V
11 -23 V
12 76 V
11 148 V
11 15 V
12 -110 V
11 -114 V
11 19 V
12 -4 V
11 69 V
11 -152 V
12 30 V
11 -72 V
11 23 V
stroke 3307 2277 M
12 -65 V
11 110 V
12 -4 V
11 240 V
11 -198 V
12 -7 V
11 190 V
11 -255 V
12 -4 V
11 221 V
11 -209 V
12 34 V
11 30 V
11 8 V
12 -103 V
11 179 V
11 -156 V
12 -46 V
11 114 V
11 38 V
12 23 V
11 -19 V
12 -19 V
11 -91 V
11 -179 V
12 50 V
11 15 V
11 -65 V
12 160 V
11 -72 V
11 34 V
12 76 V
11 -259 V
11 244 V
12 -118 V
11 -4 V
11 -53 V
12 160 V
11 -126 V
11 -19 V
12 -57 V
11 53 V
11 -34 V
12 103 V
11 45 V
12 -19 V
11 4 V
11 91 V
12 -136 V
11 117 V
11 -95 V
12 -49 V
11 167 V
11 -87 V
12 -152 V
11 -35 V
11 58 V
12 53 V
11 -38 V
11 159 V
12 -140 V
11 262 V
11 -103 V
12 -205 V
11 -7 V
11 0 V
12 53 V
11 -23 V
12 65 V
11 19 V
11 -19 V
12 -12 V
11 -95 V
11 19 V
12 -42 V
11 80 V
11 15 V
12 -49 V
11 34 V
11 -53 V
12 -65 V
11 122 V
11 -49 V
12 193 V
11 -72 V
11 76 V
12 -19 V
11 38 V
11 12 V
12 79 V
11 -186 V
12 72 V
11 -79 V
11 -54 V
12 198 V
11 -15 V
11 -50 V
12 31 V
11 -156 V
11 129 V
12 -57 V
11 -61 V
11 -129 V
12 -34 V
stroke 4488 2003 M
11 99 V
11 -111 V
12 46 V
11 194 V
11 11 V
12 61 V
11 -110 V
11 27 V
12 34 V
11 -8 V
12 122 V
11 -99 V
11 -38 V
12 8 V
11 140 V
11 -49 V
12 49 V
11 -61 V
11 76 V
12 -167 V
11 57 V
11 -19 V
12 -140 V
11 22 V
11 65 V
12 11 V
11 -68 V
11 0 V
12 80 V
11 -148 V
11 136 V
12 80 V
11 -45 V
12 -152 V
11 76 V
11 167 V
12 -46 V
11 -26 V
11 -8 V
12 38 V
11 -118 V
11 -144 V
12 64 V
11 27 V
11 91 V
12 31 V
11 60 V
11 -102 V
12 -4 V
11 -30 V
11 -50 V
12 -49 V
11 34 V
11 -99 V
12 388 V
11 -4 V
12 -87 V
11 -73 V
11 -15 V
12 61 V
11 -194 V
11 -144 V
12 159 V
11 -194 V
11 80 V
12 122 V
11 57 V
11 110 V
12 -19 V
11 -23 V
11 -171 V
12 -61 V
11 35 V
11 171 V
12 -15 V
11 -84 V
11 -11 V
12 95 V
11 22 V
12 -68 V
11 65 V
11 3 V
12 0 V
11 -186 V
11 31 V
12 144 V
11 -34 V
11 0 V
12 -46 V
11 46 V
11 -88 V
12 -91 V
11 99 V
11 125 V
12 -148 V
11 -99 V
11 183 V
12 0 V
11 102 V
11 -95 V
12 -26 V
11 -61 V
12 103 V
11 38 V
stroke 5668 2220 M
11 -191 V
12 -11 V
11 148 V
11 31 V
12 -179 V
11 -106 V
11 148 V
12 80 V
11 -126 V
11 38 V
12 23 V
11 -57 V
11 0 V
12 -8 V
11 46 V
11 -95 V
12 145 V
11 83 V
11 -175 V
12 114 V
11 -99 V
12 -38 V
11 -57 V
11 84 V
12 103 V
11 -137 V
11 99 V
12 152 V
11 182 V
11 -175 V
12 -155 V
11 212 V
11 -186 V
12 76 V
11 388 V
11 -316 V
12 149 V
11 53 V
11 -91 V
12 -282 V
11 111 V
11 76 V
12 -84 V
11 -57 V
12 -137 V
11 -34 V
11 167 V
12 -106 V
11 19 V
11 -12 V
12 84 V
11 -114 V
11 110 V
12 31 V
11 155 V
11 -114 V
12 31 V
11 -107 V
11 179 V
12 -4 V
11 -45 V
11 -107 V
12 152 V
11 53 V
12 -68 V
11 -4 V
11 -114 V
12 -61 V
11 -11 V
11 110 V
12 -42 V
11 84 V
11 -57 V
12 19 V
11 65 V
11 -88 V
12 164 V
11 -107 V
11 -80 V
12 -83 V
11 87 V
11 107 V
12 -50 V
11 95 V
11 -42 V
12 -148 V
11 -179 V
12 19 V
11 115 V
11 -50 V
12 30 V
11 16 V
11 167 V
12 -152 V
11 15 V
11 -65 V
12 111 V
11 76 V
11 -27 V
12 -4 V
11 -68 V
11 205 V
12 -49 V
11 7 V
stroke 6848 2280 M
11 -178 V
12 23 V
11 -115 V
11 61 V
12 -68 V
11 61 V
12 -57 V
11 209 V
11 -107 V
12 -34 V
11 42 V
11 -49 V
12 -77 V
11 80 V
11 12 V
12 15 V
11 0 V
11 190 V
12 8 V
11 -183 V
11 -198 V
12 210 V
11 38 V
11 0 V
12 144 V
11 -148 V
11 -23 V
12 84 V
11 190 V
12 -202 V
11 57 V
11 -110 V
12 -57 V
11 53 V
11 31 V
12 -73 V
11 65 V
11 -148 V
12 -27 V
11 76 V
11 -11 V
12 152 V
11 -80 V
11 -114 V
12 87 V
11 19 V
11 -87 V
12 42 V
11 30 V
11 84 V
12 7 V
11 99 V
12 -106 V
11 -57 V
11 -8 V
12 80 V
11 228 V
11 -42 V
12 -42 V
11 -76 V
11 -87 V
12 -72 V
11 -92 V
11 312 V
12 -106 V
11 -156 V
11 30 V
12 -87 V
11 15 V
11 -76 V
12 129 V
11 -144 V
11 102 V
12 20 V
11 -46 V
12 137 V
11 -152 V
11 -50 V
12 118 V
11 -61 V
11 92 V
12 45 V
11 -103 V
11 46 V
12 95 V
11 61 V
11 -129 V
12 129 V
11 72 V
11 -80 V
12 -102 V
11 83 V
11 -30 V
12 38 V
11 144 V
11 -83 V
12 -186 V
11 -16 V
12 50 V
11 57 V
11 15 V
12 76 V
11 -163 V
11 148 V
stroke 8028 2273 M
12 -129 V
11 -130 V
11 54 V
12 38 V
11 -27 V
11 42 V
12 76 V
11 83 V
11 35 V
12 -38 V
11 -168 V
11 95 V
12 -79 V
11 -187 V
11 103 V
12 99 V
11 19 V
12 -130 V
11 210 V
11 -145 V
12 137 V
11 -209 V
11 61 V
12 7 V
11 103 V
11 -114 V
12 72 V
11 -95 V
11 4 V
12 171 V
11 99 V
11 -65 V
12 -102 V
11 -65 V
11 65 V
12 -88 V
11 -11 V
11 296 V
12 -102 V
11 -4 V
12 -34 V
11 -38 V
11 53 V
12 -145 V
11 111 V
11 41 V
12 103 V
11 -152 V
11 156 V
12 -160 V
11 -114 V
11 72 V
12 152 V
11 -30 V
11 8 V
12 -130 V
11 327 V
11 -258 V
12 -38 V
11 -107 V
11 73 V
12 -4 V
11 42 V
12 -27 V
11 -103 V
11 23 V
12 114 V
11 -42 V
11 0 V
12 12 V
11 114 V
11 -19 V
12 -76 V
11 42 V
11 -73 V
12 -68 V
11 103 V
11 -69 V
12 50 V
11 -38 V
11 -16 V
12 -53 V
11 84 V
11 76 V
12 -282 V
11 -15 V
12 84 V
11 -46 V
11 84 V
12 -91 V
11 79 V
11 16 V
12 49 V
11 69 V
11 64 V
12 12 V
11 -217 V
11 148 V
12 65 V
11 -209 V
11 22 V
12 31 V
11 -34 V
11 -16 V
stroke 9208 2029 M
12 -15 V
11 175 V
12 -160 V
11 -95 V
11 251 V
12 -30 V
11 4 V
11 61 V
12 -54 V
11 -34 V
11 61 V
12 137 V
11 -224 V
11 19 V
12 220 V
11 -49 V
11 -118 V
12 49 V
11 -95 V
11 103 V
12 -38 V
11 53 V
11 -80 V
12 31 V
11 91 V
12 -91 V
11 60 V
11 -22 V
12 76 V
11 -46 V
11 84 V
12 -4 V
11 -107 V
11 -49 V
12 95 V
11 -57 V
11 80 V
12 -95 V
11 4 V
11 -92 V
12 50 V
11 42 V
11 -251 V
12 22 V
11 -26 V
11 201 V
12 -68 V
11 19 V
12 42 V
11 99 V
11 -217 V
12 -69 V
11 76 V
11 -19 V
12 -79 V
11 19 V
11 99 V
12 60 V
11 69 V
11 -175 V
12 61 V
11 205 V
11 80 V
12 -50 V
11 99 V
11 -64 V
12 -160 V
11 186 V
11 46 V
12 -221 V
11 69 V
12 -50 V
11 133 V
11 -186 V
12 46 V
11 -122 V
11 194 V
12 46 V
11 -107 V
11 -102 V
12 7 V
11 99 V
11 110 V
12 -76 V
11 -243 V
11 34 V
12 31 V
11 3 V
11 -49 V
12 -53 V
11 148 V
11 19 V
12 -34 V
11 -27 V
12 84 V
11 42 V
11 -31 V
12 107 V
11 -31 V
11 -45 V
12 152 V
11 -99 V
11 -114 V
12 -12 V
stroke 10389 2147 M
11 38 V
11 16 V
12 -137 V
11 83 V
11 -156 V
12 54 V
11 152 V
11 -69 V
12 251 V
11 4 V
11 -106 V
12 -118 V
11 -50 V
12 -3 V
11 220 V
11 57 V
12 -103 V
11 42 V
11 126 V
12 -251 V
11 -42 V
11 -49 V
12 64 V
11 0 V
11 -64 V
12 152 V
11 60 V
11 -41 V
12 34 V
11 -167 V
11 117 V
12 -49 V
11 -87 V
11 -65 V
12 103 V
11 53 V
12 114 V
11 -190 V
11 57 V
12 -34 V
11 -95 V
11 41 V
12 73 V
11 72 V
11 91 V
12 -80 V
11 114 V
11 84 V
12 -198 V
11 -26 V
11 -92 V
12 -38 V
11 -95 V
11 57 V
12 -68 V
11 49 V
11 31 V
12 11 V
11 -133 V
12 38 V
11 91 V
11 -159 V
12 79 V
11 -34 V
11 34 V
12 19 V
11 4 V
11 -83 V
12 106 V
11 160 V
11 -190 V
12 213 V
11 -69 V
11 137 V
12 -220 V
11 11 V
11 -69 V
12 183 V
11 -118 V
11 61 V
12 -34 V
11 42 V
12 19 V
11 -84 V
11 114 V
12 46 V
11 -114 V
11 60 V
12 -64 V
11 -88 V
11 99 V
12 19 V
11 12 V
11 140 V
12 -140 V
11 -16 V
11 -11 V
12 -160 V
11 118 V
11 61 V
12 -137 V
11 205 V
11 -22 V
12 15 V
stroke 11569 2235 M
11 -129 V
12 22 V
11 19 V
11 183 V
12 -46 V
11 -15 V
11 -144 V
12 -134 V
11 -64 V
11 247 V
12 -46 V
11 0 V
11 -22 V
12 7 V
11 -26 V
11 -12 V
12 95 V
11 -114 V
11 -23 V
12 80 V
11 -179 V
11 84 V
12 15 V
11 -80 V
12 92 V
11 -19 V
11 -19 V
12 22 V
11 8 V
11 53 V
12 -49 V
11 125 V
11 -11 V
12 -61 V
11 38 V
11 8 V
12 26 V
11 -30 V
11 34 V
12 -64 V
11 68 V
11 72 V
12 12 V
11 -54 V
12 -148 V
11 118 V
11 -106 V
12 -8 V
11 163 V
11 99 V
12 -194 V
11 -106 V
11 156 V
12 11 V
11 -76 V
11 183 V
12 26 V
11 -83 V
11 -84 V
12 76 V
11 -95 V
11 91 V
12 69 V
11 -164 V
11 -42 V
12 198 V
11 133 V
12 -27 V
11 35 V
11 -217 V
12 42 V
11 -160 V
11 69 V
12 95 V
11 106 V
11 -122 V
12 -95 V
11 -26 V
11 26 V
12 -76 V
11 130 V
11 41 V
12 -45 V
11 -232 V
11 152 V
12 -23 V
11 -15 V
11 122 V
12 34 V
11 -50 V
12 -117 V
11 182 V
11 11 V
12 8 V
11 30 V
11 -98 V
12 68 V
11 72 V
11 -11 V
12 -84 V
11 141 V
11 -278 V
12 69 V
11 15 V
stroke 12749 2193 M
11 -87 V
12 41 V
11 -76 V
11 175 V
12 8 V
11 19 V
11 -42 V
12 148 V
11 -175 V
12 84 V
11 224 V
11 -159 V
12 -149 V
11 247 V
11 -247 V
12 160 V
11 76 V
11 -137 V
12 88 V
11 -183 V
11 80 V
12 27 V
11 -145 V
11 -15 V
12 144 V
11 -95 V
11 -49 V
12 125 V
11 50 V
11 -110 V
12 -27 V
11 -106 V
12 49 V
11 129 V
11 -42 V
12 -239 V
11 -4 V
11 -76 V
12 179 V
11 -152 V
11 91 V
12 -27 V
11 122 V
11 -34 V
12 7 V
11 145 V
11 -122 V
12 107 V
11 106 V
11 0 V
12 -4 V
11 23 V
11 -99 V
12 -91 V
11 49 V
12 54 V
11 -194 V
11 4 V
12 49 V
11 23 V
11 -65 V
12 91 V
11 -118 V
11 -53 V
12 228 V
11 92 V
% End plot #4
stroke
2.000 UL
LTb
LCb setrgbcolor
4.000 UL
LTB
LCb setrgbcolor
2150 8470 N
0 -6870 V
11348 0 V
0 6870 V
-11348 0 V
Z stroke
1.000 UP
4.000 UL
LTb
LCb setrgbcolor
stroke
grestore
end
showpage
%%Trailer
%%DocumentFonts: Symbol Helvetica
