%!PS-Adobe-2.0 EPSF-2.0
%%Title: figure-cg-sim.eps
%%Creator: gnuplot 5.0 patchlevel 5
%%CreationDate: Wed Jan 10 09:05:20 2018
%%DocumentFonts: (atend)
%%BoundingBox: 50 50 626 1108
%%EndComments
%%BeginProlog
/gnudict 256 dict def
gnudict begin
%
% The following true/false flags may be edited by hand if desired.
% The unit line width and grayscale image gamma correction may also be changed.
%
/Color true def
/Blacktext false def
/Solid false def
/Dashlength 1 def
/Landscape false def
/Level1 false def
/Level3 false def
/Rounded false def
/ClipToBoundingBox false def
/SuppressPDFMark false def
/TransparentPatterns false def
/gnulinewidth 5.000 def
/userlinewidth gnulinewidth def
/Gamma 1.0 def
/BackgroundColor {-1.000 -1.000 -1.000} def
%
/vshift -200 def
/dl1 {
  10.0 Dashlength userlinewidth gnulinewidth div mul mul mul
  Rounded { currentlinewidth 0.75 mul sub dup 0 le { pop 0.01 } if } if
} def
/dl2 {
  10.0 Dashlength userlinewidth gnulinewidth div mul mul mul
  Rounded { currentlinewidth 0.75 mul add } if
} def
/hpt_ 31.5 def
/vpt_ 31.5 def
/hpt hpt_ def
/vpt vpt_ def
/doclip {
  ClipToBoundingBox {
    newpath 50 50 moveto 626 50 lineto 626 1108 lineto 50 1108 lineto closepath
    clip
  } if
} def
%
% Gnuplot Prolog Version 5.1 (Oct 2015)
%
%/SuppressPDFMark true def
%
/M {moveto} bind def
/L {lineto} bind def
/R {rmoveto} bind def
/V {rlineto} bind def
/N {newpath moveto} bind def
/Z {closepath} bind def
/C {setrgbcolor} bind def
/f {rlineto fill} bind def
/g {setgray} bind def
/Gshow {show} def   % May be redefined later in the file to support UTF-8
/vpt2 vpt 2 mul def
/hpt2 hpt 2 mul def
/Lshow {currentpoint stroke M 0 vshift R 
	Blacktext {gsave 0 setgray textshow grestore} {textshow} ifelse} def
/Rshow {currentpoint stroke M dup stringwidth pop neg vshift R
	Blacktext {gsave 0 setgray textshow grestore} {textshow} ifelse} def
/Cshow {currentpoint stroke M dup stringwidth pop -2 div vshift R 
	Blacktext {gsave 0 setgray textshow grestore} {textshow} ifelse} def
/UP {dup vpt_ mul /vpt exch def hpt_ mul /hpt exch def
  /hpt2 hpt 2 mul def /vpt2 vpt 2 mul def} def
/DL {Color {setrgbcolor Solid {pop []} if 0 setdash}
 {pop pop pop 0 setgray Solid {pop []} if 0 setdash} ifelse} def
/BL {stroke userlinewidth 2 mul setlinewidth
	Rounded {1 setlinejoin 1 setlinecap} if} def
/AL {stroke userlinewidth 2 div setlinewidth
	Rounded {1 setlinejoin 1 setlinecap} if} def
/UL {dup gnulinewidth mul /userlinewidth exch def
	dup 1 lt {pop 1} if 10 mul /udl exch def} def
/PL {stroke userlinewidth setlinewidth
	Rounded {1 setlinejoin 1 setlinecap} if} def
3.8 setmiterlimit
% Classic Line colors (version 5.0)
/LCw {1 1 1} def
/LCb {0 0 0} def
/LCa {0 0 0} def
/LC0 {1 0 0} def
/LC1 {0 1 0} def
/LC2 {0 0 1} def
/LC3 {1 0 1} def
/LC4 {0 1 1} def
/LC5 {1 1 0} def
/LC6 {0 0 0} def
/LC7 {1 0.3 0} def
/LC8 {0.5 0.5 0.5} def
% Default dash patterns (version 5.0)
/LTB {BL [] LCb DL} def
/LTw {PL [] 1 setgray} def
/LTb {PL [] LCb DL} def
/LTa {AL [1 udl mul 2 udl mul] 0 setdash LCa setrgbcolor} def
/LT0 {PL [] LC0 DL} def
/LT1 {PL [2 dl1 3 dl2] LC1 DL} def
/LT2 {PL [1 dl1 1.5 dl2] LC2 DL} def
/LT3 {PL [6 dl1 2 dl2 1 dl1 2 dl2] LC3 DL} def
/LT4 {PL [1 dl1 2 dl2 6 dl1 2 dl2 1 dl1 2 dl2] LC4 DL} def
/LT5 {PL [4 dl1 2 dl2] LC5 DL} def
/LT6 {PL [1.5 dl1 1.5 dl2 1.5 dl1 1.5 dl2 1.5 dl1 6 dl2] LC6 DL} def
/LT7 {PL [3 dl1 3 dl2 1 dl1 3 dl2] LC7 DL} def
/LT8 {PL [2 dl1 2 dl2 2 dl1 6 dl2] LC8 DL} def
/SL {[] 0 setdash} def
/Pnt {stroke [] 0 setdash gsave 1 setlinecap M 0 0 V stroke grestore} def
/Dia {stroke [] 0 setdash 2 copy vpt add M
  hpt neg vpt neg V hpt vpt neg V
  hpt vpt V hpt neg vpt V closepath stroke
  Pnt} def
/Pls {stroke [] 0 setdash vpt sub M 0 vpt2 V
  currentpoint stroke M
  hpt neg vpt neg R hpt2 0 V stroke
 } def
/Box {stroke [] 0 setdash 2 copy exch hpt sub exch vpt add M
  0 vpt2 neg V hpt2 0 V 0 vpt2 V
  hpt2 neg 0 V closepath stroke
  Pnt} def
/Crs {stroke [] 0 setdash exch hpt sub exch vpt add M
  hpt2 vpt2 neg V currentpoint stroke M
  hpt2 neg 0 R hpt2 vpt2 V stroke} def
/TriU {stroke [] 0 setdash 2 copy vpt 1.12 mul add M
  hpt neg vpt -1.62 mul V
  hpt 2 mul 0 V
  hpt neg vpt 1.62 mul V closepath stroke
  Pnt} def
/Star {2 copy Pls Crs} def
/BoxF {stroke [] 0 setdash exch hpt sub exch vpt add M
  0 vpt2 neg V hpt2 0 V 0 vpt2 V
  hpt2 neg 0 V closepath fill} def
/TriUF {stroke [] 0 setdash vpt 1.12 mul add M
  hpt neg vpt -1.62 mul V
  hpt 2 mul 0 V
  hpt neg vpt 1.62 mul V closepath fill} def
/TriD {stroke [] 0 setdash 2 copy vpt 1.12 mul sub M
  hpt neg vpt 1.62 mul V
  hpt 2 mul 0 V
  hpt neg vpt -1.62 mul V closepath stroke
  Pnt} def
/TriDF {stroke [] 0 setdash vpt 1.12 mul sub M
  hpt neg vpt 1.62 mul V
  hpt 2 mul 0 V
  hpt neg vpt -1.62 mul V closepath fill} def
/DiaF {stroke [] 0 setdash vpt add M
  hpt neg vpt neg V hpt vpt neg V
  hpt vpt V hpt neg vpt V closepath fill} def
/Pent {stroke [] 0 setdash 2 copy gsave
  translate 0 hpt M 4 {72 rotate 0 hpt L} repeat
  closepath stroke grestore Pnt} def
/PentF {stroke [] 0 setdash gsave
  translate 0 hpt M 4 {72 rotate 0 hpt L} repeat
  closepath fill grestore} def
/Circle {stroke [] 0 setdash 2 copy
  hpt 0 360 arc stroke Pnt} def
/CircleF {stroke [] 0 setdash hpt 0 360 arc fill} def
/C0 {BL [] 0 setdash 2 copy moveto vpt 90 450 arc} bind def
/C1 {BL [] 0 setdash 2 copy moveto
	2 copy vpt 0 90 arc closepath fill
	vpt 0 360 arc closepath} bind def
/C2 {BL [] 0 setdash 2 copy moveto
	2 copy vpt 90 180 arc closepath fill
	vpt 0 360 arc closepath} bind def
/C3 {BL [] 0 setdash 2 copy moveto
	2 copy vpt 0 180 arc closepath fill
	vpt 0 360 arc closepath} bind def
/C4 {BL [] 0 setdash 2 copy moveto
	2 copy vpt 180 270 arc closepath fill
	vpt 0 360 arc closepath} bind def
/C5 {BL [] 0 setdash 2 copy moveto
	2 copy vpt 0 90 arc
	2 copy moveto
	2 copy vpt 180 270 arc closepath fill
	vpt 0 360 arc} bind def
/C6 {BL [] 0 setdash 2 copy moveto
	2 copy vpt 90 270 arc closepath fill
	vpt 0 360 arc closepath} bind def
/C7 {BL [] 0 setdash 2 copy moveto
	2 copy vpt 0 270 arc closepath fill
	vpt 0 360 arc closepath} bind def
/C8 {BL [] 0 setdash 2 copy moveto
	2 copy vpt 270 360 arc closepath fill
	vpt 0 360 arc closepath} bind def
/C9 {BL [] 0 setdash 2 copy moveto
	2 copy vpt 270 450 arc closepath fill
	vpt 0 360 arc closepath} bind def
/C10 {BL [] 0 setdash 2 copy 2 copy moveto vpt 270 360 arc closepath fill
	2 copy moveto
	2 copy vpt 90 180 arc closepath fill
	vpt 0 360 arc closepath} bind def
/C11 {BL [] 0 setdash 2 copy moveto
	2 copy vpt 0 180 arc closepath fill
	2 copy moveto
	2 copy vpt 270 360 arc closepath fill
	vpt 0 360 arc closepath} bind def
/C12 {BL [] 0 setdash 2 copy moveto
	2 copy vpt 180 360 arc closepath fill
	vpt 0 360 arc closepath} bind def
/C13 {BL [] 0 setdash 2 copy moveto
	2 copy vpt 0 90 arc closepath fill
	2 copy moveto
	2 copy vpt 180 360 arc closepath fill
	vpt 0 360 arc closepath} bind def
/C14 {BL [] 0 setdash 2 copy moveto
	2 copy vpt 90 360 arc closepath fill
	vpt 0 360 arc} bind def
/C15 {BL [] 0 setdash 2 copy vpt 0 360 arc closepath fill
	vpt 0 360 arc closepath} bind def
/Rec {newpath 4 2 roll moveto 1 index 0 rlineto 0 exch rlineto
	neg 0 rlineto closepath} bind def
/Square {dup Rec} bind def
/Bsquare {vpt sub exch vpt sub exch vpt2 Square} bind def
/S0 {BL [] 0 setdash 2 copy moveto 0 vpt rlineto BL Bsquare} bind def
/S1 {BL [] 0 setdash 2 copy vpt Square fill Bsquare} bind def
/S2 {BL [] 0 setdash 2 copy exch vpt sub exch vpt Square fill Bsquare} bind def
/S3 {BL [] 0 setdash 2 copy exch vpt sub exch vpt2 vpt Rec fill Bsquare} bind def
/S4 {BL [] 0 setdash 2 copy exch vpt sub exch vpt sub vpt Square fill Bsquare} bind def
/S5 {BL [] 0 setdash 2 copy 2 copy vpt Square fill
	exch vpt sub exch vpt sub vpt Square fill Bsquare} bind def
/S6 {BL [] 0 setdash 2 copy exch vpt sub exch vpt sub vpt vpt2 Rec fill Bsquare} bind def
/S7 {BL [] 0 setdash 2 copy exch vpt sub exch vpt sub vpt vpt2 Rec fill
	2 copy vpt Square fill Bsquare} bind def
/S8 {BL [] 0 setdash 2 copy vpt sub vpt Square fill Bsquare} bind def
/S9 {BL [] 0 setdash 2 copy vpt sub vpt vpt2 Rec fill Bsquare} bind def
/S10 {BL [] 0 setdash 2 copy vpt sub vpt Square fill 2 copy exch vpt sub exch vpt Square fill
	Bsquare} bind def
/S11 {BL [] 0 setdash 2 copy vpt sub vpt Square fill 2 copy exch vpt sub exch vpt2 vpt Rec fill
	Bsquare} bind def
/S12 {BL [] 0 setdash 2 copy exch vpt sub exch vpt sub vpt2 vpt Rec fill Bsquare} bind def
/S13 {BL [] 0 setdash 2 copy exch vpt sub exch vpt sub vpt2 vpt Rec fill
	2 copy vpt Square fill Bsquare} bind def
/S14 {BL [] 0 setdash 2 copy exch vpt sub exch vpt sub vpt2 vpt Rec fill
	2 copy exch vpt sub exch vpt Square fill Bsquare} bind def
/S15 {BL [] 0 setdash 2 copy Bsquare fill Bsquare} bind def
/D0 {gsave translate 45 rotate 0 0 S0 stroke grestore} bind def
/D1 {gsave translate 45 rotate 0 0 S1 stroke grestore} bind def
/D2 {gsave translate 45 rotate 0 0 S2 stroke grestore} bind def
/D3 {gsave translate 45 rotate 0 0 S3 stroke grestore} bind def
/D4 {gsave translate 45 rotate 0 0 S4 stroke grestore} bind def
/D5 {gsave translate 45 rotate 0 0 S5 stroke grestore} bind def
/D6 {gsave translate 45 rotate 0 0 S6 stroke grestore} bind def
/D7 {gsave translate 45 rotate 0 0 S7 stroke grestore} bind def
/D8 {gsave translate 45 rotate 0 0 S8 stroke grestore} bind def
/D9 {gsave translate 45 rotate 0 0 S9 stroke grestore} bind def
/D10 {gsave translate 45 rotate 0 0 S10 stroke grestore} bind def
/D11 {gsave translate 45 rotate 0 0 S11 stroke grestore} bind def
/D12 {gsave translate 45 rotate 0 0 S12 stroke grestore} bind def
/D13 {gsave translate 45 rotate 0 0 S13 stroke grestore} bind def
/D14 {gsave translate 45 rotate 0 0 S14 stroke grestore} bind def
/D15 {gsave translate 45 rotate 0 0 S15 stroke grestore} bind def
/DiaE {stroke [] 0 setdash vpt add M
  hpt neg vpt neg V hpt vpt neg V
  hpt vpt V hpt neg vpt V closepath stroke} def
/BoxE {stroke [] 0 setdash exch hpt sub exch vpt add M
  0 vpt2 neg V hpt2 0 V 0 vpt2 V
  hpt2 neg 0 V closepath stroke} def
/TriUE {stroke [] 0 setdash vpt 1.12 mul add M
  hpt neg vpt -1.62 mul V
  hpt 2 mul 0 V
  hpt neg vpt 1.62 mul V closepath stroke} def
/TriDE {stroke [] 0 setdash vpt 1.12 mul sub M
  hpt neg vpt 1.62 mul V
  hpt 2 mul 0 V
  hpt neg vpt -1.62 mul V closepath stroke} def
/PentE {stroke [] 0 setdash gsave
  translate 0 hpt M 4 {72 rotate 0 hpt L} repeat
  closepath stroke grestore} def
/CircE {stroke [] 0 setdash 
  hpt 0 360 arc stroke} def
/Opaque {gsave closepath 1 setgray fill grestore 0 setgray closepath} def
/DiaW {stroke [] 0 setdash vpt add M
  hpt neg vpt neg V hpt vpt neg V
  hpt vpt V hpt neg vpt V Opaque stroke} def
/BoxW {stroke [] 0 setdash exch hpt sub exch vpt add M
  0 vpt2 neg V hpt2 0 V 0 vpt2 V
  hpt2 neg 0 V Opaque stroke} def
/TriUW {stroke [] 0 setdash vpt 1.12 mul add M
  hpt neg vpt -1.62 mul V
  hpt 2 mul 0 V
  hpt neg vpt 1.62 mul V Opaque stroke} def
/TriDW {stroke [] 0 setdash vpt 1.12 mul sub M
  hpt neg vpt 1.62 mul V
  hpt 2 mul 0 V
  hpt neg vpt -1.62 mul V Opaque stroke} def
/PentW {stroke [] 0 setdash gsave
  translate 0 hpt M 4 {72 rotate 0 hpt L} repeat
  Opaque stroke grestore} def
/CircW {stroke [] 0 setdash 
  hpt 0 360 arc Opaque stroke} def
/BoxFill {gsave Rec 1 setgray fill grestore} def
/Density {
  /Fillden exch def
  currentrgbcolor
  /ColB exch def /ColG exch def /ColR exch def
  /ColR ColR Fillden mul Fillden sub 1 add def
  /ColG ColG Fillden mul Fillden sub 1 add def
  /ColB ColB Fillden mul Fillden sub 1 add def
  ColR ColG ColB setrgbcolor} def
/BoxColFill {gsave Rec PolyFill} def
/PolyFill {gsave Density fill grestore grestore} def
/h {rlineto rlineto rlineto gsave closepath fill grestore} bind def
%
% PostScript Level 1 Pattern Fill routine for rectangles
% Usage: x y w h s a XX PatternFill
%	x,y = lower left corner of box to be filled
%	w,h = width and height of box
%	  a = angle in degrees between lines and x-axis
%	 XX = 0/1 for no/yes cross-hatch
%
/PatternFill {gsave /PFa [ 9 2 roll ] def
  PFa 0 get PFa 2 get 2 div add PFa 1 get PFa 3 get 2 div add translate
  PFa 2 get -2 div PFa 3 get -2 div PFa 2 get PFa 3 get Rec
  TransparentPatterns {} {gsave 1 setgray fill grestore} ifelse
  clip
  currentlinewidth 0.5 mul setlinewidth
  /PFs PFa 2 get dup mul PFa 3 get dup mul add sqrt def
  0 0 M PFa 5 get rotate PFs -2 div dup translate
  0 1 PFs PFa 4 get div 1 add floor cvi
	{PFa 4 get mul 0 M 0 PFs V} for
  0 PFa 6 get ne {
	0 1 PFs PFa 4 get div 1 add floor cvi
	{PFa 4 get mul 0 2 1 roll M PFs 0 V} for
 } if
  stroke grestore} def
%
/languagelevel where
 {pop languagelevel} {1} ifelse
dup 2 lt
	{/InterpretLevel1 true def
	 /InterpretLevel3 false def}
	{/InterpretLevel1 Level1 def
	 2 gt
	    {/InterpretLevel3 Level3 def}
	    {/InterpretLevel3 false def}
	 ifelse }
 ifelse
%
% PostScript level 2 pattern fill definitions
%
/Level2PatternFill {
/Tile8x8 {/PaintType 2 /PatternType 1 /TilingType 1 /BBox [0 0 8 8] /XStep 8 /YStep 8}
	bind def
/KeepColor {currentrgbcolor [/Pattern /DeviceRGB] setcolorspace} bind def
<< Tile8x8
 /PaintProc {0.5 setlinewidth pop 0 0 M 8 8 L 0 8 M 8 0 L stroke} 
>> matrix makepattern
/Pat1 exch def
<< Tile8x8
 /PaintProc {0.5 setlinewidth pop 0 0 M 8 8 L 0 8 M 8 0 L stroke
	0 4 M 4 8 L 8 4 L 4 0 L 0 4 L stroke}
>> matrix makepattern
/Pat2 exch def
<< Tile8x8
 /PaintProc {0.5 setlinewidth pop 0 0 M 0 8 L
	8 8 L 8 0 L 0 0 L fill}
>> matrix makepattern
/Pat3 exch def
<< Tile8x8
 /PaintProc {0.5 setlinewidth pop -4 8 M 8 -4 L
	0 12 M 12 0 L stroke}
>> matrix makepattern
/Pat4 exch def
<< Tile8x8
 /PaintProc {0.5 setlinewidth pop -4 0 M 8 12 L
	0 -4 M 12 8 L stroke}
>> matrix makepattern
/Pat5 exch def
<< Tile8x8
 /PaintProc {0.5 setlinewidth pop -2 8 M 4 -4 L
	0 12 M 8 -4 L 4 12 M 10 0 L stroke}
>> matrix makepattern
/Pat6 exch def
<< Tile8x8
 /PaintProc {0.5 setlinewidth pop -2 0 M 4 12 L
	0 -4 M 8 12 L 4 -4 M 10 8 L stroke}
>> matrix makepattern
/Pat7 exch def
<< Tile8x8
 /PaintProc {0.5 setlinewidth pop 8 -2 M -4 4 L
	12 0 M -4 8 L 12 4 M 0 10 L stroke}
>> matrix makepattern
/Pat8 exch def
<< Tile8x8
 /PaintProc {0.5 setlinewidth pop 0 -2 M 12 4 L
	-4 0 M 12 8 L -4 4 M 8 10 L stroke}
>> matrix makepattern
/Pat9 exch def
/Pattern1 {PatternBgnd KeepColor Pat1 setpattern} bind def
/Pattern2 {PatternBgnd KeepColor Pat2 setpattern} bind def
/Pattern3 {PatternBgnd KeepColor Pat3 setpattern} bind def
/Pattern4 {PatternBgnd KeepColor Landscape {Pat5} {Pat4} ifelse setpattern} bind def
/Pattern5 {PatternBgnd KeepColor Landscape {Pat4} {Pat5} ifelse setpattern} bind def
/Pattern6 {PatternBgnd KeepColor Landscape {Pat9} {Pat6} ifelse setpattern} bind def
/Pattern7 {PatternBgnd KeepColor Landscape {Pat8} {Pat7} ifelse setpattern} bind def
} def
%
%
%End of PostScript Level 2 code
%
/PatternBgnd {
  TransparentPatterns {} {gsave 1 setgray fill grestore} ifelse
} def
%
% Substitute for Level 2 pattern fill codes with
% grayscale if Level 2 support is not selected.
%
/Level1PatternFill {
/Pattern1 {0.250 Density} bind def
/Pattern2 {0.500 Density} bind def
/Pattern3 {0.750 Density} bind def
/Pattern4 {0.125 Density} bind def
/Pattern5 {0.375 Density} bind def
/Pattern6 {0.625 Density} bind def
/Pattern7 {0.875 Density} bind def
} def
%
% Now test for support of Level 2 code
%
Level1 {Level1PatternFill} {Level2PatternFill} ifelse
%
/Symbol-Oblique /Symbol findfont [1 0 .167 1 0 0] makefont
dup length dict begin {1 index /FID eq {pop pop} {def} ifelse} forall
currentdict end definefont pop
%
/MFshow {
   { dup 5 get 3 ge
     { 5 get 3 eq {gsave} {grestore} ifelse }
     {dup dup 0 get findfont exch 1 get scalefont setfont
     [ currentpoint ] exch dup 2 get 0 exch R dup 5 get 2 ne {dup dup 6
     get exch 4 get {textshow} {stringwidth pop 0 R} ifelse }if dup 5 get 0 eq
     {dup 3 get {2 get neg 0 exch R pop} {pop aload pop M} ifelse} {dup 5
     get 1 eq {dup 2 get exch dup 3 get exch 6 get stringwidth pop -2 div
     dup 0 R} {dup 6 get stringwidth pop -2 div 0 R 6 get
     textshow 2 index {aload pop M neg 3 -1 roll neg R pop pop} {pop pop pop
     pop aload pop M} ifelse }ifelse }ifelse }
     ifelse }
   forall} def
/Gswidth {dup type /stringtype eq {stringwidth} {pop (n) stringwidth} ifelse} def
/MFwidth {0 exch { dup 5 get 3 ge { 5 get 3 eq { 0 } { pop } ifelse }
 {dup 3 get{dup dup 0 get findfont exch 1 get scalefont setfont
     6 get Gswidth pop add} {pop} ifelse} ifelse} forall} def
/MLshow { currentpoint stroke M
  0 exch R
  Blacktext {gsave 0 setgray MFshow grestore} {MFshow} ifelse } bind def
/MRshow { currentpoint stroke M
  exch dup MFwidth neg 3 -1 roll R
  Blacktext {gsave 0 setgray MFshow grestore} {MFshow} ifelse } bind def
/MCshow { currentpoint stroke M
  exch dup MFwidth -2 div 3 -1 roll R
  Blacktext {gsave 0 setgray MFshow grestore} {MFshow} ifelse } bind def
/XYsave    { [( ) 1 2 true false 3 ()] } bind def
/XYrestore { [( ) 1 2 true false 4 ()] } bind def
Level1 SuppressPDFMark or 
{} {
/SDict 10 dict def
systemdict /pdfmark known not {
  userdict /pdfmark systemdict /cleartomark get put
} if
SDict begin [
  /Title (figure-cg-sim.eps)
  /Subject (gnuplot plot)
  /Creator (gnuplot 5.0 patchlevel 5)
  /Author (ndtrung)
%  /Producer (gnuplot)
%  /Keywords ()
  /CreationDate (Wed Jan 10 09:05:20 2018)
  /DOCINFO pdfmark
end
} ifelse
%
% Support for boxed text - Ethan A Merritt May 2005
%
/InitTextBox { userdict /TBy2 3 -1 roll put userdict /TBx2 3 -1 roll put
           userdict /TBy1 3 -1 roll put userdict /TBx1 3 -1 roll put
	   /Boxing true def } def
/ExtendTextBox { Boxing
    { gsave dup false charpath pathbbox
      dup TBy2 gt {userdict /TBy2 3 -1 roll put} {pop} ifelse
      dup TBx2 gt {userdict /TBx2 3 -1 roll put} {pop} ifelse
      dup TBy1 lt {userdict /TBy1 3 -1 roll put} {pop} ifelse
      dup TBx1 lt {userdict /TBx1 3 -1 roll put} {pop} ifelse
      grestore } if } def
/PopTextBox { newpath TBx1 TBxmargin sub TBy1 TBymargin sub M
               TBx1 TBxmargin sub TBy2 TBymargin add L
	       TBx2 TBxmargin add TBy2 TBymargin add L
	       TBx2 TBxmargin add TBy1 TBymargin sub L closepath } def
/DrawTextBox { PopTextBox stroke /Boxing false def} def
/FillTextBox { gsave PopTextBox 1 1 1 setrgbcolor fill grestore /Boxing false def} def
0 0 0 0 InitTextBox
/TBxmargin 20 def
/TBymargin 20 def
/Boxing false def
/textshow { ExtendTextBox Gshow } def
%
% redundant definitions for compatibility with prologue.ps older than 5.0.2
/LTB {BL [] LCb DL} def
/LTb {PL [] LCb DL} def
end
%%EndProlog
%%Page: 1 1
gnudict begin
gsave
doclip
50 50 translate
0.050 0.050 scale
0 setgray
newpath
(Helvetica) findfont 600 scalefont setfont
BackgroundColor 0 lt 3 1 roll 0 lt exch 0 lt or or not {BackgroundColor C 1.000 0 0 11520.00 21168.00 BoxColFill} if
4.000 UL
LTb
LCb setrgbcolor
2580 2520 M
252 0 V
7606 0 R
-252 0 V
stroke
2220 2520 M
[ [(Helvetica) 600.0 0.0 true true 0 ( 0)]
] -200.0 MRshow
4.000 UL
LTb
LCb setrgbcolor
2580 3254 M
126 0 V
7732 0 R
-126 0 V
2580 3988 M
252 0 V
7606 0 R
-252 0 V
stroke
2220 3988 M
[ [(Helvetica) 600.0 0.0 true true 0 ( 20)]
] -200.0 MRshow
4.000 UL
LTb
LCb setrgbcolor
2580 4723 M
126 0 V
7732 0 R
-126 0 V
2580 5457 M
252 0 V
7606 0 R
-252 0 V
stroke
2220 5457 M
[ [(Helvetica) 600.0 0.0 true true 0 ( 40)]
] -200.0 MRshow
4.000 UL
LTb
LCb setrgbcolor
2580 6191 M
126 0 V
7732 0 R
-126 0 V
2580 6925 M
252 0 V
7606 0 R
-252 0 V
stroke
2220 6925 M
[ [(Helvetica) 600.0 0.0 true true 0 ( 60)]
] -200.0 MRshow
4.000 UL
LTb
LCb setrgbcolor
2580 7659 M
126 0 V
7732 0 R
-126 0 V
2580 8394 M
252 0 V
7606 0 R
-252 0 V
stroke
2220 8394 M
[ [(Helvetica) 600.0 0.0 true true 0 ( 80)]
] -200.0 MRshow
4.000 UL
LTb
LCb setrgbcolor
2580 9128 M
126 0 V
7732 0 R
-126 0 V
2580 9862 M
252 0 V
7606 0 R
-252 0 V
stroke
2220 9862 M
[ [(Helvetica) 600.0 0.0 true true 0 ( 100)]
] -200.0 MRshow
4.000 UL
LTb
LCb setrgbcolor
2580 2520 M
0 126 V
0 7216 R
0 -126 V
3366 2520 M
0 252 V
0 7090 R
0 -252 V
stroke
3366 1920 M
[ [(Helvetica) 600.0 0.0 true true 0 (0.3)]
] -200.0 MCshow
4.000 UL
LTb
LCb setrgbcolor
4152 2520 M
0 126 V
0 7216 R
0 -126 V
4937 2520 M
0 252 V
0 7090 R
0 -252 V
stroke
4937 1920 M
[ [(Helvetica) 600.0 0.0 true true 0 (0.4)]
] -200.0 MCshow
4.000 UL
LTb
LCb setrgbcolor
5723 2520 M
0 126 V
0 7216 R
0 -126 V
6509 2520 M
0 252 V
0 7090 R
0 -252 V
stroke
6509 1920 M
[ [(Helvetica) 600.0 0.0 true true 0 (0.5)]
] -200.0 MCshow
4.000 UL
LTb
LCb setrgbcolor
7295 2520 M
0 126 V
0 7216 R
0 -126 V
8081 2520 M
0 252 V
0 7090 R
0 -252 V
stroke
8081 1920 M
[ [(Helvetica) 600.0 0.0 true true 0 (0.6)]
] -200.0 MCshow
4.000 UL
LTb
LCb setrgbcolor
8866 2520 M
0 126 V
0 7216 R
0 -126 V
9652 2520 M
0 252 V
0 7090 R
0 -252 V
stroke
9652 1920 M
[ [(Helvetica) 600.0 0.0 true true 0 (0.7)]
] -200.0 MCshow
4.000 UL
LTb
LCb setrgbcolor
10438 2520 M
0 126 V
0 7216 R
0 -126 V
stroke
LTB
LCb setrgbcolor
2580 9862 N
0 -7342 V
7858 0 V
0 7342 V
-7858 0 V
Z stroke
1.000 UP
4.000 UL
LTb
LCb setrgbcolor
LCb setrgbcolor
480 6191 M
currentpoint gsave translate -270 rotate 0 0 moveto
[ [(Helvetica) 600.0 0.0 true true 0 (Surface coverage, %)]
] -200.0 MCshow
grestore
LTb
LCb setrgbcolor
6509 1020 M
[ [(Symbol-Oblique) 600.0 0.0 true true 0 (f)]
[(Helvetica) 480.0 -180.0 true true 0 (A)]
] -140.0 MCshow
LTb
% Begin plot #1
3.000 UP
6.000 UL
LTb
0.00 0.00 1.00 C LCb setrgbcolor
4203 9549 M
[ [(Symbol-Oblique) 500.0 0.0 true true 0 (e)]
[(Helvetica) 400.0 -150.0 true true 0 (Hh)]
[(Helvetica) 500.0 0.0 true true 0 (/k)]
[(Helvetica) 400.0 -150.0 true true 0 (B)]
[(Helvetica) 500.0 0.0 true true 0 (T = 1.5)]
] -116.7 MLshow
3.000 UP
6.000 UL
LTb
0.00 0.00 1.00 C 3240 9549 M
663 0 V
3366 5839 M
1571 549 V
1572 547 V
1572 348 V
1571 -24 V
3366 5839 Box
4937 6388 Box
6509 6935 Box
8081 7283 Box
9652 7259 Box
3572 9549 Box
% End plot #1
% Begin plot #2
3.000 UP
6.000 UL
LTb
0.00 0.00 1.00 C 3366 5673 M
0 333 V
-62 -333 R
124 0 V
-124 333 R
124 0 V
1509 172 R
0 421 V
-62 -421 R
124 0 V
-124 421 R
124 0 V
1510 161 R
0 350 V
-62 -350 R
124 0 V
-124 350 R
124 0 V
1510 89 R
0 168 V
-62 -168 R
124 0 V
-124 168 R
124 0 V
9652 6967 M
0 584 V
-62 -584 R
124 0 V
-124 584 R
124 0 V
3366 5839 BoxF
4937 6388 BoxF
6509 6935 BoxF
8081 7283 BoxF
9652 7259 BoxF
% End plot #2
% Begin plot #3
2.000 UP
6.000 UL
LTb
1.00 1.00 1.00 C 3366 5839 BoxF
4937 6388 BoxF
6509 6935 BoxF
8081 7283 BoxF
9652 7259 BoxF
% End plot #3
% Begin plot #4
3.000 UP
6.000 UL
LTb
1.00 0.00 0.00 C LCb setrgbcolor
4203 9049 M
[ [(Symbol-Oblique) 500.0 0.0 true true 0 (e)]
[(Helvetica) 400.0 -150.0 true true 0 (Hh)]
[(Helvetica) 500.0 0.0 true true 0 (/k)]
[(Helvetica) 400.0 -150.0 true true 0 (B)]
[(Helvetica) 500.0 0.0 true true 0 (T = 1.2)]
] -116.7 MLshow
3.000 UP
6.000 UL
LTb
1.00 0.00 0.00 C 3240 9049 M
663 0 V
3366 5133 M
1571 604 V
1572 381 V
1572 501 V
9652 5466 L
3366 5133 Circle
4937 5737 Circle
6509 6118 Circle
8081 6619 Circle
9652 5466 Circle
3572 9049 Circle
% End plot #4
% Begin plot #5
3.000 UP
6.000 UL
LTb
1.00 0.00 0.00 C 3366 4887 M
0 492 V
-62 -492 R
124 0 V
-124 492 R
124 0 V
1509 123 R
0 469 V
-62 -469 R
124 0 V
-124 469 R
124 0 V
1510 -25 R
0 343 V
-62 -343 R
124 0 V
-124 343 R
124 0 V
1510 134 R
0 392 V
-62 -392 R
124 0 V
-124 392 R
124 0 V
9652 5171 M
0 591 V
-62 -591 R
124 0 V
-124 591 R
124 0 V
3366 5133 CircleF
4937 5737 CircleF
6509 6118 CircleF
8081 6619 CircleF
9652 5466 CircleF
% End plot #5
% Begin plot #6
2.000 UP
6.000 UL
LTb
1.00 1.00 1.00 C 3366 5133 CircleF
4937 5737 CircleF
6509 6118 CircleF
8081 6619 CircleF
9652 5466 CircleF
% End plot #6
% Begin plot #7
3.000 UP
6.000 UL
LTb
0.00 0.00 0.00 C LCb setrgbcolor
4203 8549 M
[ [(Symbol-Oblique) 500.0 0.0 true true 0 (e)]
[(Helvetica) 400.0 -150.0 true true 0 (Hh)]
[(Helvetica) 500.0 0.0 true true 0 (/k)]
[(Helvetica) 400.0 -150.0 true true 0 (B)]
[(Helvetica) 500.0 0.0 true true 0 (T = 1.0)]
] -116.7 MLshow
3.000 UP
6.000 UL
LTb
0.00 0.00 0.00 C 3240 8549 M
663 0 V
3366 4514 M
1571 716 V
1572 488 V
1572 45 V
9652 4975 L
3366 4514 TriD
4937 5230 TriD
6509 5718 TriD
8081 5763 TriD
9652 4975 TriD
3572 8549 TriD
% End plot #7
% Begin plot #8
3.000 UP
6.000 UL
LTb
0.00 0.00 0.00 C 3366 4317 M
0 394 V
-62 -394 R
124 0 V
-124 394 R
124 0 V
1509 185 R
0 668 V
-62 -668 R
124 0 V
-124 668 R
124 0 V
1510 -65 R
0 438 V
-62 -438 R
124 0 V
-124 438 R
124 0 V
8081 5534 M
0 458 V
-62 -458 R
124 0 V
-124 458 R
124 0 V
9652 4793 M
0 364 V
-62 -364 R
124 0 V
-124 364 R
124 0 V
3366 4514 TriDF
4937 5230 TriDF
6509 5718 TriDF
8081 5763 TriDF
9652 4975 TriDF
% End plot #8
% Begin plot #9
2.000 UP
6.000 UL
LTb
1.00 1.00 1.00 C 3366 4514 TriDF
4937 5230 TriDF
6509 5718 TriDF
8081 5763 TriDF
9652 4975 TriDF
% End plot #9
% Begin plot #10
3.000 UP
6.000 UL
LTb
0.00 0.39 0.00 C LCb setrgbcolor
4203 8049 M
[ [(Symbol-Oblique) 500.0 0.0 true true 0 (e)]
[(Helvetica) 400.0 -150.0 true true 0 (Hh)]
[(Helvetica) 500.0 0.0 true true 0 (/k)]
[(Helvetica) 400.0 -150.0 true true 0 (B)]
[(Helvetica) 500.0 0.0 true true 0 (T = 0.5)]
] -116.7 MLshow
3.000 UP
6.000 UL
LTb
0.00 0.39 0.00 C 3240 8049 M
663 0 V
3366 3612 M
1571 176 V
1572 38 V
1572 129 V
1571 25 V
3366 3612 Dia
4937 3788 Dia
6509 3826 Dia
8081 3955 Dia
9652 3980 Dia
3572 8049 Dia
% End plot #10
% Begin plot #11
3.000 UP
6.000 UL
LTb
0.00 0.39 0.00 C 3366 3391 M
0 442 V
-62 -442 R
124 0 V
-124 442 R
124 0 V
4937 3528 M
0 520 V
-62 -520 R
124 0 V
-124 520 R
124 0 V
6509 3524 M
0 604 V
-62 -604 R
124 0 V
-124 604 R
124 0 V
8081 3763 M
0 383 V
-62 -383 R
124 0 V
-124 383 R
124 0 V
9652 3828 M
0 303 V
-62 -303 R
124 0 V
-124 303 R
124 0 V
3366 3612 DiaF
4937 3788 DiaF
6509 3826 DiaF
8081 3955 DiaF
9652 3980 DiaF
% End plot #11
% Begin plot #12
2.000 UP
6.000 UL
LTb
1.00 1.00 1.00 C 3366 3612 DiaF
4937 3788 DiaF
6509 3826 DiaF
8081 3955 DiaF
9652 3980 DiaF
% End plot #12
2.000 UL
LTb
LCb setrgbcolor
4.000 UL
LTB
LCb setrgbcolor
2580 9862 N
0 -7342 V
7858 0 V
0 7342 V
-7858 0 V
Z stroke
1.000 UP
4.000 UL
LTb
LCb setrgbcolor
4.000 UL
LTb
LCb setrgbcolor
2580 13104 M
252 0 V
7606 0 R
-252 0 V
stroke
2220 13104 M
[ [(Helvetica) 600.0 0.0 true true 0 ( 0)]
] -200.0 MRshow
4.000 UL
LTb
LCb setrgbcolor
2580 13838 M
126 0 V
7732 0 R
-126 0 V
-7732 734 R
252 0 V
7606 0 R
-252 0 V
stroke
2220 14572 M
[ [(Helvetica) 600.0 0.0 true true 0 ( 20)]
] -200.0 MRshow
4.000 UL
LTb
LCb setrgbcolor
2580 15306 M
126 0 V
7732 0 R
-126 0 V
-7732 734 R
252 0 V
7606 0 R
-252 0 V
stroke
2220 16040 M
[ [(Helvetica) 600.0 0.0 true true 0 ( 40)]
] -200.0 MRshow
4.000 UL
LTb
LCb setrgbcolor
2580 16774 M
126 0 V
7732 0 R
-126 0 V
-7732 734 R
252 0 V
7606 0 R
-252 0 V
stroke
2220 17508 M
[ [(Helvetica) 600.0 0.0 true true 0 ( 60)]
] -200.0 MRshow
4.000 UL
LTb
LCb setrgbcolor
2580 18242 M
126 0 V
7732 0 R
-126 0 V
-7732 734 R
252 0 V
7606 0 R
-252 0 V
stroke
2220 18976 M
[ [(Helvetica) 600.0 0.0 true true 0 ( 80)]
] -200.0 MRshow
4.000 UL
LTb
LCb setrgbcolor
2580 19710 M
126 0 V
7732 0 R
-126 0 V
-7732 734 R
252 0 V
7606 0 R
-252 0 V
stroke
2220 20444 M
[ [(Helvetica) 600.0 0.0 true true 0 ( 100)]
] -200.0 MRshow
4.000 UL
LTb
LCb setrgbcolor
2937 13104 M
0 252 V
0 7088 R
0 -252 V
stroke
2937 12504 M
[ [(Helvetica) 600.0 0.0 true true 0 (0.5)]
] -200.0 MCshow
4.000 UL
LTb
LCb setrgbcolor
3830 13104 M
0 126 V
0 7214 R
0 -126 V
893 -7214 R
0 252 V
0 7088 R
0 -252 V
stroke
4723 12504 M
[ [(Helvetica) 600.0 0.0 true true 0 (1.0)]
] -200.0 MCshow
4.000 UL
LTb
LCb setrgbcolor
5616 13104 M
0 126 V
0 7214 R
0 -126 V
893 -7214 R
0 252 V
0 7088 R
0 -252 V
stroke
6509 12504 M
[ [(Helvetica) 600.0 0.0 true true 0 (1.5)]
] -200.0 MCshow
4.000 UL
LTb
LCb setrgbcolor
7402 13104 M
0 126 V
0 7214 R
0 -126 V
893 -7214 R
0 252 V
0 7088 R
0 -252 V
stroke
8295 12504 M
[ [(Helvetica) 600.0 0.0 true true 0 (2.0)]
] -200.0 MCshow
4.000 UL
LTb
LCb setrgbcolor
9188 13104 M
0 126 V
0 7214 R
0 -126 V
893 -7214 R
0 252 V
0 7088 R
0 -252 V
stroke
10081 12504 M
[ [(Helvetica) 600.0 0.0 true true 0 (2.5)]
] -200.0 MCshow
4.000 UL
LTb
LCb setrgbcolor
4.000 UL
LTB
LCb setrgbcolor
2580 20444 N
0 -7340 V
7858 0 V
0 7340 V
-7858 0 V
Z stroke
1.000 UP
4.000 UL
LTb
LCb setrgbcolor
LCb setrgbcolor
480 16774 M
currentpoint gsave translate -270 rotate 0 0 moveto
[ [(Helvetica) 600.0 0.0 true true 0 (Surface coverage, %)]
] -200.0 MCshow
grestore
LTb
LCb setrgbcolor
6509 11604 M
[ [(Symbol-Oblique) 600.0 0.0 true true 0 (e)]
[(Helvetica) 480.0 -180.0 true true 0 (Hh)]
[(Helvetica) 600.0 0.0 true true 0 (/k)]
[(Helvetica) 480.0 -180.0 true true 0 (B)]
[(Helvetica) 600.0 0.0 true true 0 (T)]
] -140.0 MCshow
LTb
% Begin plot #1
3.000 UP
6.000 UL
LTb
0.00 0.00 1.00 C LCb setrgbcolor
4203 20131 M
[ [(Symbol-Oblique) 500.0 0.0 true true 0 (e)]
[(Helvetica) 400.0 -150.0 true true 0 (hh)]
[(Helvetica) 500.0 0.0 true true 0 (/k)]
[(Helvetica) 400.0 -150.0 true true 0 (B)]
[(Helvetica) 500.0 0.0 true true 0 (T = 0.3)]
] -116.7 MLshow
3.000 UP
6.000 UL
LTb
0.00 0.00 1.00 C 3240 20131 M
663 0 V
2937 14292 M
1072 968 V
714 496 V
714 478 V
1072 548 V
1786 813 V
1786 499 V
2937 14292 BoxF
4009 15260 BoxF
4723 15756 BoxF
5437 16234 BoxF
6509 16782 BoxF
8295 17595 BoxF
10081 18094 BoxF
3572 20131 BoxF
% End plot #1
% Begin plot #2
3.000 UP
6.000 UL
LTb
0.00 0.00 1.00 C 2937 13970 M
0 643 V
-62 -643 R
124 0 V
-124 643 R
124 0 V
1010 424 R
0 447 V
-62 -447 R
124 0 V
-124 447 R
124 0 V
652 85 R
0 374 V
-62 -374 R
124 0 V
-124 374 R
124 0 V
652 105 R
0 371 V
-62 -371 R
124 0 V
-124 371 R
124 0 V
1010 212 R
0 302 V
-62 -302 R
124 0 V
-124 302 R
124 0 V
1724 509 R
0 305 V
-62 -305 R
124 0 V
-124 305 R
124 0 V
1724 244 R
0 207 V
-62 -207 R
124 0 V
-124 207 R
124 0 V
2937 14292 BoxF
4009 15260 BoxF
4723 15756 BoxF
5437 16234 BoxF
6509 16782 BoxF
8295 17595 BoxF
10081 18094 BoxF
% End plot #2
% Begin plot #3
3.000 UP
6.000 UL
LTb
1.00 0.00 0.00 C LCb setrgbcolor
4203 19631 M
[ [(Symbol-Oblique) 500.0 0.0 true true 0 (e)]
[(Helvetica) 400.0 -150.0 true true 0 (hh)]
[(Helvetica) 500.0 0.0 true true 0 (/k)]
[(Helvetica) 400.0 -150.0 true true 0 (B)]
[(Helvetica) 500.0 0.0 true true 0 (T = 0.5)]
] -116.7 MLshow
3.000 UP
6.000 UL
LTb
1.00 0.00 0.00 C 3240 19631 M
663 0 V
2937 14584 M
1072 707 V
714 433 V
714 707 V
1072 648 V
1786 720 V
1786 290 V
2937 14584 CircleF
4009 15291 CircleF
4723 15724 CircleF
5437 16431 CircleF
6509 17079 CircleF
8295 17799 CircleF
10081 18089 CircleF
3572 19631 CircleF
% End plot #3
% Begin plot #4
3.000 UP
6.000 UL
LTb
1.00 0.00 0.00 C 2937 14326 M
0 517 V
-62 -517 R
124 0 V
-124 517 R
124 0 V
1010 212 R
0 473 V
-62 -473 R
124 0 V
-124 473 R
124 0 V
652 -12 R
0 417 V
-62 -417 R
124 0 V
-124 417 R
124 0 V
652 244 R
0 509 V
-62 -509 R
124 0 V
-124 509 R
124 0 V
1010 141 R
0 503 V
-62 -503 R
124 0 V
-124 503 R
124 0 V
1724 268 R
0 403 V
-62 -403 R
124 0 V
-124 403 R
124 0 V
1724 -70 R
0 316 V
-62 -316 R
124 0 V
-124 316 R
124 0 V
2937 14584 CircleF
4009 15291 CircleF
4723 15724 CircleF
5437 16431 CircleF
6509 17079 CircleF
8295 17799 CircleF
10081 18089 CircleF
% End plot #4
% Begin plot #5
3.000 UP
6.000 UL
LTb
0.00 0.00 0.00 C LCb setrgbcolor
4203 19131 M
[ [(Symbol-Oblique) 500.0 0.0 true true 0 (e)]
[(Helvetica) 400.0 -150.0 true true 0 (hh)]
[(Helvetica) 500.0 0.0 true true 0 (/k)]
[(Helvetica) 400.0 -150.0 true true 0 (B)]
[(Helvetica) 500.0 0.0 true true 0 (T = 0.8)]
] -116.7 MLshow
3.000 UP
6.000 UL
LTb
0.00 0.00 0.00 C 3240 19131 M
663 0 V
2937 14410 M
1072 1126 V
714 765 V
714 400 V
1072 817 V
1786 551 V
1786 380 V
2937 14410 TriDF
4009 15536 TriDF
4723 16301 TriDF
5437 16701 TriDF
6509 17518 TriDF
8295 18069 TriDF
10081 18449 TriDF
3572 19131 TriDF
% End plot #5
% Begin plot #6
3.000 UP
6.000 UL
LTb
0.00 0.00 0.00 C 2937 14108 M
0 604 V
-62 -604 R
124 0 V
-124 604 R
124 0 V
1010 529 R
0 591 V
-62 -591 R
124 0 V
-124 591 R
124 0 V
652 250 R
0 438 V
-62 -438 R
124 0 V
-124 438 R
124 0 V
652 9 R
0 343 V
-62 -343 R
124 0 V
-124 343 R
124 0 V
1010 470 R
0 351 V
-62 -351 R
124 0 V
-124 351 R
124 0 V
1724 159 R
0 434 V
-62 -434 R
124 0 V
-124 434 R
124 0 V
1724 9 R
0 308 V
-62 -308 R
124 0 V
-124 308 R
124 0 V
2937 14410 TriDF
4009 15536 TriDF
4723 16301 TriDF
5437 16701 TriDF
6509 17518 TriDF
8295 18069 TriDF
10081 18449 TriDF
% End plot #6
% Begin plot #7
3.000 UP
6.000 UL
LTb
0.00 0.39 0.00 C LCb setrgbcolor
4203 18631 M
[ [(Symbol-Oblique) 500.0 0.0 true true 0 (e)]
[(Helvetica) 400.0 -150.0 true true 0 (hh)]
[(Helvetica) 500.0 0.0 true true 0 (/k)]
[(Helvetica) 400.0 -150.0 true true 0 (B)]
[(Helvetica) 500.0 0.0 true true 0 (T = 1.2)]
] -116.7 MLshow
3.000 UP
6.000 UL
LTb
0.00 0.39 0.00 C 3240 18631 M
663 0 V
2937 14110 M
1072 384 V
714 530 V
714 562 V
1072 1595 V
1786 998 V
1786 426 V
2937 14110 DiaF
4009 14494 DiaF
4723 15024 DiaF
5437 15586 DiaF
6509 17181 DiaF
8295 18179 DiaF
10081 18605 DiaF
3572 18631 DiaF
% End plot #7
% Begin plot #8
3.000 UP
6.000 UL
LTb
0.00 0.39 0.00 C 2937 13920 M
0 380 V
-62 -380 R
124 0 V
-124 380 R
124 0 V
1010 5 R
0 377 V
-62 -377 R
124 0 V
-124 377 R
124 0 V
652 133 R
0 419 V
-62 -419 R
124 0 V
-124 419 R
124 0 V
652 131 R
0 441 V
-62 -441 R
124 0 V
-124 441 R
124 0 V
1010 1212 R
0 325 V
-62 -325 R
124 0 V
-124 325 R
124 0 V
1724 660 R
0 351 V
-62 -351 R
124 0 V
-124 351 R
124 0 V
1724 75 R
0 353 V
-62 -353 R
124 0 V
-124 353 R
124 0 V
2937 14110 DiaF
4009 14494 DiaF
4723 15024 DiaF
5437 15586 DiaF
6509 17181 DiaF
8295 18179 DiaF
10081 18605 DiaF
% End plot #8
2.000 UL
LTb
LCb setrgbcolor
4.000 UL
LTB
LCb setrgbcolor
2580 20444 N
0 -7340 V
7858 0 V
0 7340 V
-7858 0 V
Z stroke
1.000 UP
4.000 UL
LTb
LCb setrgbcolor
stroke
grestore
end
showpage
%%Trailer
%%DocumentFonts: Symbol Helvetica
