%!PS-Adobe-2.0 EPSF-2.0
%%Title: correl-rdf.eps
%%Creator: gnuplot 5.0 patchlevel 5
%%CreationDate: Tue Dec 26 12:37:00 2017
%%DocumentFonts: (atend)
%%BoundingBox: 50 50 770 503
%%EndComments
%%BeginProlog
/gnudict 256 dict def
gnudict begin
%
% The following true/false flags may be edited by hand if desired.
% The unit line width and grayscale image gamma correction may also be changed.
%
/Color true def
/Blacktext false def
/Solid false def
/Dashlength 1 def
/Landscape false def
/Level1 false def
/Level3 false def
/Rounded false def
/ClipToBoundingBox false def
/SuppressPDFMark false def
/TransparentPatterns false def
/gnulinewidth 5.000 def
/userlinewidth gnulinewidth def
/Gamma 1.0 def
/BackgroundColor {-1.000 -1.000 -1.000} def
%
/vshift -166 def
/dl1 {
  10.0 Dashlength userlinewidth gnulinewidth div mul mul mul
  Rounded { currentlinewidth 0.75 mul sub dup 0 le { pop 0.01 } if } if
} def
/dl2 {
  10.0 Dashlength userlinewidth gnulinewidth div mul mul mul
  Rounded { currentlinewidth 0.75 mul add } if
} def
/hpt_ 31.5 def
/vpt_ 31.5 def
/hpt hpt_ def
/vpt vpt_ def
/doclip {
  ClipToBoundingBox {
    newpath 50 50 moveto 770 50 lineto 770 503 lineto 50 503 lineto closepath
    clip
  } if
} def
%
% Gnuplot Prolog Version 5.1 (Oct 2015)
%
%/SuppressPDFMark true def
%
/M {moveto} bind def
/L {lineto} bind def
/R {rmoveto} bind def
/V {rlineto} bind def
/N {newpath moveto} bind def
/Z {closepath} bind def
/C {setrgbcolor} bind def
/f {rlineto fill} bind def
/g {setgray} bind def
/Gshow {show} def   % May be redefined later in the file to support UTF-8
/vpt2 vpt 2 mul def
/hpt2 hpt 2 mul def
/Lshow {currentpoint stroke M 0 vshift R 
	Blacktext {gsave 0 setgray textshow grestore} {textshow} ifelse} def
/Rshow {currentpoint stroke M dup stringwidth pop neg vshift R
	Blacktext {gsave 0 setgray textshow grestore} {textshow} ifelse} def
/Cshow {currentpoint stroke M dup stringwidth pop -2 div vshift R 
	Blacktext {gsave 0 setgray textshow grestore} {textshow} ifelse} def
/UP {dup vpt_ mul /vpt exch def hpt_ mul /hpt exch def
  /hpt2 hpt 2 mul def /vpt2 vpt 2 mul def} def
/DL {Color {setrgbcolor Solid {pop []} if 0 setdash}
 {pop pop pop 0 setgray Solid {pop []} if 0 setdash} ifelse} def
/BL {stroke userlinewidth 2 mul setlinewidth
	Rounded {1 setlinejoin 1 setlinecap} if} def
/AL {stroke userlinewidth 2 div setlinewidth
	Rounded {1 setlinejoin 1 setlinecap} if} def
/UL {dup gnulinewidth mul /userlinewidth exch def
	dup 1 lt {pop 1} if 10 mul /udl exch def} def
/PL {stroke userlinewidth setlinewidth
	Rounded {1 setlinejoin 1 setlinecap} if} def
3.8 setmiterlimit
% Classic Line colors (version 5.0)
/LCw {1 1 1} def
/LCb {0 0 0} def
/LCa {0 0 0} def
/LC0 {1 0 0} def
/LC1 {0 1 0} def
/LC2 {0 0 1} def
/LC3 {1 0 1} def
/LC4 {0 1 1} def
/LC5 {1 1 0} def
/LC6 {0 0 0} def
/LC7 {1 0.3 0} def
/LC8 {0.5 0.5 0.5} def
% Default dash patterns (version 5.0)
/LTB {BL [] LCb DL} def
/LTw {PL [] 1 setgray} def
/LTb {PL [] LCb DL} def
/LTa {AL [1 udl mul 2 udl mul] 0 setdash LCa setrgbcolor} def
/LT0 {PL [] LC0 DL} def
/LT1 {PL [2 dl1 3 dl2] LC1 DL} def
/LT2 {PL [1 dl1 1.5 dl2] LC2 DL} def
/LT3 {PL [6 dl1 2 dl2 1 dl1 2 dl2] LC3 DL} def
/LT4 {PL [1 dl1 2 dl2 6 dl1 2 dl2 1 dl1 2 dl2] LC4 DL} def
/LT5 {PL [4 dl1 2 dl2] LC5 DL} def
/LT6 {PL [1.5 dl1 1.5 dl2 1.5 dl1 1.5 dl2 1.5 dl1 6 dl2] LC6 DL} def
/LT7 {PL [3 dl1 3 dl2 1 dl1 3 dl2] LC7 DL} def
/LT8 {PL [2 dl1 2 dl2 2 dl1 6 dl2] LC8 DL} def
/SL {[] 0 setdash} def
/Pnt {stroke [] 0 setdash gsave 1 setlinecap M 0 0 V stroke grestore} def
/Dia {stroke [] 0 setdash 2 copy vpt add M
  hpt neg vpt neg V hpt vpt neg V
  hpt vpt V hpt neg vpt V closepath stroke
  Pnt} def
/Pls {stroke [] 0 setdash vpt sub M 0 vpt2 V
  currentpoint stroke M
  hpt neg vpt neg R hpt2 0 V stroke
 } def
/Box {stroke [] 0 setdash 2 copy exch hpt sub exch vpt add M
  0 vpt2 neg V hpt2 0 V 0 vpt2 V
  hpt2 neg 0 V closepath stroke
  Pnt} def
/Crs {stroke [] 0 setdash exch hpt sub exch vpt add M
  hpt2 vpt2 neg V currentpoint stroke M
  hpt2 neg 0 R hpt2 vpt2 V stroke} def
/TriU {stroke [] 0 setdash 2 copy vpt 1.12 mul add M
  hpt neg vpt -1.62 mul V
  hpt 2 mul 0 V
  hpt neg vpt 1.62 mul V closepath stroke
  Pnt} def
/Star {2 copy Pls Crs} def
/BoxF {stroke [] 0 setdash exch hpt sub exch vpt add M
  0 vpt2 neg V hpt2 0 V 0 vpt2 V
  hpt2 neg 0 V closepath fill} def
/TriUF {stroke [] 0 setdash vpt 1.12 mul add M
  hpt neg vpt -1.62 mul V
  hpt 2 mul 0 V
  hpt neg vpt 1.62 mul V closepath fill} def
/TriD {stroke [] 0 setdash 2 copy vpt 1.12 mul sub M
  hpt neg vpt 1.62 mul V
  hpt 2 mul 0 V
  hpt neg vpt -1.62 mul V closepath stroke
  Pnt} def
/TriDF {stroke [] 0 setdash vpt 1.12 mul sub M
  hpt neg vpt 1.62 mul V
  hpt 2 mul 0 V
  hpt neg vpt -1.62 mul V closepath fill} def
/DiaF {stroke [] 0 setdash vpt add M
  hpt neg vpt neg V hpt vpt neg V
  hpt vpt V hpt neg vpt V closepath fill} def
/Pent {stroke [] 0 setdash 2 copy gsave
  translate 0 hpt M 4 {72 rotate 0 hpt L} repeat
  closepath stroke grestore Pnt} def
/PentF {stroke [] 0 setdash gsave
  translate 0 hpt M 4 {72 rotate 0 hpt L} repeat
  closepath fill grestore} def
/Circle {stroke [] 0 setdash 2 copy
  hpt 0 360 arc stroke Pnt} def
/CircleF {stroke [] 0 setdash hpt 0 360 arc fill} def
/C0 {BL [] 0 setdash 2 copy moveto vpt 90 450 arc} bind def
/C1 {BL [] 0 setdash 2 copy moveto
	2 copy vpt 0 90 arc closepath fill
	vpt 0 360 arc closepath} bind def
/C2 {BL [] 0 setdash 2 copy moveto
	2 copy vpt 90 180 arc closepath fill
	vpt 0 360 arc closepath} bind def
/C3 {BL [] 0 setdash 2 copy moveto
	2 copy vpt 0 180 arc closepath fill
	vpt 0 360 arc closepath} bind def
/C4 {BL [] 0 setdash 2 copy moveto
	2 copy vpt 180 270 arc closepath fill
	vpt 0 360 arc closepath} bind def
/C5 {BL [] 0 setdash 2 copy moveto
	2 copy vpt 0 90 arc
	2 copy moveto
	2 copy vpt 180 270 arc closepath fill
	vpt 0 360 arc} bind def
/C6 {BL [] 0 setdash 2 copy moveto
	2 copy vpt 90 270 arc closepath fill
	vpt 0 360 arc closepath} bind def
/C7 {BL [] 0 setdash 2 copy moveto
	2 copy vpt 0 270 arc closepath fill
	vpt 0 360 arc closepath} bind def
/C8 {BL [] 0 setdash 2 copy moveto
	2 copy vpt 270 360 arc closepath fill
	vpt 0 360 arc closepath} bind def
/C9 {BL [] 0 setdash 2 copy moveto
	2 copy vpt 270 450 arc closepath fill
	vpt 0 360 arc closepath} bind def
/C10 {BL [] 0 setdash 2 copy 2 copy moveto vpt 270 360 arc closepath fill
	2 copy moveto
	2 copy vpt 90 180 arc closepath fill
	vpt 0 360 arc closepath} bind def
/C11 {BL [] 0 setdash 2 copy moveto
	2 copy vpt 0 180 arc closepath fill
	2 copy moveto
	2 copy vpt 270 360 arc closepath fill
	vpt 0 360 arc closepath} bind def
/C12 {BL [] 0 setdash 2 copy moveto
	2 copy vpt 180 360 arc closepath fill
	vpt 0 360 arc closepath} bind def
/C13 {BL [] 0 setdash 2 copy moveto
	2 copy vpt 0 90 arc closepath fill
	2 copy moveto
	2 copy vpt 180 360 arc closepath fill
	vpt 0 360 arc closepath} bind def
/C14 {BL [] 0 setdash 2 copy moveto
	2 copy vpt 90 360 arc closepath fill
	vpt 0 360 arc} bind def
/C15 {BL [] 0 setdash 2 copy vpt 0 360 arc closepath fill
	vpt 0 360 arc closepath} bind def
/Rec {newpath 4 2 roll moveto 1 index 0 rlineto 0 exch rlineto
	neg 0 rlineto closepath} bind def
/Square {dup Rec} bind def
/Bsquare {vpt sub exch vpt sub exch vpt2 Square} bind def
/S0 {BL [] 0 setdash 2 copy moveto 0 vpt rlineto BL Bsquare} bind def
/S1 {BL [] 0 setdash 2 copy vpt Square fill Bsquare} bind def
/S2 {BL [] 0 setdash 2 copy exch vpt sub exch vpt Square fill Bsquare} bind def
/S3 {BL [] 0 setdash 2 copy exch vpt sub exch vpt2 vpt Rec fill Bsquare} bind def
/S4 {BL [] 0 setdash 2 copy exch vpt sub exch vpt sub vpt Square fill Bsquare} bind def
/S5 {BL [] 0 setdash 2 copy 2 copy vpt Square fill
	exch vpt sub exch vpt sub vpt Square fill Bsquare} bind def
/S6 {BL [] 0 setdash 2 copy exch vpt sub exch vpt sub vpt vpt2 Rec fill Bsquare} bind def
/S7 {BL [] 0 setdash 2 copy exch vpt sub exch vpt sub vpt vpt2 Rec fill
	2 copy vpt Square fill Bsquare} bind def
/S8 {BL [] 0 setdash 2 copy vpt sub vpt Square fill Bsquare} bind def
/S9 {BL [] 0 setdash 2 copy vpt sub vpt vpt2 Rec fill Bsquare} bind def
/S10 {BL [] 0 setdash 2 copy vpt sub vpt Square fill 2 copy exch vpt sub exch vpt Square fill
	Bsquare} bind def
/S11 {BL [] 0 setdash 2 copy vpt sub vpt Square fill 2 copy exch vpt sub exch vpt2 vpt Rec fill
	Bsquare} bind def
/S12 {BL [] 0 setdash 2 copy exch vpt sub exch vpt sub vpt2 vpt Rec fill Bsquare} bind def
/S13 {BL [] 0 setdash 2 copy exch vpt sub exch vpt sub vpt2 vpt Rec fill
	2 copy vpt Square fill Bsquare} bind def
/S14 {BL [] 0 setdash 2 copy exch vpt sub exch vpt sub vpt2 vpt Rec fill
	2 copy exch vpt sub exch vpt Square fill Bsquare} bind def
/S15 {BL [] 0 setdash 2 copy Bsquare fill Bsquare} bind def
/D0 {gsave translate 45 rotate 0 0 S0 stroke grestore} bind def
/D1 {gsave translate 45 rotate 0 0 S1 stroke grestore} bind def
/D2 {gsave translate 45 rotate 0 0 S2 stroke grestore} bind def
/D3 {gsave translate 45 rotate 0 0 S3 stroke grestore} bind def
/D4 {gsave translate 45 rotate 0 0 S4 stroke grestore} bind def
/D5 {gsave translate 45 rotate 0 0 S5 stroke grestore} bind def
/D6 {gsave translate 45 rotate 0 0 S6 stroke grestore} bind def
/D7 {gsave translate 45 rotate 0 0 S7 stroke grestore} bind def
/D8 {gsave translate 45 rotate 0 0 S8 stroke grestore} bind def
/D9 {gsave translate 45 rotate 0 0 S9 stroke grestore} bind def
/D10 {gsave translate 45 rotate 0 0 S10 stroke grestore} bind def
/D11 {gsave translate 45 rotate 0 0 S11 stroke grestore} bind def
/D12 {gsave translate 45 rotate 0 0 S12 stroke grestore} bind def
/D13 {gsave translate 45 rotate 0 0 S13 stroke grestore} bind def
/D14 {gsave translate 45 rotate 0 0 S14 stroke grestore} bind def
/D15 {gsave translate 45 rotate 0 0 S15 stroke grestore} bind def
/DiaE {stroke [] 0 setdash vpt add M
  hpt neg vpt neg V hpt vpt neg V
  hpt vpt V hpt neg vpt V closepath stroke} def
/BoxE {stroke [] 0 setdash exch hpt sub exch vpt add M
  0 vpt2 neg V hpt2 0 V 0 vpt2 V
  hpt2 neg 0 V closepath stroke} def
/TriUE {stroke [] 0 setdash vpt 1.12 mul add M
  hpt neg vpt -1.62 mul V
  hpt 2 mul 0 V
  hpt neg vpt 1.62 mul V closepath stroke} def
/TriDE {stroke [] 0 setdash vpt 1.12 mul sub M
  hpt neg vpt 1.62 mul V
  hpt 2 mul 0 V
  hpt neg vpt -1.62 mul V closepath stroke} def
/PentE {stroke [] 0 setdash gsave
  translate 0 hpt M 4 {72 rotate 0 hpt L} repeat
  closepath stroke grestore} def
/CircE {stroke [] 0 setdash 
  hpt 0 360 arc stroke} def
/Opaque {gsave closepath 1 setgray fill grestore 0 setgray closepath} def
/DiaW {stroke [] 0 setdash vpt add M
  hpt neg vpt neg V hpt vpt neg V
  hpt vpt V hpt neg vpt V Opaque stroke} def
/BoxW {stroke [] 0 setdash exch hpt sub exch vpt add M
  0 vpt2 neg V hpt2 0 V 0 vpt2 V
  hpt2 neg 0 V Opaque stroke} def
/TriUW {stroke [] 0 setdash vpt 1.12 mul add M
  hpt neg vpt -1.62 mul V
  hpt 2 mul 0 V
  hpt neg vpt 1.62 mul V Opaque stroke} def
/TriDW {stroke [] 0 setdash vpt 1.12 mul sub M
  hpt neg vpt 1.62 mul V
  hpt 2 mul 0 V
  hpt neg vpt -1.62 mul V Opaque stroke} def
/PentW {stroke [] 0 setdash gsave
  translate 0 hpt M 4 {72 rotate 0 hpt L} repeat
  Opaque stroke grestore} def
/CircW {stroke [] 0 setdash 
  hpt 0 360 arc Opaque stroke} def
/BoxFill {gsave Rec 1 setgray fill grestore} def
/Density {
  /Fillden exch def
  currentrgbcolor
  /ColB exch def /ColG exch def /ColR exch def
  /ColR ColR Fillden mul Fillden sub 1 add def
  /ColG ColG Fillden mul Fillden sub 1 add def
  /ColB ColB Fillden mul Fillden sub 1 add def
  ColR ColG ColB setrgbcolor} def
/BoxColFill {gsave Rec PolyFill} def
/PolyFill {gsave Density fill grestore grestore} def
/h {rlineto rlineto rlineto gsave closepath fill grestore} bind def
%
% PostScript Level 1 Pattern Fill routine for rectangles
% Usage: x y w h s a XX PatternFill
%	x,y = lower left corner of box to be filled
%	w,h = width and height of box
%	  a = angle in degrees between lines and x-axis
%	 XX = 0/1 for no/yes cross-hatch
%
/PatternFill {gsave /PFa [ 9 2 roll ] def
  PFa 0 get PFa 2 get 2 div add PFa 1 get PFa 3 get 2 div add translate
  PFa 2 get -2 div PFa 3 get -2 div PFa 2 get PFa 3 get Rec
  TransparentPatterns {} {gsave 1 setgray fill grestore} ifelse
  clip
  currentlinewidth 0.5 mul setlinewidth
  /PFs PFa 2 get dup mul PFa 3 get dup mul add sqrt def
  0 0 M PFa 5 get rotate PFs -2 div dup translate
  0 1 PFs PFa 4 get div 1 add floor cvi
	{PFa 4 get mul 0 M 0 PFs V} for
  0 PFa 6 get ne {
	0 1 PFs PFa 4 get div 1 add floor cvi
	{PFa 4 get mul 0 2 1 roll M PFs 0 V} for
 } if
  stroke grestore} def
%
/languagelevel where
 {pop languagelevel} {1} ifelse
dup 2 lt
	{/InterpretLevel1 true def
	 /InterpretLevel3 false def}
	{/InterpretLevel1 Level1 def
	 2 gt
	    {/InterpretLevel3 Level3 def}
	    {/InterpretLevel3 false def}
	 ifelse }
 ifelse
%
% PostScript level 2 pattern fill definitions
%
/Level2PatternFill {
/Tile8x8 {/PaintType 2 /PatternType 1 /TilingType 1 /BBox [0 0 8 8] /XStep 8 /YStep 8}
	bind def
/KeepColor {currentrgbcolor [/Pattern /DeviceRGB] setcolorspace} bind def
<< Tile8x8
 /PaintProc {0.5 setlinewidth pop 0 0 M 8 8 L 0 8 M 8 0 L stroke} 
>> matrix makepattern
/Pat1 exch def
<< Tile8x8
 /PaintProc {0.5 setlinewidth pop 0 0 M 8 8 L 0 8 M 8 0 L stroke
	0 4 M 4 8 L 8 4 L 4 0 L 0 4 L stroke}
>> matrix makepattern
/Pat2 exch def
<< Tile8x8
 /PaintProc {0.5 setlinewidth pop 0 0 M 0 8 L
	8 8 L 8 0 L 0 0 L fill}
>> matrix makepattern
/Pat3 exch def
<< Tile8x8
 /PaintProc {0.5 setlinewidth pop -4 8 M 8 -4 L
	0 12 M 12 0 L stroke}
>> matrix makepattern
/Pat4 exch def
<< Tile8x8
 /PaintProc {0.5 setlinewidth pop -4 0 M 8 12 L
	0 -4 M 12 8 L stroke}
>> matrix makepattern
/Pat5 exch def
<< Tile8x8
 /PaintProc {0.5 setlinewidth pop -2 8 M 4 -4 L
	0 12 M 8 -4 L 4 12 M 10 0 L stroke}
>> matrix makepattern
/Pat6 exch def
<< Tile8x8
 /PaintProc {0.5 setlinewidth pop -2 0 M 4 12 L
	0 -4 M 8 12 L 4 -4 M 10 8 L stroke}
>> matrix makepattern
/Pat7 exch def
<< Tile8x8
 /PaintProc {0.5 setlinewidth pop 8 -2 M -4 4 L
	12 0 M -4 8 L 12 4 M 0 10 L stroke}
>> matrix makepattern
/Pat8 exch def
<< Tile8x8
 /PaintProc {0.5 setlinewidth pop 0 -2 M 12 4 L
	-4 0 M 12 8 L -4 4 M 8 10 L stroke}
>> matrix makepattern
/Pat9 exch def
/Pattern1 {PatternBgnd KeepColor Pat1 setpattern} bind def
/Pattern2 {PatternBgnd KeepColor Pat2 setpattern} bind def
/Pattern3 {PatternBgnd KeepColor Pat3 setpattern} bind def
/Pattern4 {PatternBgnd KeepColor Landscape {Pat5} {Pat4} ifelse setpattern} bind def
/Pattern5 {PatternBgnd KeepColor Landscape {Pat4} {Pat5} ifelse setpattern} bind def
/Pattern6 {PatternBgnd KeepColor Landscape {Pat9} {Pat6} ifelse setpattern} bind def
/Pattern7 {PatternBgnd KeepColor Landscape {Pat8} {Pat7} ifelse setpattern} bind def
} def
%
%
%End of PostScript Level 2 code
%
/PatternBgnd {
  TransparentPatterns {} {gsave 1 setgray fill grestore} ifelse
} def
%
% Substitute for Level 2 pattern fill codes with
% grayscale if Level 2 support is not selected.
%
/Level1PatternFill {
/Pattern1 {0.250 Density} bind def
/Pattern2 {0.500 Density} bind def
/Pattern3 {0.750 Density} bind def
/Pattern4 {0.125 Density} bind def
/Pattern5 {0.375 Density} bind def
/Pattern6 {0.625 Density} bind def
/Pattern7 {0.875 Density} bind def
} def
%
% Now test for support of Level 2 code
%
Level1 {Level1PatternFill} {Level2PatternFill} ifelse
%
/Symbol-Oblique /Symbol findfont [1 0 .167 1 0 0] makefont
dup length dict begin {1 index /FID eq {pop pop} {def} ifelse} forall
currentdict end definefont pop
%
/MFshow {
   { dup 5 get 3 ge
     { 5 get 3 eq {gsave} {grestore} ifelse }
     {dup dup 0 get findfont exch 1 get scalefont setfont
     [ currentpoint ] exch dup 2 get 0 exch R dup 5 get 2 ne {dup dup 6
     get exch 4 get {textshow} {stringwidth pop 0 R} ifelse }if dup 5 get 0 eq
     {dup 3 get {2 get neg 0 exch R pop} {pop aload pop M} ifelse} {dup 5
     get 1 eq {dup 2 get exch dup 3 get exch 6 get stringwidth pop -2 div
     dup 0 R} {dup 6 get stringwidth pop -2 div 0 R 6 get
     textshow 2 index {aload pop M neg 3 -1 roll neg R pop pop} {pop pop pop
     pop aload pop M} ifelse }ifelse }ifelse }
     ifelse }
   forall} def
/Gswidth {dup type /stringtype eq {stringwidth} {pop (n) stringwidth} ifelse} def
/MFwidth {0 exch { dup 5 get 3 ge { 5 get 3 eq { 0 } { pop } ifelse }
 {dup 3 get{dup dup 0 get findfont exch 1 get scalefont setfont
     6 get Gswidth pop add} {pop} ifelse} ifelse} forall} def
/MLshow { currentpoint stroke M
  0 exch R
  Blacktext {gsave 0 setgray MFshow grestore} {MFshow} ifelse } bind def
/MRshow { currentpoint stroke M
  exch dup MFwidth neg 3 -1 roll R
  Blacktext {gsave 0 setgray MFshow grestore} {MFshow} ifelse } bind def
/MCshow { currentpoint stroke M
  exch dup MFwidth -2 div 3 -1 roll R
  Blacktext {gsave 0 setgray MFshow grestore} {MFshow} ifelse } bind def
/XYsave    { [( ) 1 2 true false 3 ()] } bind def
/XYrestore { [( ) 1 2 true false 4 ()] } bind def
Level1 SuppressPDFMark or 
{} {
/SDict 10 dict def
systemdict /pdfmark known not {
  userdict /pdfmark systemdict /cleartomark get put
} if
SDict begin [
  /Title (correl-rdf.eps)
  /Subject (gnuplot plot)
  /Creator (gnuplot 5.0 patchlevel 5)
  /Author (ndtrung)
%  /Producer (gnuplot)
%  /Keywords ()
  /CreationDate (Tue Dec 26 12:37:00 2017)
  /DOCINFO pdfmark
end
} ifelse
%
% Support for boxed text - Ethan A Merritt May 2005
%
/InitTextBox { userdict /TBy2 3 -1 roll put userdict /TBx2 3 -1 roll put
           userdict /TBy1 3 -1 roll put userdict /TBx1 3 -1 roll put
	   /Boxing true def } def
/ExtendTextBox { Boxing
    { gsave dup false charpath pathbbox
      dup TBy2 gt {userdict /TBy2 3 -1 roll put} {pop} ifelse
      dup TBx2 gt {userdict /TBx2 3 -1 roll put} {pop} ifelse
      dup TBy1 lt {userdict /TBy1 3 -1 roll put} {pop} ifelse
      dup TBx1 lt {userdict /TBx1 3 -1 roll put} {pop} ifelse
      grestore } if } def
/PopTextBox { newpath TBx1 TBxmargin sub TBy1 TBymargin sub M
               TBx1 TBxmargin sub TBy2 TBymargin add L
	       TBx2 TBxmargin add TBy2 TBymargin add L
	       TBx2 TBxmargin add TBy1 TBymargin sub L closepath } def
/DrawTextBox { PopTextBox stroke /Boxing false def} def
/FillTextBox { gsave PopTextBox 1 1 1 setrgbcolor fill grestore /Boxing false def} def
0 0 0 0 InitTextBox
/TBxmargin 20 def
/TBymargin 20 def
/Boxing false def
/textshow { ExtendTextBox Gshow } def
%
% redundant definitions for compatibility with prologue.ps older than 5.0.2
/LTB {BL [] LCb DL} def
/LTb {PL [] LCb DL} def
end
%%EndProlog
%%Page: 1 1
gnudict begin
gsave
doclip
50 50 translate
0.050 0.050 scale
0 setgray
newpath
(Helvetica) findfont 500 scalefont setfont
BackgroundColor 0 lt 3 1 roll 0 lt exch 0 lt or or not {BackgroundColor C 1.000 0 0 14400.00 9072.00 BoxColFill} if
4.000 UL
LTb
LCb setrgbcolor
1250 1600 M
252 0 V
11996 0 R
-252 0 V
stroke
LTb
LCb setrgbcolor
1250 2287 M
126 0 V
12122 0 R
-126 0 V
1250 2974 M
252 0 V
11996 0 R
-252 0 V
stroke
LTb
LCb setrgbcolor
1250 3661 M
126 0 V
12122 0 R
-126 0 V
1250 4348 M
252 0 V
11996 0 R
-252 0 V
stroke
LTb
LCb setrgbcolor
1250 5035 M
126 0 V
12122 0 R
-126 0 V
1250 5722 M
252 0 V
11996 0 R
-252 0 V
stroke
LTb
LCb setrgbcolor
1250 6409 M
126 0 V
12122 0 R
-126 0 V
1250 7096 M
252 0 V
11996 0 R
-252 0 V
stroke
LTb
LCb setrgbcolor
1250 7783 M
126 0 V
12122 0 R
-126 0 V
1250 8470 M
252 0 V
11996 0 R
-252 0 V
stroke
LTb
LCb setrgbcolor
1250 1600 M
0 252 V
0 6618 R
0 -252 V
stroke
1250 1100 M
[ [(Helvetica) 500.0 0.0 true true 0 (0.0)]
] -166.7 MCshow
4.000 UL
LTb
LCb setrgbcolor
2781 1600 M
0 126 V
0 6744 R
0 -126 V
4312 1600 M
0 252 V
0 6618 R
0 -252 V
stroke
4312 1100 M
[ [(Helvetica) 500.0 0.0 true true 0 (5.0)]
] -166.7 MCshow
4.000 UL
LTb
LCb setrgbcolor
5843 1600 M
0 126 V
0 6744 R
0 -126 V
7374 1600 M
0 252 V
0 6618 R
0 -252 V
stroke
7374 1100 M
[ [(Helvetica) 500.0 0.0 true true 0 (10.0)]
] -166.7 MCshow
4.000 UL
LTb
LCb setrgbcolor
8905 1600 M
0 126 V
0 6744 R
0 -126 V
10436 1600 M
0 252 V
0 6618 R
0 -252 V
stroke
10436 1100 M
[ [(Helvetica) 500.0 0.0 true true 0 (15.0)]
] -166.7 MCshow
4.000 UL
LTb
LCb setrgbcolor
11967 1600 M
0 126 V
0 6744 R
0 -126 V
13498 1600 M
0 252 V
0 6618 R
0 -252 V
stroke
13498 1100 M
[ [(Helvetica) 500.0 0.0 true true 0 (20.0)]
] -166.7 MCshow
4.000 UL
LTb
LCb setrgbcolor
4.000 UL
LTB
LCb setrgbcolor
1250 8470 N
0 -6870 V
12248 0 V
0 6870 V
-12248 0 V
Z stroke
1.000 UP
4.000 UL
LTb
LCb setrgbcolor
LCb setrgbcolor
400 5035 M
[ [(Helvetica) 500.0 0.0 true true 0 (g\(r\))]
] -166.7 MCshow
LTb
LCb setrgbcolor
7374 350 M
[ [(Helvetica) 500.0 0.0 true true 0 (r/)]
[(Symbol-Oblique) 500.0 0.0 true true 0 (s)]
] -166.7 MCshow
LTb
% Begin plot #1
2.000 UP
4.000 UL
LTb
0.00 0.00 1.00 C LCb setrgbcolor
5998 8157 M
[ [(Symbol-Oblique) 500.0 0.0 true true 0 (f)]
[(Helvetica) 400.0 -150.0 true true 0 (A)]
[(Helvetica) 500.0 0.0 true true 0 ( = 0.7)]
] -116.7 MLshow
2.000 UP
4.000 UL
LTb
0.00 0.00 1.00 C 5035 8157 M
663 0 V
1250 1600 M
61 0 V
61 0 V
62 27 V
61 -27 V
61 0 V
61 55 V
62 55 V
61 82 V
61 138 V
61 549 V
62 248 V
61 549 V
61 -467 V
61 55 V
62 192 V
61 -219 V
61 -83 V
61 357 V
62 -110 V
61 550 V
61 989 V
61 -742 V
62 28 V
61 302 V
61 -27 V
61 329 V
61 110 V
62 193 V
61 82 V
61 -247 V
61 1127 V
62 -605 V
61 577 V
61 82 V
61 -577 V
62 138 V
61 192 V
61 138 V
61 -413 V
62 1072 V
61 522 V
61 -907 V
61 138 V
62 82 V
61 220 V
61 495 V
61 -385 V
62 -385 V
61 495 V
61 137 V
61 -275 V
61 28 V
62 659 V
61 -1044 V
61 -137 V
61 220 V
62 1016 V
61 -1154 V
61 -55 V
61 110 V
62 -494 V
61 -138 V
61 605 V
61 275 V
62 -660 V
61 -385 V
61 -137 V
61 -28 V
62 -109 V
61 -248 V
61 330 V
61 0 V
62 -137 V
61 -275 V
61 -357 V
61 192 V
61 -165 V
62 -275 V
61 -220 V
61 -82 V
61 -55 V
62 137 V
61 -110 V
61 -137 V
61 -550 V
62 28 V
61 275 V
61 -385 V
61 -192 V
62 467 V
61 -193 V
61 -219 V
61 -55 V
62 -248 V
61 83 V
61 -83 V
61 -55 V
62 -27 V
61 137 V
61 -329 V
61 329 V
61 -329 V
stroke 7496 2260 M
62 0 V
61 -28 V
61 -330 V
61 83 V
62 -28 V
61 55 V
61 -192 V
61 192 V
62 -110 V
61 28 V
61 -165 V
61 -110 V
62 0 V
61 27 V
61 -27 V
61 0 V
62 137 V
61 -137 V
61 0 V
61 -28 V
62 0 V
61 -27 V
61 0 V
61 0 V
61 27 V
62 0 V
61 -27 V
61 0 V
61 0 V
62 0 V
61 0 V
61 0 V
61 0 V
62 0 V
61 0 V
61 0 V
61 0 V
62 0 V
61 0 V
61 0 V
61 0 V
62 0 V
61 0 V
61 0 V
61 0 V
62 0 V
61 0 V
61 0 V
61 0 V
61 0 V
62 0 V
61 0 V
61 0 V
61 0 V
62 0 V
61 0 V
61 0 V
61 0 V
62 0 V
61 0 V
61 0 V
61 0 V
62 0 V
61 0 V
61 0 V
61 0 V
62 0 V
61 0 V
61 0 V
61 0 V
62 0 V
61 0 V
61 0 V
61 0 V
61 0 V
62 0 V
61 0 V
61 0 V
61 0 V
62 0 V
61 0 V
61 0 V
61 0 V
62 0 V
61 0 V
61 0 V
61 0 V
62 0 V
61 0 V
61 0 V
61 0 V
62 0 V
61 0 V
61 0 V
61 0 V
62 0 V
61 0 V
61 0 V
1250 1600 BoxF
1311 1600 BoxF
1372 1600 BoxF
1434 1627 BoxF
1495 1600 BoxF
1556 1600 BoxF
1617 1655 BoxF
1679 1710 BoxF
1740 1792 BoxF
1801 1930 BoxF
1862 2479 BoxF
1924 2727 BoxF
1985 3276 BoxF
2046 2809 BoxF
2107 2864 BoxF
2169 3056 BoxF
2230 2837 BoxF
2291 2754 BoxF
2352 3111 BoxF
2414 3001 BoxF
2475 3551 BoxF
2536 4540 BoxF
2597 3798 BoxF
2659 3826 BoxF
2720 4128 BoxF
2781 4101 BoxF
2842 4430 BoxF
2903 4540 BoxF
2965 4733 BoxF
3026 4815 BoxF
3087 4568 BoxF
3148 5695 BoxF
3210 5090 BoxF
3271 5667 BoxF
3332 5749 BoxF
3393 5172 BoxF
3455 5310 BoxF
3516 5502 BoxF
3577 5640 BoxF
3638 5227 BoxF
3700 6299 BoxF
3761 6821 BoxF
3822 5914 BoxF
3883 6052 BoxF
3945 6134 BoxF
4006 6354 BoxF
4067 6849 BoxF
4128 6464 BoxF
4190 6079 BoxF
4251 6574 BoxF
4312 6711 BoxF
4373 6436 BoxF
4434 6464 BoxF
4496 7123 BoxF
4557 6079 BoxF
4618 5942 BoxF
4679 6162 BoxF
4741 7178 BoxF
4802 6024 BoxF
4863 5969 BoxF
4924 6079 BoxF
4986 5585 BoxF
5047 5447 BoxF
5108 6052 BoxF
5169 6327 BoxF
5231 5667 BoxF
5292 5282 BoxF
5353 5145 BoxF
5414 5117 BoxF
5476 5008 BoxF
5537 4760 BoxF
5598 5090 BoxF
5659 5090 BoxF
5721 4953 BoxF
5782 4678 BoxF
5843 4321 BoxF
5904 4513 BoxF
5965 4348 BoxF
6027 4073 BoxF
6088 3853 BoxF
6149 3771 BoxF
6210 3716 BoxF
6272 3853 BoxF
6333 3743 BoxF
6394 3606 BoxF
6455 3056 BoxF
6517 3084 BoxF
6578 3359 BoxF
6639 2974 BoxF
6700 2782 BoxF
6762 3249 BoxF
6823 3056 BoxF
6884 2837 BoxF
6945 2782 BoxF
7007 2534 BoxF
7068 2617 BoxF
7129 2534 BoxF
7190 2479 BoxF
7252 2452 BoxF
7313 2589 BoxF
7374 2260 BoxF
7435 2589 BoxF
7496 2260 BoxF
7558 2260 BoxF
7619 2232 BoxF
7680 1902 BoxF
7741 1985 BoxF
7803 1957 BoxF
7864 2012 BoxF
7925 1820 BoxF
7986 2012 BoxF
8048 1902 BoxF
8109 1930 BoxF
8170 1765 BoxF
8231 1655 BoxF
8293 1655 BoxF
8354 1682 BoxF
8415 1655 BoxF
8476 1655 BoxF
8538 1792 BoxF
8599 1655 BoxF
8660 1655 BoxF
8721 1627 BoxF
8783 1627 BoxF
8844 1600 BoxF
8905 1600 BoxF
8966 1600 BoxF
9027 1627 BoxF
9089 1627 BoxF
9150 1600 BoxF
9211 1600 BoxF
9272 1600 BoxF
9334 1600 BoxF
9395 1600 BoxF
9456 1600 BoxF
9517 1600 BoxF
9579 1600 BoxF
9640 1600 BoxF
9701 1600 BoxF
9762 1600 BoxF
9824 1600 BoxF
9885 1600 BoxF
9946 1600 BoxF
10007 1600 BoxF
10069 1600 BoxF
10130 1600 BoxF
10191 1600 BoxF
10252 1600 BoxF
10314 1600 BoxF
10375 1600 BoxF
10436 1600 BoxF
10497 1600 BoxF
10558 1600 BoxF
10620 1600 BoxF
10681 1600 BoxF
10742 1600 BoxF
10803 1600 BoxF
10865 1600 BoxF
10926 1600 BoxF
10987 1600 BoxF
11048 1600 BoxF
11110 1600 BoxF
11171 1600 BoxF
11232 1600 BoxF
11293 1600 BoxF
11355 1600 BoxF
11416 1600 BoxF
11477 1600 BoxF
11538 1600 BoxF
11600 1600 BoxF
11661 1600 BoxF
11722 1600 BoxF
11783 1600 BoxF
11845 1600 BoxF
11906 1600 BoxF
11967 1600 BoxF
12028 1600 BoxF
12089 1600 BoxF
12151 1600 BoxF
12212 1600 BoxF
12273 1600 BoxF
12334 1600 BoxF
12396 1600 BoxF
12457 1600 BoxF
12518 1600 BoxF
12579 1600 BoxF
12641 1600 BoxF
12702 1600 BoxF
12763 1600 BoxF
12824 1600 BoxF
12886 1600 BoxF
12947 1600 BoxF
13008 1600 BoxF
13069 1600 BoxF
13131 1600 BoxF
13192 1600 BoxF
13253 1600 BoxF
13314 1600 BoxF
13376 1600 BoxF
13437 1600 BoxF
13498 1600 BoxF
5367 8157 BoxF
% End plot #1
% Begin plot #2
2.000 UP
4.000 UL
LTb
1.00 0.00 0.00 C LCb setrgbcolor
5998 7657 M
[ [(Symbol-Oblique) 500.0 0.0 true true 0 (f)]
[(Helvetica) 400.0 -150.0 true true 0 (A)]
[(Helvetica) 500.0 0.0 true true 0 ( = 0.5)]
] -116.7 MLshow
2.000 UP
4.000 UL
LTb
1.00 0.00 0.00 C 5035 7657 M
663 0 V
1250 1600 M
61 0 V
61 0 V
62 0 V
61 0 V
61 27 V
61 0 V
62 83 V
61 55 V
61 82 V
61 522 V
62 193 V
61 82 V
61 -467 V
61 192 V
62 220 V
61 303 V
61 -110 V
61 55 V
62 412 V
61 -330 V
61 412 V
61 522 V
62 -687 V
61 358 V
61 -55 V
61 274 V
61 -27 V
62 385 V
61 192 V
61 -357 V
61 494 V
62 -82 V
61 247 V
61 28 V
61 -110 V
62 -412 V
61 302 V
61 27 V
61 523 V
62 -138 V
61 577 V
61 -137 V
61 27 V
62 0 V
61 -82 V
61 82 V
61 550 V
62 -137 V
61 -358 V
61 577 V
61 -714 V
61 1099 V
62 -1154 V
61 440 V
61 -605 V
61 192 V
62 632 V
61 83 V
61 -330 V
61 -687 V
62 357 V
61 275 V
61 -742 V
61 193 V
62 -110 V
61 -550 V
61 330 V
61 357 V
62 -165 V
61 -797 V
61 440 V
61 82 V
62 -329 V
61 -165 V
61 -193 V
61 413 V
61 -770 V
62 165 V
61 -220 V
61 83 V
61 -303 V
62 -192 V
61 302 V
61 -55 V
61 110 V
62 -797 V
61 138 V
61 -28 V
61 0 V
62 165 V
61 28 V
61 -303 V
61 -27 V
62 0 V
61 -55 V
61 110 V
61 -495 V
62 -82 V
61 384 V
61 110 V
61 -165 V
61 -274 V
stroke 7496 2095 M
62 27 V
61 220 V
61 -412 V
61 110 V
62 -248 V
61 165 V
61 -137 V
61 27 V
62 83 V
61 -138 V
61 -110 V
61 28 V
62 55 V
61 -110 V
61 -28 V
61 55 V
62 -27 V
61 -28 V
61 -27 V
61 27 V
62 -27 V
61 0 V
61 27 V
61 -27 V
61 0 V
62 0 V
61 0 V
61 0 V
61 0 V
62 0 V
61 0 V
61 0 V
61 0 V
62 0 V
61 0 V
61 0 V
61 0 V
62 0 V
61 0 V
61 0 V
61 0 V
62 0 V
61 0 V
61 0 V
61 0 V
62 0 V
61 0 V
61 0 V
61 0 V
61 0 V
62 0 V
61 0 V
61 0 V
61 0 V
62 0 V
61 0 V
61 0 V
61 0 V
62 0 V
61 0 V
61 0 V
61 0 V
62 0 V
61 0 V
61 0 V
61 0 V
62 0 V
61 0 V
61 0 V
61 0 V
62 0 V
61 0 V
61 0 V
61 0 V
61 0 V
62 0 V
61 0 V
61 0 V
61 0 V
62 0 V
61 0 V
61 0 V
61 0 V
62 0 V
61 0 V
61 0 V
61 0 V
62 0 V
61 0 V
61 0 V
61 0 V
62 0 V
61 0 V
61 0 V
61 0 V
62 0 V
61 0 V
61 0 V
1250 1600 CircleF
1311 1600 CircleF
1372 1600 CircleF
1434 1600 CircleF
1495 1600 CircleF
1556 1627 CircleF
1617 1627 CircleF
1679 1710 CircleF
1740 1765 CircleF
1801 1847 CircleF
1862 2369 CircleF
1924 2562 CircleF
1985 2644 CircleF
2046 2177 CircleF
2107 2369 CircleF
2169 2589 CircleF
2230 2892 CircleF
2291 2782 CircleF
2352 2837 CircleF
2414 3249 CircleF
2475 2919 CircleF
2536 3331 CircleF
2597 3853 CircleF
2659 3166 CircleF
2720 3524 CircleF
2781 3469 CircleF
2842 3743 CircleF
2903 3716 CircleF
2965 4101 CircleF
3026 4293 CircleF
3087 3936 CircleF
3148 4430 CircleF
3210 4348 CircleF
3271 4595 CircleF
3332 4623 CircleF
3393 4513 CircleF
3455 4101 CircleF
3516 4403 CircleF
3577 4430 CircleF
3638 4953 CircleF
3700 4815 CircleF
3761 5392 CircleF
3822 5255 CircleF
3883 5282 CircleF
3945 5282 CircleF
4006 5200 CircleF
4067 5282 CircleF
4128 5832 CircleF
4190 5695 CircleF
4251 5337 CircleF
4312 5914 CircleF
4373 5200 CircleF
4434 6299 CircleF
4496 5145 CircleF
4557 5585 CircleF
4618 4980 CircleF
4679 5172 CircleF
4741 5804 CircleF
4802 5887 CircleF
4863 5557 CircleF
4924 4870 CircleF
4986 5227 CircleF
5047 5502 CircleF
5108 4760 CircleF
5169 4953 CircleF
5231 4843 CircleF
5292 4293 CircleF
5353 4623 CircleF
5414 4980 CircleF
5476 4815 CircleF
5537 4018 CircleF
5598 4458 CircleF
5659 4540 CircleF
5721 4211 CircleF
5782 4046 CircleF
5843 3853 CircleF
5904 4266 CircleF
5965 3496 CircleF
6027 3661 CircleF
6088 3441 CircleF
6149 3524 CircleF
6210 3221 CircleF
6272 3029 CircleF
6333 3331 CircleF
6394 3276 CircleF
6455 3386 CircleF
6517 2589 CircleF
6578 2727 CircleF
6639 2699 CircleF
6700 2699 CircleF
6762 2864 CircleF
6823 2892 CircleF
6884 2589 CircleF
6945 2562 CircleF
7007 2562 CircleF
7068 2507 CircleF
7129 2617 CircleF
7190 2122 CircleF
7252 2040 CircleF
7313 2424 CircleF
7374 2534 CircleF
7435 2369 CircleF
7496 2095 CircleF
7558 2122 CircleF
7619 2342 CircleF
7680 1930 CircleF
7741 2040 CircleF
7803 1792 CircleF
7864 1957 CircleF
7925 1820 CircleF
7986 1847 CircleF
8048 1930 CircleF
8109 1792 CircleF
8170 1682 CircleF
8231 1710 CircleF
8293 1765 CircleF
8354 1655 CircleF
8415 1627 CircleF
8476 1682 CircleF
8538 1655 CircleF
8599 1627 CircleF
8660 1600 CircleF
8721 1627 CircleF
8783 1600 CircleF
8844 1600 CircleF
8905 1627 CircleF
8966 1600 CircleF
9027 1600 CircleF
9089 1600 CircleF
9150 1600 CircleF
9211 1600 CircleF
9272 1600 CircleF
9334 1600 CircleF
9395 1600 CircleF
9456 1600 CircleF
9517 1600 CircleF
9579 1600 CircleF
9640 1600 CircleF
9701 1600 CircleF
9762 1600 CircleF
9824 1600 CircleF
9885 1600 CircleF
9946 1600 CircleF
10007 1600 CircleF
10069 1600 CircleF
10130 1600 CircleF
10191 1600 CircleF
10252 1600 CircleF
10314 1600 CircleF
10375 1600 CircleF
10436 1600 CircleF
10497 1600 CircleF
10558 1600 CircleF
10620 1600 CircleF
10681 1600 CircleF
10742 1600 CircleF
10803 1600 CircleF
10865 1600 CircleF
10926 1600 CircleF
10987 1600 CircleF
11048 1600 CircleF
11110 1600 CircleF
11171 1600 CircleF
11232 1600 CircleF
11293 1600 CircleF
11355 1600 CircleF
11416 1600 CircleF
11477 1600 CircleF
11538 1600 CircleF
11600 1600 CircleF
11661 1600 CircleF
11722 1600 CircleF
11783 1600 CircleF
11845 1600 CircleF
11906 1600 CircleF
11967 1600 CircleF
12028 1600 CircleF
12089 1600 CircleF
12151 1600 CircleF
12212 1600 CircleF
12273 1600 CircleF
12334 1600 CircleF
12396 1600 CircleF
12457 1600 CircleF
12518 1600 CircleF
12579 1600 CircleF
12641 1600 CircleF
12702 1600 CircleF
12763 1600 CircleF
12824 1600 CircleF
12886 1600 CircleF
12947 1600 CircleF
13008 1600 CircleF
13069 1600 CircleF
13131 1600 CircleF
13192 1600 CircleF
13253 1600 CircleF
13314 1600 CircleF
13376 1600 CircleF
13437 1600 CircleF
13498 1600 CircleF
5367 7657 CircleF
% End plot #2
% Begin plot #3
2.000 UP
4.000 UL
LTb
0.00 0.39 0.00 C LCb setrgbcolor
5998 7157 M
[ [(Symbol-Oblique) 500.0 0.0 true true 0 (f)]
[(Helvetica) 400.0 -150.0 true true 0 (A)]
[(Helvetica) 500.0 0.0 true true 0 ( = 0.3)]
] -116.7 MLshow
2.000 UP
4.000 UL
LTb
0.00 0.39 0.00 C 5035 7157 M
663 0 V
1250 1600 M
61 0 V
61 0 V
62 0 V
61 0 V
61 0 V
61 0 V
62 27 V
61 55 V
61 28 V
61 357 V
62 -27 V
61 -55 V
61 165 V
61 -110 V
62 110 V
61 -28 V
61 -55 V
61 -55 V
62 138 V
61 -110 V
61 165 V
61 302 V
62 -83 V
61 358 V
61 -110 V
61 -330 V
61 385 V
62 -165 V
61 82 V
61 467 V
61 -247 V
62 -330 V
61 193 V
61 0 V
61 192 V
62 -110 V
61 83 V
61 0 V
61 82 V
62 55 V
61 -137 V
61 -220 V
61 687 V
62 -55 V
61 330 V
61 -495 V
61 220 V
62 -138 V
61 220 V
61 -440 V
61 248 V
61 -275 V
62 550 V
61 -193 V
61 -27 V
61 110 V
62 -220 V
61 -55 V
61 -357 V
61 879 V
62 -385 V
61 110 V
61 138 V
61 -605 V
62 605 V
61 -110 V
61 -220 V
61 -193 V
62 248 V
61 275 V
61 -165 V
61 -385 V
62 -82 V
61 109 V
61 -27 V
61 137 V
61 -219 V
62 -83 V
61 -247 V
61 -110 V
61 357 V
62 -302 V
61 0 V
61 -275 V
61 302 V
62 -274 V
61 192 V
61 -55 V
61 -165 V
62 28 V
61 -28 V
61 -110 V
61 467 V
62 -439 V
61 -193 V
61 110 V
61 -55 V
62 55 V
61 -110 V
61 165 V
61 -110 V
61 55 V
stroke 7496 2067 M
62 -110 V
61 -137 V
61 55 V
61 -28 V
62 -27 V
61 0 V
61 0 V
61 -55 V
62 -28 V
61 55 V
61 -137 V
61 27 V
62 0 V
61 0 V
61 -55 V
61 83 V
62 -55 V
61 0 V
61 -55 V
61 0 V
62 0 V
61 0 V
61 0 V
61 0 V
61 27 V
62 0 V
61 -27 V
61 0 V
61 0 V
62 0 V
61 0 V
61 0 V
61 0 V
62 0 V
61 0 V
61 0 V
61 0 V
62 0 V
61 0 V
61 0 V
61 0 V
62 0 V
61 0 V
61 0 V
61 0 V
62 0 V
61 0 V
61 0 V
61 0 V
61 0 V
62 0 V
61 0 V
61 0 V
61 0 V
62 0 V
61 0 V
61 0 V
61 0 V
62 0 V
61 0 V
61 0 V
61 0 V
62 0 V
61 0 V
61 0 V
61 0 V
62 0 V
61 0 V
61 0 V
61 0 V
62 0 V
61 0 V
61 0 V
61 0 V
61 0 V
62 0 V
61 0 V
61 0 V
61 0 V
62 0 V
61 0 V
61 0 V
61 0 V
62 0 V
61 0 V
61 0 V
61 0 V
62 0 V
61 0 V
61 0 V
61 0 V
62 0 V
61 0 V
61 0 V
61 0 V
62 0 V
61 0 V
61 0 V
1250 1600 TriDF
1311 1600 TriDF
1372 1600 TriDF
1434 1600 TriDF
1495 1600 TriDF
1556 1600 TriDF
1617 1600 TriDF
1679 1627 TriDF
1740 1682 TriDF
1801 1710 TriDF
1862 2067 TriDF
1924 2040 TriDF
1985 1985 TriDF
2046 2150 TriDF
2107 2040 TriDF
2169 2150 TriDF
2230 2122 TriDF
2291 2067 TriDF
2352 2012 TriDF
2414 2150 TriDF
2475 2040 TriDF
2536 2205 TriDF
2597 2507 TriDF
2659 2424 TriDF
2720 2782 TriDF
2781 2672 TriDF
2842 2342 TriDF
2903 2727 TriDF
2965 2562 TriDF
3026 2644 TriDF
3087 3111 TriDF
3148 2864 TriDF
3210 2534 TriDF
3271 2727 TriDF
3332 2727 TriDF
3393 2919 TriDF
3455 2809 TriDF
3516 2892 TriDF
3577 2892 TriDF
3638 2974 TriDF
3700 3029 TriDF
3761 2892 TriDF
3822 2672 TriDF
3883 3359 TriDF
3945 3304 TriDF
4006 3634 TriDF
4067 3139 TriDF
4128 3359 TriDF
4190 3221 TriDF
4251 3441 TriDF
4312 3001 TriDF
4373 3249 TriDF
4434 2974 TriDF
4496 3524 TriDF
4557 3331 TriDF
4618 3304 TriDF
4679 3414 TriDF
4741 3194 TriDF
4802 3139 TriDF
4863 2782 TriDF
4924 3661 TriDF
4986 3276 TriDF
5047 3386 TriDF
5108 3524 TriDF
5169 2919 TriDF
5231 3524 TriDF
5292 3414 TriDF
5353 3194 TriDF
5414 3001 TriDF
5476 3249 TriDF
5537 3524 TriDF
5598 3359 TriDF
5659 2974 TriDF
5721 2892 TriDF
5782 3001 TriDF
5843 2974 TriDF
5904 3111 TriDF
5965 2892 TriDF
6027 2809 TriDF
6088 2562 TriDF
6149 2452 TriDF
6210 2809 TriDF
6272 2507 TriDF
6333 2507 TriDF
6394 2232 TriDF
6455 2534 TriDF
6517 2260 TriDF
6578 2452 TriDF
6639 2397 TriDF
6700 2232 TriDF
6762 2260 TriDF
6823 2232 TriDF
6884 2122 TriDF
6945 2589 TriDF
7007 2150 TriDF
7068 1957 TriDF
7129 2067 TriDF
7190 2012 TriDF
7252 2067 TriDF
7313 1957 TriDF
7374 2122 TriDF
7435 2012 TriDF
7496 2067 TriDF
7558 1957 TriDF
7619 1820 TriDF
7680 1875 TriDF
7741 1847 TriDF
7803 1820 TriDF
7864 1820 TriDF
7925 1820 TriDF
7986 1765 TriDF
8048 1737 TriDF
8109 1792 TriDF
8170 1655 TriDF
8231 1682 TriDF
8293 1682 TriDF
8354 1682 TriDF
8415 1627 TriDF
8476 1710 TriDF
8538 1655 TriDF
8599 1655 TriDF
8660 1600 TriDF
8721 1600 TriDF
8783 1600 TriDF
8844 1600 TriDF
8905 1600 TriDF
8966 1600 TriDF
9027 1627 TriDF
9089 1627 TriDF
9150 1600 TriDF
9211 1600 TriDF
9272 1600 TriDF
9334 1600 TriDF
9395 1600 TriDF
9456 1600 TriDF
9517 1600 TriDF
9579 1600 TriDF
9640 1600 TriDF
9701 1600 TriDF
9762 1600 TriDF
9824 1600 TriDF
9885 1600 TriDF
9946 1600 TriDF
10007 1600 TriDF
10069 1600 TriDF
10130 1600 TriDF
10191 1600 TriDF
10252 1600 TriDF
10314 1600 TriDF
10375 1600 TriDF
10436 1600 TriDF
10497 1600 TriDF
10558 1600 TriDF
10620 1600 TriDF
10681 1600 TriDF
10742 1600 TriDF
10803 1600 TriDF
10865 1600 TriDF
10926 1600 TriDF
10987 1600 TriDF
11048 1600 TriDF
11110 1600 TriDF
11171 1600 TriDF
11232 1600 TriDF
11293 1600 TriDF
11355 1600 TriDF
11416 1600 TriDF
11477 1600 TriDF
11538 1600 TriDF
11600 1600 TriDF
11661 1600 TriDF
11722 1600 TriDF
11783 1600 TriDF
11845 1600 TriDF
11906 1600 TriDF
11967 1600 TriDF
12028 1600 TriDF
12089 1600 TriDF
12151 1600 TriDF
12212 1600 TriDF
12273 1600 TriDF
12334 1600 TriDF
12396 1600 TriDF
12457 1600 TriDF
12518 1600 TriDF
12579 1600 TriDF
12641 1600 TriDF
12702 1600 TriDF
12763 1600 TriDF
12824 1600 TriDF
12886 1600 TriDF
12947 1600 TriDF
13008 1600 TriDF
13069 1600 TriDF
13131 1600 TriDF
13192 1600 TriDF
13253 1600 TriDF
13314 1600 TriDF
13376 1600 TriDF
13437 1600 TriDF
13498 1600 TriDF
5367 7157 TriDF
% End plot #3
% Begin plot #4
2.000 UP
4.000 UL
LTb
0.75 0.75 0.75 C LCb setrgbcolor
5998 6657 M
[ [(Helvetica) 500.0 0.0 true true 0 (Protein attractive sites)]
] -166.7 MLshow
2.000 UP
4.000 UL
LTb
0.75 0.75 0.75 C 5035 6657 M
663 0 V
1250 1600 M
61 0 V
61 0 V
62 0 V
61 0 V
61 0 V
61 0 V
62 0 V
61 0 V
61 55 V
61 412 V
62 28 V
61 219 V
61 -27 V
61 55 V
62 82 V
61 -164 V
61 329 V
61 -82 V
62 -83 V
61 165 V
61 -220 V
61 880 V
62 -275 V
61 55 V
61 -82 V
61 109 V
61 220 V
62 0 V
61 -137 V
61 440 V
61 357 V
62 -28 V
61 -192 V
61 -275 V
61 412 V
62 28 V
61 -577 V
61 907 V
61 -385 V
62 82 V
61 -439 V
61 219 V
61 523 V
62 467 V
61 -522 V
61 -330 V
61 659 V
62 -467 V
61 412 V
61 -247 V
61 -192 V
61 247 V
62 28 V
61 522 V
61 -605 V
61 330 V
62 -467 V
61 577 V
61 -660 V
61 -357 V
62 247 V
61 303 V
61 -138 V
61 -55 V
62 -55 V
61 -329 V
61 137 V
61 110 V
62 -55 V
61 -385 V
61 0 V
61 467 V
62 -329 V
61 -165 V
61 0 V
61 110 V
61 -358 V
62 138 V
61 -302 V
61 247 V
61 -715 V
62 440 V
61 -55 V
61 110 V
61 -412 V
62 357 V
61 -495 V
61 138 V
61 -302 V
62 -28 V
61 165 V
61 -302 V
61 577 V
62 -358 V
61 -192 V
61 0 V
61 28 V
62 -28 V
61 -82 V
61 -28 V
61 -55 V
61 0 V
stroke 7496 1957 M
62 138 V
61 -193 V
61 55 V
61 -220 V
62 83 V
61 -138 V
61 0 V
61 110 V
62 0 V
61 -55 V
61 -55 V
61 0 V
62 -27 V
61 -28 V
61 0 V
61 0 V
62 55 V
61 -82 V
61 27 V
61 0 V
62 -27 V
61 0 V
61 0 V
61 0 V
61 27 V
62 -27 V
61 0 V
61 0 V
61 0 V
62 0 V
61 0 V
61 0 V
61 0 V
62 0 V
61 0 V
61 0 V
61 0 V
62 0 V
61 0 V
61 0 V
61 0 V
62 0 V
61 0 V
61 0 V
61 0 V
62 0 V
61 0 V
61 0 V
61 0 V
61 0 V
62 0 V
61 0 V
61 0 V
61 0 V
62 0 V
61 0 V
61 0 V
61 0 V
62 0 V
61 0 V
61 0 V
61 0 V
62 0 V
61 0 V
61 0 V
61 0 V
62 0 V
61 0 V
61 0 V
61 0 V
62 0 V
61 0 V
61 0 V
61 0 V
61 0 V
62 0 V
61 0 V
61 0 V
61 0 V
62 0 V
61 0 V
61 0 V
61 0 V
62 0 V
61 0 V
61 0 V
61 0 V
62 0 V
61 0 V
61 0 V
61 0 V
62 0 V
61 0 V
61 0 V
61 0 V
62 0 V
61 0 V
61 0 V
1250 1600 TriUF
1311 1600 TriUF
1372 1600 TriUF
1434 1600 TriUF
1495 1600 TriUF
1556 1600 TriUF
1617 1600 TriUF
1679 1600 TriUF
1740 1600 TriUF
1801 1655 TriUF
1862 2067 TriUF
1924 2095 TriUF
1985 2314 TriUF
2046 2287 TriUF
2107 2342 TriUF
2169 2424 TriUF
2230 2260 TriUF
2291 2589 TriUF
2352 2507 TriUF
2414 2424 TriUF
2475 2589 TriUF
2536 2369 TriUF
2597 3249 TriUF
2659 2974 TriUF
2720 3029 TriUF
2781 2947 TriUF
2842 3056 TriUF
2903 3276 TriUF
2965 3276 TriUF
3026 3139 TriUF
3087 3579 TriUF
3148 3936 TriUF
3210 3908 TriUF
3271 3716 TriUF
3332 3441 TriUF
3393 3853 TriUF
3455 3881 TriUF
3516 3304 TriUF
3577 4211 TriUF
3638 3826 TriUF
3700 3908 TriUF
3761 3469 TriUF
3822 3688 TriUF
3883 4211 TriUF
3945 4678 TriUF
4006 4156 TriUF
4067 3826 TriUF
4128 4485 TriUF
4190 4018 TriUF
4251 4430 TriUF
4312 4183 TriUF
4373 3991 TriUF
4434 4238 TriUF
4496 4266 TriUF
4557 4788 TriUF
4618 4183 TriUF
4679 4513 TriUF
4741 4046 TriUF
4802 4623 TriUF
4863 3963 TriUF
4924 3606 TriUF
4986 3853 TriUF
5047 4156 TriUF
5108 4018 TriUF
5169 3963 TriUF
5231 3908 TriUF
5292 3579 TriUF
5353 3716 TriUF
5414 3826 TriUF
5476 3771 TriUF
5537 3386 TriUF
5598 3386 TriUF
5659 3853 TriUF
5721 3524 TriUF
5782 3359 TriUF
5843 3359 TriUF
5904 3469 TriUF
5965 3111 TriUF
6027 3249 TriUF
6088 2947 TriUF
6149 3194 TriUF
6210 2479 TriUF
6272 2919 TriUF
6333 2864 TriUF
6394 2974 TriUF
6455 2562 TriUF
6517 2919 TriUF
6578 2424 TriUF
6639 2562 TriUF
6700 2260 TriUF
6762 2232 TriUF
6823 2397 TriUF
6884 2095 TriUF
6945 2672 TriUF
7007 2314 TriUF
7068 2122 TriUF
7129 2122 TriUF
7190 2150 TriUF
7252 2122 TriUF
7313 2040 TriUF
7374 2012 TriUF
7435 1957 TriUF
7496 1957 TriUF
7558 2095 TriUF
7619 1902 TriUF
7680 1957 TriUF
7741 1737 TriUF
7803 1820 TriUF
7864 1682 TriUF
7925 1682 TriUF
7986 1792 TriUF
8048 1792 TriUF
8109 1737 TriUF
8170 1682 TriUF
8231 1682 TriUF
8293 1655 TriUF
8354 1627 TriUF
8415 1627 TriUF
8476 1627 TriUF
8538 1682 TriUF
8599 1600 TriUF
8660 1627 TriUF
8721 1627 TriUF
8783 1600 TriUF
8844 1600 TriUF
8905 1600 TriUF
8966 1600 TriUF
9027 1627 TriUF
9089 1600 TriUF
9150 1600 TriUF
9211 1600 TriUF
9272 1600 TriUF
9334 1600 TriUF
9395 1600 TriUF
9456 1600 TriUF
9517 1600 TriUF
9579 1600 TriUF
9640 1600 TriUF
9701 1600 TriUF
9762 1600 TriUF
9824 1600 TriUF
9885 1600 TriUF
9946 1600 TriUF
10007 1600 TriUF
10069 1600 TriUF
10130 1600 TriUF
10191 1600 TriUF
10252 1600 TriUF
10314 1600 TriUF
10375 1600 TriUF
10436 1600 TriUF
10497 1600 TriUF
10558 1600 TriUF
10620 1600 TriUF
10681 1600 TriUF
10742 1600 TriUF
10803 1600 TriUF
10865 1600 TriUF
10926 1600 TriUF
10987 1600 TriUF
11048 1600 TriUF
11110 1600 TriUF
11171 1600 TriUF
11232 1600 TriUF
11293 1600 TriUF
11355 1600 TriUF
11416 1600 TriUF
11477 1600 TriUF
11538 1600 TriUF
11600 1600 TriUF
11661 1600 TriUF
11722 1600 TriUF
11783 1600 TriUF
11845 1600 TriUF
11906 1600 TriUF
11967 1600 TriUF
12028 1600 TriUF
12089 1600 TriUF
12151 1600 TriUF
12212 1600 TriUF
12273 1600 TriUF
12334 1600 TriUF
12396 1600 TriUF
12457 1600 TriUF
12518 1600 TriUF
12579 1600 TriUF
12641 1600 TriUF
12702 1600 TriUF
12763 1600 TriUF
12824 1600 TriUF
12886 1600 TriUF
12947 1600 TriUF
13008 1600 TriUF
13069 1600 TriUF
13131 1600 TriUF
13192 1600 TriUF
13253 1600 TriUF
13314 1600 TriUF
13376 1600 TriUF
13437 1600 TriUF
13498 1600 TriUF
5367 6657 TriUF
% End plot #4
2.000 UL
LTb
LCb setrgbcolor
4.000 UL
LTB
LCb setrgbcolor
1250 8470 N
0 -6870 V
12248 0 V
0 6870 V
-12248 0 V
Z stroke
1.000 UP
4.000 UL
LTb
LCb setrgbcolor
stroke
grestore
end
showpage
%%Trailer
%%DocumentFonts: Symbol Helvetica
