eps-cross coverage stdev sq-end-to-end stdev
0.5 16.18 4.37785 36.22 6.2069 17.4 3.32265
0.8 29.38 3.05116 35.37 4.62127 21.6 1.49666
1.0 36.13 2.55188 35.26 5.27052 24.4 2.61534
1.2 42.64 2.52674 34.65 3.7184 28.1 1.57797
1.5 50.11 2.0608 35.05 2.44223 31.9 2.21133
2.0 61.18 2.08221 37.44 3.45578 35.6 2.00998
2.5 67.99 1.41312 38.49 3.93585 40.8 2.03961
